# Redshift		Merger Rate Density [Gpc^-3yr^-1]
1.000000000031931770e-02 1.025661247717057734e+02
3.000000000031888964e-02 1.078231182172490321e+02
5.000000000031846331e-02 1.134016641985786435e+02
7.000000000031804392e-02 1.187305344122235624e+02
9.000000000031761760e-02 1.243503717325577611e+02
1.100000000003171913e-01 1.298889821479531292e+02
1.300000000003167511e-01 1.361492474158496577e+02
1.500000000003163247e-01 1.417501315418049046e+02
1.700000000003158984e-01 1.478568973046702979e+02
1.900000000003154721e-01 1.542418445659722579e+02
2.100000000003150458e-01 1.606829095765068303e+02
2.300000000003146194e-01 1.665894800060324314e+02
2.500000000003141931e-01 1.738341478815111429e+02
2.700000000003137668e-01 1.798522797530589230e+02
2.900000000003133405e-01 1.873715757539779077e+02
3.100000000003129141e-01 1.944181775259723963e+02
3.300000000003124878e-01 2.016419278509075923e+02
3.500000000003120615e-01 2.089739155526903573e+02
3.700000000003116352e-01 2.167101206616409002e+02
3.900000000003112088e-01 2.244901959187312741e+02
4.100000000003107825e-01 2.322171303146865853e+02
4.300000000003103562e-01 2.401729193940075504e+02
4.500000000003099299e-01 2.478572641647889725e+02
4.700000000003095035e-01 2.562983588162799151e+02
4.900000000003090772e-01 2.643022334372916475e+02
5.100000000003086509e-01 2.732554330166670411e+02
5.300000000003082246e-01 2.818874226373562237e+02
5.500000000003077982e-01 2.909276335876393205e+02
5.700000000003073719e-01 2.996097524305590127e+02
5.900000000003069456e-01 3.091072650558865575e+02
6.100000000003065193e-01 3.178681825656402111e+02
6.300000000003060929e-01 3.269709148223520288e+02
6.500000000003056666e-01 3.370022660016313694e+02
6.700000000003052403e-01 3.464067496330774247e+02
6.900000000003048140e-01 3.553517289632891334e+02
7.100000000003043876e-01 3.652868496230561846e+02
7.300000000003039613e-01 3.756033289105715198e+02
7.500000000003035350e-01 3.855830391709237688e+02
7.700000000003031086e-01 3.956801822933159656e+02
7.900000000003026823e-01 4.057075272874809002e+02
8.100000000003022560e-01 4.163191392705768976e+02
8.300000000003018297e-01 4.264806283568100298e+02
8.500000000003014033e-01 4.379970338797137970e+02
8.700000000003009770e-01 4.463218214886861688e+02
8.900000000003005507e-01 4.579864078857066829e+02
9.100000000003001244e-01 4.686714570945958371e+02
9.300000000002996980e-01 4.799947416317127704e+02
9.500000000002992717e-01 4.892680942922566487e+02
9.700000000002988454e-01 5.001956201649827563e+02
9.900000000002984191e-01 5.107801243557067892e+02
1.010000000000297993e+00 5.214893107619417378e+02
1.030000000000297566e+00 5.331230964562380450e+02
1.050000000000297140e+00 5.427333029700446332e+02
1.070000000000296714e+00 5.535140346080225981e+02
1.090000000000296287e+00 5.641162934565803653e+02
1.110000000000295861e+00 5.750737473011848806e+02
1.130000000000295435e+00 5.855239811899689357e+02
1.150000000000295008e+00 5.951572396120594703e+02
1.170000000000294582e+00 6.052885058696174383e+02
1.190000000000294156e+00 6.155558566140792891e+02
1.210000000000293729e+00 6.258061964593323410e+02
1.230000000000293303e+00 6.358425694116301656e+02
1.250000000000292877e+00 6.447588085629990928e+02
1.270000000000292451e+00 6.563689263818909012e+02
1.290000000000292024e+00 6.654338841598308818e+02
1.310000000000291598e+00 6.740556337594479146e+02
1.330000000000291172e+00 6.830768154992256314e+02
1.350000000000290745e+00 6.930990423092855508e+02
1.370000000000290319e+00 7.011191302727062293e+02
1.390000000000289893e+00 7.090167887043554629e+02
1.410000000000289466e+00 7.183410049198429306e+02
1.430000000000289040e+00 7.253613238871267868e+02
1.450000000000288614e+00 7.340765105022767330e+02
1.470000000000288187e+00 7.415721764335877424e+02
1.490000000000287761e+00 7.486749160893825774e+02
1.510000000000287335e+00 7.586727148277201422e+02
1.530000000000286908e+00 7.641541930278813197e+02
1.550000000000286482e+00 7.719448768009151536e+02
1.570000000000286056e+00 7.790412700946361610e+02
1.590000000000285629e+00 7.856785810418849678e+02
1.610000000000285203e+00 7.933149430802043298e+02
1.630000000000284777e+00 7.998866639055477208e+02
1.650000000000284350e+00 8.087662945508399162e+02
1.670000000000283924e+00 8.112345766997254941e+02
1.690000000000283498e+00 8.221988785176356487e+02
1.710000000000283071e+00 8.291730295310592282e+02
1.730000000000282645e+00 8.343683560514755300e+02
1.750000000000282219e+00 8.330914839850499902e+02
1.770000000000281792e+00 8.269067890762058823e+02
1.790000000000281366e+00 8.254705794471158242e+02
1.810000000000280940e+00 8.236107649816501635e+02
1.830000000000280513e+00 8.256376968568088159e+02
1.850000000000280087e+00 8.241263141922006525e+02
1.870000000000279661e+00 8.245525845064734085e+02
1.890000000000279234e+00 8.265898181546235719e+02
1.910000000000278808e+00 8.284230279946802966e+02
1.930000000000278382e+00 8.284588508524013832e+02
1.950000000000277955e+00 8.339883942942310568e+02
1.970000000000277529e+00 8.311306170585436348e+02
1.990000000000277103e+00 8.278675092135114255e+02
2.010000000000276899e+00 8.253339644029115334e+02
2.030000000000276472e+00 8.196144120970501490e+02
2.050000000000276046e+00 8.198293433086948880e+02
2.070000000000275620e+00 8.152218019549812880e+02
2.090000000000275193e+00 8.139877610642265608e+02
2.110000000000274767e+00 8.116393373526349251e+02
2.130000000000274341e+00 8.090878431321092421e+02
2.150000000000273914e+00 8.055934306886807690e+02
2.170000000000273488e+00 8.000478605292717020e+02
2.190000000000273062e+00 7.940540589730493366e+02
2.210000000000272635e+00 7.882457825669825979e+02
2.230000000000272209e+00 7.791991505929997857e+02
2.250000000000271783e+00 7.713997217354933582e+02
2.270000000000271356e+00 7.583492666679348986e+02
2.290000000000270930e+00 7.524968675870563857e+02
2.310000000000270504e+00 7.452249857611406014e+02
2.330000000000270077e+00 7.397916337597764596e+02
2.350000000000269651e+00 7.339936698667121391e+02
2.370000000000269225e+00 7.266067503673391457e+02
2.390000000000268798e+00 7.222796829883221790e+02
2.410000000000268372e+00 7.135209178408208572e+02
2.430000000000267946e+00 7.045007124028916223e+02
2.450000000000267519e+00 6.963325641272988378e+02
2.470000000000267093e+00 6.859801519803180554e+02
2.490000000000266667e+00 6.806482049349509680e+02
2.510000000000266240e+00 6.731450264648304938e+02
2.530000000000265814e+00 6.638950711915435932e+02
2.550000000000265388e+00 6.550107860763891949e+02
2.570000000000264961e+00 6.475411484469128709e+02
2.590000000000264535e+00 6.397931543310851339e+02
2.610000000000264109e+00 6.313143238434746536e+02
2.630000000000263682e+00 6.244873877075312976e+02
2.650000000000263256e+00 6.162327517818075648e+02
2.670000000000262830e+00 6.091168785206438088e+02
2.690000000000262403e+00 6.005800444063463601e+02
2.710000000000261977e+00 5.933060990273415882e+02
2.730000000000261551e+00 5.861400898428223627e+02
2.750000000000261124e+00 5.781436344361253532e+02
2.770000000000260698e+00 5.711057538336563084e+02
2.790000000000260272e+00 5.629231741406913443e+02
2.810000000000259845e+00 5.555042177631025879e+02
2.830000000000259419e+00 5.483734193095841647e+02
2.850000000000258993e+00 5.410797246782203729e+02
2.870000000000258567e+00 5.339308482656232400e+02
2.890000000000258140e+00 5.272812892087995351e+02
2.910000000000257714e+00 5.195914023579613286e+02
2.930000000000257288e+00 5.135069717541957743e+02
2.950000000000256861e+00 5.060114943980015028e+02
2.970000000000256435e+00 4.991507728291325634e+02
2.990000000000256009e+00 4.912748882392224345e+02
3.010000000000255582e+00 4.837790923672882855e+02
3.030000000000255156e+00 4.769631950879175406e+02
3.050000000000254730e+00 4.712402686418483881e+02
3.070000000000254303e+00 4.642324969893580828e+02
3.090000000000253877e+00 4.585886584795491672e+02
3.110000000000253451e+00 4.520223101087709097e+02
3.130000000000253024e+00 4.460300707658077499e+02
3.150000000000252598e+00 4.398035314394689976e+02
3.170000000000252172e+00 4.349378646015257459e+02
3.190000000000251745e+00 4.292109662977296693e+02
3.210000000000251319e+00 4.230577275608660557e+02
3.230000000000250893e+00 4.185515349778526684e+02
3.250000000000250466e+00 4.120352949438892551e+02
3.270000000000250040e+00 4.073942054848955650e+02
3.290000000000249614e+00 3.989107720995555724e+02
3.310000000000249187e+00 3.911217492947700407e+02
3.330000000000248761e+00 3.839615299650889142e+02
3.350000000000248335e+00 3.749180724313376913e+02
3.370000000000247908e+00 3.685347365149198140e+02
3.390000000000247482e+00 3.617275249999655102e+02
3.410000000000247056e+00 3.566820704593902178e+02
3.430000000000246629e+00 3.503203755355493172e+02
3.450000000000246203e+00 3.453823853908014030e+02
3.470000000000245777e+00 3.409098647146438452e+02
3.490000000000245350e+00 3.356146331329293275e+02
3.510000000000244924e+00 3.300860019727058443e+02
3.530000000000244498e+00 3.256142158403827693e+02
3.550000000000244071e+00 3.215900051354817037e+02
3.570000000000243645e+00 3.175543304490531682e+02
3.590000000000243219e+00 3.138314184422374069e+02
3.610000000000242792e+00 3.096632206733967791e+02
3.630000000000242366e+00 3.050599343781742618e+02
3.650000000000241940e+00 2.993022568345427317e+02
3.670000000000241513e+00 2.938095462383940912e+02
3.690000000000241087e+00 2.892174530274990616e+02
3.710000000000240661e+00 2.844339658204517036e+02
3.730000000000240234e+00 2.799091213565951648e+02
3.750000000000239808e+00 2.750324534004294605e+02
3.770000000000239382e+00 2.725869041803587720e+02
3.790000000000238956e+00 2.684346603296720559e+02
3.810000000000238529e+00 2.646621404039278218e+02
3.830000000000238103e+00 2.610290394793041173e+02
3.850000000000237677e+00 2.576550428709123821e+02
3.870000000000237250e+00 2.527930274881413197e+02
3.890000000000236824e+00 2.493189556666054330e+02
3.910000000000236398e+00 2.450074475713872459e+02
3.930000000000235971e+00 2.413973449375888549e+02
3.950000000000235545e+00 2.379514813578220753e+02
3.970000000000235119e+00 2.345315525292487848e+02
3.990000000000234692e+00 2.314073650810047695e+02
4.010000000000234266e+00 2.271455193311838059e+02
4.030000000000233840e+00 2.232687988337737863e+02
4.050000000000233413e+00 2.199996600721735547e+02
4.070000000000232987e+00 2.166797146257529789e+02
4.090000000000232561e+00 2.131678316770170625e+02
4.110000000000232134e+00 2.110799258209889331e+02
4.130000000000231708e+00 2.082363153750492586e+02
4.150000000000231282e+00 2.053242902390054496e+02
4.170000000000230855e+00 2.028471125253502692e+02
4.190000000000230429e+00 2.002098175522076815e+02
4.210000000000230003e+00 1.970594820207259659e+02
4.230000000000229576e+00 1.954318796206980835e+02
4.250000000000229150e+00 1.920145339382535212e+02
4.270000000000228724e+00 1.880283790023105439e+02
4.290000000000228297e+00 1.851559276326264865e+02
4.310000000000227871e+00 1.819672763811595360e+02
4.330000000000227445e+00 1.786361341011099455e+02
4.350000000000227018e+00 1.749158342149119676e+02
4.370000000000226592e+00 1.728199210759505888e+02
4.390000000000226166e+00 1.702643885127492069e+02
4.410000000000225739e+00 1.680539396257518092e+02
4.430000000000225313e+00 1.658949426956552600e+02
4.450000000000224887e+00 1.638817035862613807e+02
4.470000000000224460e+00 1.618590709577803466e+02
4.490000000000224034e+00 1.603254280990745713e+02
4.510000000000223608e+00 1.579657148712720129e+02
4.530000000000223181e+00 1.558290714708262215e+02
4.550000000000222755e+00 1.537251479663721341e+02
4.570000000000222329e+00 1.512939795057977221e+02
4.590000000000221902e+00 1.496837319958867738e+02
4.610000000000221476e+00 1.477931301768561525e+02
4.630000000000221050e+00 1.466180113752133991e+02
4.650000000000220624e+00 1.444387998222069314e+02
4.670000000000220197e+00 1.422897240225819928e+02
4.690000000000219771e+00 1.403686746391363442e+02
4.710000000000219345e+00 1.379229219886412920e+02
4.730000000000218918e+00 1.357715110659424909e+02
4.750000000000218492e+00 1.335828211690859462e+02
4.770000000000218066e+00 1.320625969850000274e+02
4.790000000000217639e+00 1.306353986607780939e+02
4.810000000000217213e+00 1.287975099700780959e+02
4.830000000000216787e+00 1.268987817406296017e+02
4.850000000000216360e+00 1.261911835743113102e+02
4.870000000000215934e+00 1.251101196924322210e+02
4.890000000000215508e+00 1.231833849030124952e+02
4.910000000000215081e+00 1.223562762342271384e+02
4.930000000000214655e+00 1.205300420334084635e+02
4.950000000000214229e+00 1.192177561922592446e+02
4.970000000000213802e+00 1.177709694967510359e+02
4.990000000000213376e+00 1.165849402697069337e+02
5.010000000000212950e+00 1.146588618237568937e+02
5.030000000000212523e+00 1.126455172176193571e+02
5.050000000000212097e+00 1.110329335940449198e+02
5.070000000000211671e+00 1.098252884653466452e+02
5.090000000000211244e+00 1.073975265150608038e+02
5.110000000000210818e+00 1.059568072750466143e+02
5.130000000000210392e+00 1.044194661486075830e+02
5.150000000000209965e+00 1.027559532581962998e+02
5.170000000000209539e+00 1.010634728583764996e+02
5.190000000000209113e+00 9.978502231699887659e+01
5.210000000000208686e+00 9.845303940383773522e+01
5.230000000000208260e+00 9.754652297649897719e+01
5.250000000000207834e+00 9.606171170474566168e+01
5.270000000000207407e+00 9.454322594429388005e+01
5.290000000000206981e+00 9.396685511472367125e+01
5.310000000000206555e+00 9.273923503234694010e+01
5.330000000000206128e+00 9.129355096082670684e+01
5.350000000000205702e+00 9.019259730928121144e+01
5.370000000000205276e+00 8.946337530502948709e+01
5.390000000000204849e+00 8.840400277956852904e+01
5.410000000000204423e+00 8.751809636723743324e+01
5.430000000000203997e+00 8.687334299102700186e+01
5.450000000000203570e+00 8.598829369590824001e+01
5.470000000000203144e+00 8.512841526912978907e+01
5.490000000000202718e+00 8.377132171683527417e+01
5.510000000000202292e+00 8.272421360308288740e+01
5.530000000000201865e+00 8.213248174122668388e+01
5.550000000000201439e+00 8.110517465724410613e+01
5.570000000000201013e+00 8.059340384157698622e+01
5.590000000000200586e+00 7.878209327824784225e+01
5.610000000000200160e+00 7.834148819367936767e+01
5.630000000000199734e+00 7.784477541510497645e+01
5.650000000000199307e+00 7.627357110806676133e+01
5.670000000000198881e+00 7.469869028899996977e+01
5.690000000000198455e+00 7.403689949806526727e+01
5.710000000000198028e+00 7.295929239704973668e+01
5.730000000000197602e+00 7.205254326595240855e+01
5.750000000000197176e+00 7.087948086138413828e+01
5.770000000000196749e+00 6.993346999904868255e+01
5.790000000000196323e+00 6.872863611513447779e+01
5.810000000000195897e+00 6.822218595796073259e+01
5.830000000000195470e+00 6.757327401838701064e+01
5.850000000000195044e+00 6.654508570208035678e+01
5.870000000000194618e+00 6.603274173742313735e+01
5.890000000000194191e+00 6.515907905904174413e+01
5.910000000000193765e+00 6.450278606532823744e+01
5.930000000000193339e+00 6.398069970348289814e+01
5.950000000000192912e+00 6.342415781180648793e+01
5.970000000000192486e+00 6.254048230782288442e+01
5.990000000000192060e+00 6.172940936198609307e+01
6.010000000000191633e+00 6.176280244207954695e+01
6.030000000000191207e+00 6.035318308603615378e+01
6.050000000000190781e+00 5.983493808228405442e+01
6.070000000000190354e+00 5.937596135064510605e+01
6.090000000000189928e+00 5.879432195068703493e+01
6.110000000000189502e+00 5.866182481422271167e+01
6.130000000000189075e+00 5.739412431841966367e+01
6.150000000000188649e+00 5.704266869882694380e+01
6.170000000000188223e+00 5.610242278443553232e+01
6.190000000000187796e+00 5.551805890765674434e+01
6.210000000000187370e+00 5.470864909054439096e+01
6.230000000000186944e+00 5.362693088357656990e+01
6.250000000000186517e+00 5.290022161003787460e+01
6.270000000000186091e+00 5.226828648366449670e+01
6.290000000000185665e+00 5.193690488521227167e+01
6.310000000000185238e+00 5.101090825763367320e+01
6.330000000000184812e+00 5.046641300631672067e+01
6.350000000000184386e+00 4.969239808892708510e+01
6.370000000000183960e+00 4.957561826692746365e+01
6.390000000000183533e+00 4.927348791186759058e+01
6.410000000000183107e+00 4.869520378103488412e+01
6.430000000000182681e+00 4.854446183111502933e+01
6.450000000000182254e+00 4.736650482507186410e+01
6.470000000000181828e+00 4.734175548808176615e+01
6.490000000000181402e+00 4.690160784198823762e+01
6.510000000000180975e+00 4.649038348270094900e+01
6.530000000000180549e+00 4.566803507907288662e+01
6.550000000000180123e+00 4.535561431484030237e+01
6.570000000000179696e+00 4.488641115167879292e+01
6.590000000000179270e+00 4.453969901723020541e+01
6.610000000000178844e+00 4.389446975068337764e+01
6.630000000000178417e+00 4.354680293324506835e+01
6.650000000000177991e+00 4.311511667103281553e+01
6.670000000000177565e+00 4.301148796922176132e+01
6.690000000000177138e+00 4.240159804903135665e+01
6.710000000000176712e+00 4.192836637031727776e+01
6.730000000000176286e+00 4.121196835932862257e+01
6.750000000000175859e+00 4.086020793550978425e+01
6.770000000000175433e+00 4.027562021991023755e+01
6.790000000000175007e+00 4.017139195879894942e+01
6.810000000000174580e+00 3.933625495959678631e+01
6.830000000000174154e+00 3.873587308038778332e+01
6.850000000000173728e+00 3.862156137077705864e+01
6.870000000000173301e+00 3.824069130058013144e+01
6.890000000000172875e+00 3.795076378745269352e+01
6.910000000000172449e+00 3.753353572213460154e+01
6.930000000000172022e+00 3.740874810476542223e+01
6.950000000000171596e+00 3.684327613918172517e+01
6.970000000000171170e+00 3.671302590894664064e+01
6.990000000000170743e+00 3.628926688812480705e+01
7.010000000000170317e+00 3.618239891868658731e+01
7.030000000000169891e+00 3.590252114410775164e+01
7.050000000000169464e+00 3.525779916881094778e+01
7.070000000000169038e+00 3.494204773485447646e+01
7.090000000000168612e+00 3.472448956903116368e+01
7.110000000000168185e+00 3.456851483015270787e+01
7.130000000000167759e+00 3.427304665439611142e+01
7.150000000000167333e+00 3.416326569682378533e+01
7.170000000000166906e+00 3.343711490171533995e+01
7.190000000000166480e+00 3.299838134613318630e+01
7.210000000000166054e+00 3.277425898907932833e+01
7.230000000000165628e+00 3.283544839113979918e+01
7.250000000000165201e+00 3.228290528782925861e+01
7.270000000000164775e+00 3.188934980154477472e+01
7.290000000000164349e+00 3.149435616559946638e+01
7.310000000000163922e+00 3.122116364214134165e+01
7.330000000000163496e+00 3.135151243396869347e+01
7.350000000000163070e+00 3.077452443716078179e+01
7.370000000000162643e+00 3.055425372192949141e+01
7.390000000000162217e+00 3.054665554690489060e+01
7.410000000000161791e+00 3.043779072507029682e+01
7.430000000000161364e+00 2.996491052468677196e+01
7.450000000000160938e+00 2.995325801534402643e+01
7.470000000000160512e+00 2.956994573823264716e+01
7.490000000000160085e+00 2.963619008143111699e+01
7.510000000000159659e+00 2.893771648633890692e+01
7.530000000000159233e+00 2.898787697920263540e+01
7.550000000000158806e+00 2.883503123372274146e+01
7.570000000000158380e+00 2.842897868112747872e+01
7.590000000000157954e+00 2.841444236222011099e+01
7.610000000000157527e+00 2.783643818412265958e+01
7.630000000000157101e+00 2.759067529440934052e+01
7.650000000000156675e+00 2.756071517691670891e+01
7.670000000000156248e+00 2.740514624753908635e+01
7.690000000000155822e+00 2.708327810302761307e+01
7.710000000000155396e+00 2.676415614391911291e+01
7.730000000000154969e+00 2.672908785698319889e+01
7.750000000000154543e+00 2.666567177765772456e+01
7.770000000000154117e+00 2.631028826833025747e+01
7.790000000000153690e+00 2.646641775789876050e+01
7.810000000000153264e+00 2.593489047678189507e+01
7.830000000000152838e+00 2.596764724294796167e+01
7.850000000000152411e+00 2.561041865468997258e+01
7.870000000000151985e+00 2.582282220517338089e+01
7.890000000000151559e+00 2.535836369617430464e+01
7.910000000000151132e+00 2.516245449932482003e+01
7.930000000000150706e+00 2.511440628430802846e+01
7.950000000000150280e+00 2.499092812414992082e+01
7.970000000000149853e+00 2.462411536790380140e+01
7.990000000000149427e+00 2.443398869767241166e+01
8.010000000000149001e+00 2.439320752917356927e+01
8.030000000000148574e+00 2.410035659155818877e+01
8.050000000000148148e+00 2.402527053347807495e+01
8.070000000000147722e+00 2.379921590877696147e+01
8.090000000000147296e+00 2.370283962272715073e+01
8.110000000000146869e+00 2.345151383161522674e+01
8.130000000000146443e+00 2.335336846341166606e+01
8.150000000000146017e+00 2.329792226188346405e+01
8.170000000000145590e+00 2.306395303269622232e+01
8.190000000000145164e+00 2.304578941673869252e+01
8.210000000000144738e+00 2.291924657614886485e+01
8.230000000000144311e+00 2.288465621499280900e+01
8.250000000000143885e+00 2.243780686668923963e+01
8.270000000000143459e+00 2.246350848271356426e+01
8.290000000000143032e+00 2.222417596382795679e+01
8.310000000000142606e+00 2.198893332836438930e+01
8.330000000000142180e+00 2.194254590349081724e+01
8.350000000000141753e+00 2.180316914144108864e+01
8.370000000000141327e+00 2.166419015695567651e+01
8.390000000000140901e+00 2.136470191278845121e+01
8.410000000000140474e+00 2.135733084685315220e+01
8.430000000000140048e+00 2.126978371025423797e+01
8.450000000000139622e+00 2.095974128161985561e+01
8.470000000000139195e+00 2.090572098435222514e+01
8.490000000000138769e+00 2.080035235446674591e+01
8.510000000000138343e+00 2.062159256377121608e+01
8.530000000000137916e+00 2.056536006073603673e+01
8.550000000000137490e+00 2.043820545676504707e+01
8.570000000000137064e+00 2.021482325251648859e+01
8.590000000000136637e+00 2.012983609336439272e+01
8.610000000000136211e+00 1.996767613393839369e+01
8.630000000000135785e+00 1.985114436925202952e+01
8.650000000000135358e+00 1.970017018625600613e+01
8.670000000000134932e+00 1.948184504535850436e+01
8.690000000000134506e+00 1.930737457074513941e+01
8.710000000000134079e+00 1.913819733496961817e+01
8.730000000000133653e+00 1.918307314379467599e+01
8.750000000000133227e+00 1.903332915322390662e+01
8.770000000000132800e+00 1.872832397039891461e+01
8.790000000000132374e+00 1.862846279831639507e+01
8.810000000000131948e+00 1.843887876219444166e+01
8.830000000000131521e+00 1.837582841004196510e+01
8.850000000000131095e+00 1.823630823101151321e+01
8.870000000000130669e+00 1.803872267367834681e+01
8.890000000000130242e+00 1.802057236179487987e+01
8.910000000000129816e+00 1.772188624986131344e+01
8.930000000000129390e+00 1.755631471925897458e+01
8.950000000000128964e+00 1.756361008010208025e+01
8.970000000000128537e+00 1.731221720822105681e+01
8.990000000000128111e+00 1.729211689039091127e+01
9.010000000000127685e+00 1.702872710676137302e+01
9.030000000000127258e+00 1.683870059002388331e+01
9.050000000000126832e+00 1.676701267663326078e+01
9.070000000000126406e+00 1.658066669639353918e+01
9.090000000000125979e+00 1.643921772931686576e+01
9.110000000000125553e+00 1.626880655812423271e+01
9.130000000000125127e+00 1.616953079065590515e+01
9.150000000000124700e+00 1.587348634624587795e+01
9.170000000000124274e+00 1.576951780667984337e+01
9.190000000000123848e+00 1.580047129162670139e+01
9.210000000000123421e+00 1.548527750288351257e+01
9.230000000000122995e+00 1.531316984390510605e+01
9.250000000000122569e+00 1.523921417001576550e+01
9.270000000000122142e+00 1.510611398242097536e+01
9.290000000000121716e+00 1.495133289909982111e+01
9.310000000000121290e+00 1.478856756047320431e+01
9.330000000000120863e+00 1.465767312088977192e+01
9.350000000000120437e+00 1.449042076191301653e+01
9.370000000000120011e+00 1.431591368554159160e+01
9.390000000000119584e+00 1.409950286285065246e+01
9.410000000000119158e+00 1.400806728994791328e+01
9.430000000000118732e+00 1.384590971811419635e+01
9.450000000000118305e+00 1.372085675638765245e+01
9.470000000000117879e+00 1.346910330622605478e+01
9.490000000000117453e+00 1.343996714842583984e+01
9.510000000000117026e+00 1.324329439289135024e+01
9.530000000000116600e+00 1.318702757290171945e+01
9.550000000000116174e+00 1.301713148296806999e+01
9.570000000000115747e+00 1.279323412603499932e+01
9.590000000000115321e+00 1.269941527573432083e+01
9.610000000000114895e+00 1.253789654103518814e+01
9.630000000000114468e+00 1.235099730981592003e+01
9.650000000000114042e+00 1.229038030377873447e+01
9.670000000000113616e+00 1.207392097001967812e+01
9.690000000000113189e+00 1.195766025218167528e+01
9.710000000000112763e+00 1.189715097869341776e+01
9.730000000000112337e+00 1.168995943098691370e+01
9.750000000000111910e+00 1.154607378975751075e+01
9.770000000000111484e+00 1.154916320593237522e+01
9.790000000000111058e+00 1.124223177361975345e+01
9.810000000000110632e+00 1.109185239416090418e+01
9.830000000000110205e+00 1.103302297566558110e+01
9.850000000000109779e+00 1.094565739057362741e+01
9.870000000000109353e+00 1.080940532525716868e+01
9.890000000000108926e+00 1.061019041634001248e+01
9.910000000000108500e+00 1.055743601127657350e+01
9.930000000000108074e+00 1.047606561446422191e+01
9.950000000000107647e+00 1.032048390632075119e+01
9.970000000000107221e+00 1.020929163168434961e+01
9.990000000000106795e+00 1.005989773840751589e+01
1.001000000000010637e+01 9.943481677786360606e+00
1.003000000000010594e+01 9.807272085396570915e+00
1.005000000000010552e+01 9.695134628914503949e+00
1.007000000000010509e+01 9.653479820785138443e+00
1.009000000000010466e+01 9.550603783101255573e+00
1.011000000000010424e+01 9.534512229399279448e+00
1.013000000000010381e+01 9.330370942837323156e+00
1.015000000000010338e+01 9.271523293292123213e+00
1.017000000000010296e+01 9.145350207603469173e+00
1.019000000000010253e+01 9.006290184815533451e+00
1.021000000000010210e+01 8.899971921978822920e+00
1.023000000000010168e+01 8.896136139040551782e+00
1.025000000000010125e+01 8.767026713830167850e+00
1.027000000000010083e+01 8.757838570474936191e+00
1.029000000000010040e+01 8.578380721642098194e+00
1.031000000000009997e+01 8.546007362923923267e+00
1.033000000000009955e+01 8.435062868838031136e+00
1.035000000000009912e+01 8.356357491116776615e+00
1.037000000000009869e+01 8.340198158668792772e+00
1.039000000000009827e+01 8.222423243382424474e+00
1.041000000000009784e+01 8.138725210334454729e+00
1.043000000000009742e+01 8.128771334476729393e+00
1.045000000000009699e+01 8.040601874384044834e+00
1.047000000000009656e+01 7.905120015938479128e+00
1.049000000000009614e+01 7.885661131812311986e+00
1.051000000000009571e+01 7.836120069645609476e+00
1.053000000000009528e+01 7.748208666025256264e+00
1.055000000000009486e+01 7.728694238976372866e+00
1.057000000000009443e+01 7.650618743832423796e+00
1.059000000000009400e+01 7.571351369692045807e+00
1.061000000000009358e+01 7.492430249996487213e+00
1.063000000000009315e+01 7.479785180231664832e+00
1.065000000000009273e+01 7.441163171544495469e+00
1.067000000000009230e+01 7.368785095225840465e+00
1.069000000000009187e+01 7.236340379773225528e+00
1.071000000000009145e+01 7.331875357994179332e+00
1.073000000000009102e+01 7.220775589844691922e+00
1.075000000000009059e+01 7.120466140974124336e+00
1.077000000000009017e+01 7.096401875248766977e+00
1.079000000000008974e+01 7.021885147016389439e+00
1.081000000000008932e+01 7.026071246455192210e+00
1.083000000000008889e+01 6.978587384467454413e+00
1.085000000000008846e+01 6.936144116074874688e+00
1.087000000000008804e+01 6.896487780009429969e+00
1.089000000000008761e+01 6.766303667446432080e+00
1.091000000000008718e+01 6.727085614303412342e+00
1.093000000000008676e+01 6.653809273864229823e+00
1.095000000000008633e+01 6.697297450902607530e+00
1.097000000000008590e+01 6.612963201454006956e+00
1.099000000000008548e+01 6.620304057984179202e+00
1.101000000000008505e+01 6.560497591758044145e+00
1.103000000000008463e+01 6.449882830365400999e+00
1.105000000000008420e+01 6.374880251417993193e+00
1.107000000000008377e+01 6.341322710927921769e+00
1.109000000000008335e+01 6.332625904451787413e+00
1.111000000000008292e+01 6.240322201903311772e+00
1.113000000000008249e+01 6.212391155952074584e+00
1.115000000000008207e+01 6.184698037899101664e+00
1.117000000000008164e+01 6.146394583467714945e+00
1.119000000000008122e+01 6.023647906108581473e+00
1.121000000000008079e+01 6.004724604247449804e+00
1.123000000000008036e+01 5.893286241896433353e+00
1.125000000000007994e+01 5.869080019887110033e+00
1.127000000000007951e+01 5.868991415583028726e+00
1.129000000000007908e+01 5.768246060772096229e+00
1.131000000000007866e+01 5.672916153979510767e+00
1.133000000000007823e+01 5.650309326879880523e+00
1.135000000000007780e+01 5.569580084184035940e+00
1.137000000000007738e+01 5.542246984350983396e+00
1.139000000000007695e+01 5.522359942592255599e+00
1.141000000000007653e+01 5.352617006755848728e+00
1.143000000000007610e+01 5.301403805171296391e+00
1.145000000000007567e+01 5.261462957195669254e+00
1.147000000000007525e+01 5.204656565401406532e+00
1.149000000000007482e+01 5.142004131711201964e+00
1.151000000000007439e+01 5.074132883746214517e+00
1.153000000000007397e+01 5.001880535982645704e+00
1.155000000000007354e+01 4.910367367668788674e+00
1.157000000000007311e+01 4.849858898256228734e+00
1.159000000000007269e+01 4.747616853189428276e+00
1.161000000000007226e+01 4.781327485813612554e+00
1.163000000000007184e+01 4.537310809960270142e+00
1.165000000000007141e+01 4.623706176087226893e+00
1.167000000000007098e+01 4.490307065299774969e+00
1.169000000000007056e+01 4.421850319447465871e+00
1.171000000000007013e+01 4.370603422208221289e+00
1.173000000000006970e+01 4.242226401870500041e+00
1.175000000000006928e+01 4.147178182798555213e+00
1.177000000000006885e+01 4.157116344097547156e+00
1.179000000000006843e+01 4.033702794623819976e+00
1.181000000000006800e+01 3.968241297407415491e+00
1.183000000000006757e+01 3.916946973065908999e+00
1.185000000000006715e+01 3.842815688915359740e+00
1.187000000000006672e+01 3.710755408158715962e+00
1.189000000000006629e+01 3.662760215377446560e+00
1.191000000000006587e+01 3.576117061967585720e+00
1.193000000000006544e+01 3.528531552963068307e+00
1.195000000000006501e+01 3.456700774547364130e+00
1.197000000000006459e+01 3.358125436575182921e+00
1.199000000000006416e+01 3.267717662820637692e+00
1.201000000000006374e+01 3.241152889962115591e+00
1.203000000000006331e+01 3.171839205598558031e+00
1.205000000000006288e+01 3.052885245133759362e+00
1.207000000000006246e+01 2.987998617033625237e+00
1.209000000000006203e+01 2.930371487871780811e+00
1.211000000000006160e+01 2.812487608097828495e+00
1.213000000000006118e+01 2.850098130694150633e+00
1.215000000000006075e+01 2.726536089420429132e+00
1.217000000000006033e+01 2.631818893260362113e+00
1.219000000000005990e+01 2.593597858468885242e+00
1.221000000000005947e+01 2.497639577244698206e+00
1.223000000000005905e+01 2.480766199105769676e+00
1.225000000000005862e+01 2.363930027642499709e+00
1.227000000000005819e+01 2.318511881519071061e+00
1.229000000000005777e+01 2.259262037904525400e+00
1.231000000000005734e+01 2.182645112069861781e+00
1.233000000000005691e+01 2.159024318918412177e+00
1.235000000000005649e+01 2.084466639528132603e+00
1.237000000000005606e+01 2.016938682365658320e+00
1.239000000000005564e+01 1.952981225583656943e+00
1.241000000000005521e+01 1.889161239826884220e+00
1.243000000000005478e+01 1.859481457799573301e+00
1.245000000000005436e+01 1.788464916603588417e+00
1.247000000000005393e+01 1.782970643459265814e+00
1.249000000000005350e+01 1.711259747569471523e+00
1.251000000000005308e+01 1.617522727320904963e+00
1.253000000000005265e+01 1.578084788057117827e+00
1.255000000000005222e+01 1.553135786649271433e+00
1.257000000000005180e+01 1.494064882942399475e+00
1.259000000000005137e+01 1.453098669354010219e+00
1.261000000000005095e+01 1.424461013587889013e+00
1.263000000000005052e+01 1.378503698528986021e+00
1.265000000000005009e+01 1.322615100331317350e+00
1.267000000000004967e+01 1.308128389802911240e+00
1.269000000000004924e+01 1.236050055405198744e+00
1.271000000000004881e+01 1.218328024649856678e+00
1.273000000000004839e+01 1.179710061694401180e+00
1.275000000000004796e+01 1.117333196682284369e+00
1.277000000000004754e+01 1.132929509282321279e+00
1.279000000000004711e+01 1.079148336585645795e+00
1.281000000000004668e+01 1.014883592688550218e+00
1.283000000000004626e+01 1.020289361293058361e+00
1.285000000000004583e+01 9.817881462658956115e-01
1.287000000000004540e+01 9.661159914711302532e-01
1.289000000000004498e+01 9.412679971918742616e-01
1.291000000000004455e+01 8.934915208885366722e-01
1.293000000000004412e+01 8.723501726821738522e-01
1.295000000000004370e+01 8.364976468600660020e-01
1.297000000000004327e+01 8.371859723852854707e-01
1.299000000000004285e+01 8.096009119761146122e-01
1.301000000000004242e+01 7.785252613620536888e-01
1.303000000000004199e+01 7.691775356763420612e-01
1.305000000000004157e+01 7.338279060207628657e-01
1.307000000000004114e+01 7.300065321264017637e-01
1.309000000000004071e+01 7.099095519089646533e-01
1.311000000000004029e+01 6.931399491913793343e-01
1.313000000000003986e+01 6.810438996875870510e-01
1.315000000000003944e+01 6.479966735181611481e-01
1.317000000000003901e+01 6.324033493722605037e-01
1.319000000000003858e+01 6.151047101210855850e-01
1.321000000000003816e+01 6.135891505331498852e-01
1.323000000000003773e+01 5.788017338620383700e-01
1.325000000000003730e+01 6.045698056422313948e-01
1.327000000000003688e+01 5.698824319311700526e-01
1.329000000000003645e+01 5.836381997095253515e-01
1.331000000000003602e+01 5.444661803211024997e-01
1.333000000000003560e+01 5.308789540650311611e-01
1.335000000000003517e+01 5.124756674398718292e-01
1.337000000000003475e+01 5.305462244483436507e-01
1.339000000000003432e+01 5.210155298240515265e-01
1.341000000000003389e+01 4.938038991029312097e-01
1.343000000000003347e+01 4.847248034760939239e-01
1.345000000000003304e+01 4.885438868122858325e-01
1.347000000000003261e+01 4.854786301463324683e-01
1.349000000000003219e+01 4.575727138384874104e-01
1.351000000000003176e+01 4.907170599973025293e-01
1.353000000000003133e+01 4.494308080849712117e-01
1.355000000000003091e+01 4.396344386352837863e-01
1.357000000000003048e+01 4.358066863332703544e-01
1.359000000000003006e+01 4.370838683844583406e-01
1.361000000000002963e+01 4.187396202303916293e-01
1.363000000000002920e+01 4.578264397470638292e-01
1.365000000000002878e+01 4.155893027017841246e-01
1.367000000000002835e+01 4.156080110366688896e-01
1.369000000000002792e+01 3.976780490201701213e-01
1.371000000000002750e+01 4.049984383991004910e-01
1.373000000000002707e+01 3.949658968079312049e-01
1.375000000000002665e+01 4.155331249731462062e-01
1.377000000000002622e+01 3.853815177359522504e-01
1.379000000000002579e+01 3.835830817206798971e-01
1.381000000000002537e+01 3.571519462651099319e-01
1.383000000000002494e+01 3.457697925155102658e-01
1.385000000000002451e+01 3.355165529393064894e-01
1.387000000000002409e+01 3.303129718298037365e-01
1.389000000000002366e+01 3.160960591321222979e-01
1.391000000000002323e+01 2.894569113490501611e-01
1.393000000000002281e+01 2.802829417280134350e-01
1.395000000000002238e+01 2.757396248925018667e-01
1.397000000000002196e+01 2.639130226173987404e-01
1.399000000000002153e+01 2.035862380347600864e-01
1.401000000000002110e+01 1.752721161793890370e-01
1.403000000000002068e+01 1.539882370187523331e-01
1.405000000000002025e+01 1.672889706850350933e-01
1.407000000000001982e+01 1.466201624411488935e-01
1.409000000000001940e+01 1.397459269610804855e-01
1.411000000000001897e+01 1.519526514794358740e-01
1.413000000000001855e+01 1.273907656159203594e-01
1.415000000000001812e+01 1.211275596247523706e-01
1.417000000000001769e+01 1.104990695102791576e-01
1.419000000000001727e+01 9.180308783554273766e-02
1.421000000000001684e+01 9.384029984622127563e-02
1.423000000000001641e+01 8.062873878601285738e-02
1.425000000000001599e+01 6.995113638574167181e-02
1.427000000000001556e+01 4.864629833798173736e-02
1.429000000000001513e+01 4.034763425912681750e-02
1.431000000000001471e+01 3.495142663458614823e-02
1.433000000000001428e+01 1.913960474438068660e-02
1.435000000000001386e+01 1.372253687996954040e-02
1.437000000000001343e+01 1.102747000809107224e-02
1.439000000000001300e+01 8.245594555591649263e-03
1.441000000000001258e+01 8.149442587353507642e-03
1.443000000000001215e+01 5.402564822083210858e-03
1.445000000000001172e+01 2.719711481094802107e-03
1.447000000000001130e+01 1.674749118407689911e-05
1.449000000000001087e+01 8.038356784868166336e-06
1.451000000000001044e+01 2.548327422533078615e-10
1.453000000000001002e+01 1.613314588902274676e-10
1.455000000000000959e+01 8.008963245205289840e-11
1.457000000000000917e+01 6.936427054089586112e-11
1.459000000000000874e+01 0.000000000000000000e+00
1.461000000000000831e+01 0.000000000000000000e+00
1.463000000000000789e+01 0.000000000000000000e+00
1.465000000000000746e+01 0.000000000000000000e+00
1.467000000000000703e+01 0.000000000000000000e+00
1.469000000000000661e+01 0.000000000000000000e+00
1.471000000000000618e+01 0.000000000000000000e+00
1.473000000000000576e+01 0.000000000000000000e+00
1.475000000000000533e+01 0.000000000000000000e+00
1.477000000000000490e+01 0.000000000000000000e+00
1.479000000000000448e+01 0.000000000000000000e+00
1.481000000000000405e+01 0.000000000000000000e+00
1.483000000000000362e+01 0.000000000000000000e+00
1.485000000000000320e+01 0.000000000000000000e+00
1.487000000000000277e+01 0.000000000000000000e+00
1.489000000000000234e+01 0.000000000000000000e+00
1.491000000000000192e+01 0.000000000000000000e+00
1.493000000000000149e+01 0.000000000000000000e+00
1.495000000000000107e+01 0.000000000000000000e+00
1.497000000000000064e+01 0.000000000000000000e+00
1.499000000000000021e+01 0.000000000000000000e+00
