# Redshift		Merger Rate Density [Gpc^-3yr^-1]
1.000000000031931770e-02 1.857102154442497124e+02
3.000000000031888964e-02 1.952518891184966492e+02
5.000000000031846331e-02 2.049566024945542608e+02
7.000000000031804392e-02 2.153043008345264582e+02
9.000000000031761760e-02 2.257420364969666480e+02
1.100000000003171913e-01 2.364516086391178646e+02
1.300000000003167511e-01 2.474383989954451408e+02
1.500000000003163247e-01 2.587053047103322569e+02
1.700000000003158984e-01 2.699099489001412735e+02
1.900000000003154721e-01 2.817790369078263666e+02
2.100000000003150458e-01 2.937491077428429662e+02
2.300000000003146194e-01 3.063452400301462717e+02
2.500000000003141931e-01 3.194720123030238028e+02
2.700000000003137668e-01 3.317906698849288318e+02
2.900000000003133405e-01 3.449144607374880138e+02
3.100000000003129141e-01 3.588074269073434266e+02
3.300000000003124878e-01 3.725832156612647736e+02
3.500000000003120615e-01 3.872616556424193845e+02
3.700000000003116352e-01 4.008282855617450195e+02
3.900000000003112088e-01 4.157369772467721418e+02
4.100000000003107825e-01 4.311810989984076627e+02
4.300000000003103562e-01 4.462153207478854711e+02
4.500000000003099299e-01 4.619978298138715900e+02
4.700000000003095035e-01 4.778068399398820816e+02
4.900000000003090772e-01 4.941958782936275156e+02
5.100000000003086509e-01 5.103371788676719234e+02
5.300000000003082246e-01 5.269164039865729592e+02
5.500000000003077982e-01 5.445594015523051894e+02
5.700000000003073719e-01 5.615850350834278970e+02
5.900000000003069456e-01 5.788509965458356419e+02
6.100000000003065193e-01 5.965239214228806759e+02
6.300000000003060929e-01 6.145215216576730199e+02
6.500000000003056666e-01 6.327682222051824965e+02
6.700000000003052403e-01 6.514246055348781965e+02
6.900000000003048140e-01 6.693190839962883274e+02
7.100000000003043876e-01 6.897542077017034217e+02
7.300000000003039613e-01 7.074462091980373089e+02
7.500000000003035350e-01 7.269956608268308855e+02
7.700000000003031086e-01 7.459723752138551163e+02
7.900000000003026823e-01 7.659146492732148772e+02
8.100000000003022560e-01 7.864943469984327749e+02
8.300000000003018297e-01 8.062751274583872600e+02
8.500000000003014033e-01 8.265994949895876971e+02
8.700000000003009770e-01 8.459851527980943047e+02
8.900000000003005507e-01 8.678130954240610890e+02
9.100000000003001244e-01 8.876751551350770342e+02
9.300000000002996980e-01 9.089224827597197418e+02
9.500000000002992717e-01 9.292513847208592779e+02
9.700000000002988454e-01 9.506868918453757260e+02
9.900000000002984191e-01 9.717739225075690683e+02
1.010000000000297993e+00 9.927619458868356332e+02
1.030000000000297566e+00 1.012370617273216908e+03
1.050000000000297140e+00 1.032956330175840549e+03
1.070000000000296714e+00 1.055122927366088788e+03
1.090000000000296287e+00 1.075008458899123525e+03
1.110000000000295861e+00 1.097260441029474123e+03
1.130000000000295435e+00 1.116852182045118980e+03
1.150000000000295008e+00 1.138206309817851889e+03
1.170000000000294582e+00 1.158399220103466405e+03
1.190000000000294156e+00 1.179136332129266748e+03
1.210000000000293729e+00 1.198981648234486784e+03
1.230000000000293303e+00 1.218858570330355633e+03
1.250000000000292877e+00 1.240038628069416291e+03
1.270000000000292451e+00 1.259202449094967051e+03
1.290000000000292024e+00 1.279027683387263778e+03
1.310000000000291598e+00 1.297196406227183843e+03
1.330000000000291172e+00 1.314745689661585629e+03
1.350000000000290745e+00 1.334785082289283764e+03
1.370000000000290319e+00 1.351856076535327475e+03
1.390000000000289893e+00 1.370521824257192975e+03
1.410000000000289466e+00 1.387598827407907947e+03
1.430000000000289040e+00 1.405670303064554219e+03
1.450000000000288614e+00 1.422923970360120165e+03
1.470000000000288187e+00 1.439833626106126530e+03
1.490000000000287761e+00 1.456780043852975723e+03
1.510000000000287335e+00 1.473283259193849517e+03
1.530000000000286908e+00 1.485767441732305542e+03
1.550000000000286482e+00 1.502868636630056244e+03
1.570000000000286056e+00 1.516452768491623374e+03
1.590000000000285629e+00 1.530597070290428064e+03
1.610000000000285203e+00 1.546114495595177686e+03
1.630000000000284777e+00 1.556537863939553517e+03
1.650000000000284350e+00 1.573778071522764549e+03
1.670000000000283924e+00 1.587411225161146149e+03
1.690000000000283498e+00 1.603427149576470356e+03
1.710000000000283071e+00 1.617275972293651876e+03
1.730000000000282645e+00 1.624901162875545197e+03
1.750000000000282219e+00 1.625697575971684046e+03
1.770000000000281792e+00 1.625553805774648708e+03
1.790000000000281366e+00 1.627528087968908949e+03
1.810000000000280940e+00 1.629915124025886826e+03
1.830000000000280513e+00 1.631039117705728813e+03
1.850000000000280087e+00 1.636214215566001485e+03
1.870000000000279661e+00 1.638687164908528530e+03
1.890000000000279234e+00 1.642629935732478089e+03
1.910000000000278808e+00 1.648667834691364078e+03
1.930000000000278382e+00 1.656763931370156570e+03
1.950000000000277955e+00 1.662625953636872509e+03
1.970000000000277529e+00 1.657046437139031923e+03
1.990000000000277103e+00 1.654174429374570991e+03
2.010000000000276899e+00 1.647354051459489938e+03
2.030000000000276472e+00 1.641150735408810988e+03
2.050000000000276046e+00 1.644799669860991571e+03
2.070000000000275620e+00 1.640942530526328937e+03
2.090000000000275193e+00 1.640381628404913272e+03
2.110000000000274767e+00 1.638463519780767911e+03
2.130000000000274341e+00 1.632381805868381207e+03
2.150000000000273914e+00 1.627747530886343611e+03
2.170000000000273488e+00 1.618172494804927737e+03
2.190000000000273062e+00 1.609247999934646487e+03
2.210000000000272635e+00 1.597522672296336623e+03
2.230000000000272209e+00 1.580277855475108026e+03
2.250000000000271783e+00 1.561700745765056126e+03
2.270000000000271356e+00 1.539966107399545535e+03
2.290000000000270930e+00 1.524740306313585506e+03
2.310000000000270504e+00 1.508733154145581466e+03
2.330000000000270077e+00 1.497275300823648422e+03
2.350000000000269651e+00 1.483938209530218955e+03
2.370000000000269225e+00 1.472108783663926260e+03
2.390000000000268798e+00 1.460988881879437486e+03
2.410000000000268372e+00 1.449898180690842082e+03
2.430000000000267946e+00 1.435655023655405330e+03
2.450000000000267519e+00 1.420790443540285651e+03
2.470000000000267093e+00 1.406053764108587302e+03
2.490000000000266667e+00 1.393437100300403245e+03
2.510000000000266240e+00 1.381092664429208980e+03
2.530000000000265814e+00 1.366115880065213560e+03
2.550000000000265388e+00 1.352837806634606522e+03
2.570000000000264961e+00 1.337430595138464014e+03
2.590000000000264535e+00 1.321586065529921598e+03
2.610000000000264109e+00 1.306295648305050918e+03
2.630000000000263682e+00 1.290968040335642627e+03
2.650000000000263256e+00 1.277196957525055268e+03
2.670000000000262830e+00 1.262826924204319539e+03
2.690000000000262403e+00 1.247445380798353426e+03
2.710000000000261977e+00 1.233164259625575141e+03
2.730000000000261551e+00 1.218847942647079208e+03
2.750000000000261124e+00 1.204330275091196199e+03
2.770000000000260698e+00 1.190228591315763424e+03
2.790000000000260272e+00 1.174446588408191474e+03
2.810000000000259845e+00 1.161030977074525026e+03
2.830000000000259419e+00 1.146763715441519707e+03
2.850000000000258993e+00 1.132099567726865644e+03
2.870000000000258567e+00 1.119060687683637070e+03
2.890000000000258140e+00 1.104899401948865261e+03
2.910000000000257714e+00 1.092303260218297964e+03
2.930000000000257288e+00 1.077895064759782827e+03
2.950000000000256861e+00 1.064050064165963704e+03
2.970000000000256435e+00 1.050460509066625946e+03
2.990000000000256009e+00 1.035323922520282849e+03
3.010000000000255582e+00 1.021087519763519254e+03
3.030000000000255156e+00 1.007180908750766207e+03
3.050000000000254730e+00 9.948521417124749178e+02
3.070000000000254303e+00 9.808677268526596436e+02
3.090000000000253877e+00 9.683355595528457798e+02
3.110000000000253451e+00 9.559044960656523244e+02
3.130000000000253024e+00 9.421793058337308366e+02
3.150000000000252598e+00 9.298550867572865855e+02
3.170000000000252172e+00 9.196230682226548652e+02
3.190000000000251745e+00 9.077650205997875901e+02
3.210000000000251319e+00 8.951765287202211994e+02
3.230000000000250893e+00 8.848016826567583166e+02
3.250000000000250466e+00 8.738214593841545366e+02
3.270000000000250040e+00 8.604689117205208504e+02
3.290000000000249614e+00 8.476208292279584384e+02
3.310000000000249187e+00 8.318127366251958392e+02
3.330000000000248761e+00 8.175673797130233424e+02
3.350000000000248335e+00 8.046883485877732483e+02
3.370000000000247908e+00 7.919362996397933330e+02
3.390000000000247482e+00 7.781079523690189035e+02
3.410000000000247056e+00 7.672705843182574199e+02
3.430000000000246629e+00 7.559639510071415316e+02
3.450000000000246203e+00 7.442671447758895056e+02
3.470000000000245777e+00 7.344439591179101399e+02
3.490000000000245350e+00 7.241185892043915828e+02
3.510000000000244924e+00 7.136973139428782815e+02
3.530000000000244498e+00 7.031233972144375457e+02
3.550000000000244071e+00 6.943380875355458102e+02
3.570000000000243645e+00 6.861036999454638590e+02
3.590000000000243219e+00 6.765175548996379575e+02
3.610000000000242792e+00 6.680277506234648399e+02
3.630000000000242366e+00 6.579210142169798701e+02
3.650000000000241940e+00 6.458959841346309076e+02
3.670000000000241513e+00 6.348333844949880813e+02
3.690000000000241087e+00 6.257549916716999405e+02
3.710000000000240661e+00 6.164968209406787309e+02
3.730000000000240234e+00 6.068897006353593042e+02
3.750000000000239808e+00 5.977069551976095454e+02
3.770000000000239382e+00 5.905953137259014056e+02
3.790000000000238956e+00 5.831968766286723849e+02
3.810000000000238529e+00 5.755854905763516172e+02
3.830000000000238103e+00 5.671041265228517432e+02
3.850000000000237677e+00 5.602932728244703640e+02
3.870000000000237250e+00 5.510019607287650842e+02
3.890000000000236824e+00 5.430804185731356029e+02
3.910000000000236398e+00 5.347955503067476002e+02
3.930000000000235971e+00 5.274800213757564507e+02
3.950000000000235545e+00 5.201202564513813513e+02
3.970000000000235119e+00 5.118123449681796160e+02
3.990000000000234692e+00 5.045327972596462587e+02
4.010000000000234266e+00 4.956525717981486423e+02
4.030000000000233840e+00 4.892437907263047236e+02
4.050000000000233413e+00 4.806715357229264214e+02
4.070000000000232987e+00 4.722370695421845426e+02
4.090000000000232561e+00 4.653186079665140369e+02
4.110000000000232134e+00 4.578513022876605874e+02
4.130000000000231708e+00 4.529620032307580004e+02
4.150000000000231282e+00 4.461274706105766654e+02
4.170000000000230855e+00 4.393845691648631941e+02
4.190000000000230429e+00 4.348664025048185522e+02
4.210000000000230003e+00 4.276371323315322002e+02
4.230000000000229576e+00 4.243971194757262424e+02
4.250000000000229150e+00 4.165289257604413251e+02
4.270000000000228724e+00 4.099137719298925049e+02
4.290000000000228297e+00 4.032778351248891227e+02
4.310000000000227871e+00 3.972728757361869611e+02
4.330000000000227445e+00 3.915194325367543797e+02
4.350000000000227018e+00 3.861393654488626339e+02
4.370000000000226592e+00 3.797838409954340477e+02
4.390000000000226166e+00 3.738411706176566440e+02
4.410000000000225739e+00 3.694193698333418183e+02
4.430000000000225313e+00 3.641637206617157858e+02
4.450000000000224887e+00 3.603838400199353487e+02
4.470000000000224460e+00 3.560942624977940909e+02
4.490000000000224034e+00 3.516132895710112507e+02
4.510000000000223608e+00 3.469571190934980791e+02
4.530000000000223181e+00 3.421718110136944802e+02
4.550000000000222755e+00 3.374804017802425733e+02
4.570000000000222329e+00 3.327119765336132673e+02
4.590000000000221902e+00 3.292494081627855280e+02
4.610000000000221476e+00 3.249419391038029516e+02
4.630000000000221050e+00 3.206814491025497205e+02
4.650000000000220624e+00 3.171430568081545402e+02
4.670000000000220197e+00 3.112829565709441795e+02
4.690000000000219771e+00 3.074340514741904826e+02
4.710000000000219345e+00 3.030551101028569292e+02
4.730000000000218918e+00 2.977385189344217906e+02
4.750000000000218492e+00 2.951494461759490378e+02
4.770000000000218066e+00 2.906792233369268956e+02
4.790000000000217639e+00 2.867694420925768668e+02
4.810000000000217213e+00 2.825730083122912788e+02
4.830000000000216787e+00 2.795426033898215223e+02
4.850000000000216360e+00 2.761690797473923453e+02
4.870000000000215934e+00 2.739030268069154772e+02
4.890000000000215508e+00 2.709187063609435313e+02
4.910000000000215081e+00 2.674830370959464858e+02
4.930000000000214655e+00 2.647623073525618338e+02
4.950000000000214229e+00 2.615504786790313005e+02
4.970000000000213802e+00 2.586258392084079105e+02
4.990000000000213376e+00 2.560786511989246037e+02
5.010000000000212950e+00 2.518808176815161346e+02
5.030000000000212523e+00 2.488754144978739191e+02
5.050000000000212097e+00 2.455218023009320234e+02
5.070000000000211671e+00 2.417773649053214626e+02
5.090000000000211244e+00 2.386250117371308193e+02
5.110000000000210818e+00 2.355953596344063214e+02
5.130000000000210392e+00 2.320368033077062080e+02
5.150000000000209965e+00 2.277066356531462077e+02
5.170000000000209539e+00 2.249814668607829162e+02
5.190000000000209113e+00 2.217382957299492148e+02
5.210000000000208686e+00 2.185233896082463900e+02
5.230000000000208260e+00 2.164937568330784927e+02
5.250000000000207834e+00 2.137842785463522830e+02
5.270000000000207407e+00 2.101412467194830356e+02
5.290000000000206981e+00 2.080993382661914382e+02
5.310000000000206555e+00 2.056176846811309247e+02
5.330000000000206128e+00 2.030044032464310249e+02
5.350000000000205702e+00 2.003093624641446127e+02
5.370000000000205276e+00 1.987470277444168971e+02
5.390000000000204849e+00 1.966577547062360054e+02
5.410000000000204423e+00 1.942125343118657668e+02
5.430000000000203997e+00 1.918523860476620087e+02
5.450000000000203570e+00 1.900658747765944838e+02
5.470000000000203144e+00 1.874108134749113503e+02
5.490000000000202718e+00 1.853709714466117759e+02
5.510000000000202292e+00 1.831460009074090749e+02
5.530000000000201865e+00 1.809653141629418371e+02
5.550000000000201439e+00 1.790168872766037680e+02
5.570000000000201013e+00 1.771702364516304158e+02
5.590000000000200586e+00 1.751741485900704447e+02
5.610000000000200160e+00 1.734586243360053857e+02
5.630000000000199734e+00 1.712911496750323010e+02
5.650000000000199307e+00 1.686905102131228773e+02
5.670000000000198881e+00 1.667194732334506000e+02
5.690000000000198455e+00 1.644652222770139929e+02
5.710000000000198028e+00 1.623429835697281760e+02
5.730000000000197602e+00 1.605012374406801712e+02
5.750000000000197176e+00 1.587255968842116545e+02
5.770000000000196749e+00 1.571613170501539969e+02
5.790000000000196323e+00 1.546052339362524037e+02
5.810000000000195897e+00 1.532116902202508868e+02
5.830000000000195470e+00 1.513840120008029828e+02
5.850000000000195044e+00 1.493784452439811332e+02
5.870000000000194618e+00 1.476707031066316915e+02
5.890000000000194191e+00 1.469174875697005405e+02
5.910000000000193765e+00 1.450510686443444968e+02
5.930000000000193339e+00 1.430498930218753628e+02
5.950000000000192912e+00 1.420585043597020274e+02
5.970000000000192486e+00 1.397086595512426186e+02
5.990000000000192060e+00 1.388783460367564828e+02
6.010000000000191633e+00 1.372478942591445730e+02
6.030000000000191207e+00 1.357943234651627620e+02
6.050000000000190781e+00 1.342592439137762028e+02
6.070000000000190354e+00 1.329587288712695852e+02
6.090000000000189928e+00 1.313137394397095647e+02
6.110000000000189502e+00 1.297524768615641335e+02
6.130000000000189075e+00 1.285549844753502100e+02
6.150000000000188649e+00 1.271126225162842758e+02
6.170000000000188223e+00 1.252010045989621432e+02
6.190000000000187796e+00 1.238330385817290420e+02
6.210000000000187370e+00 1.222041127708010748e+02
6.230000000000186944e+00 1.203820668946131178e+02
6.250000000000186517e+00 1.190203781997079062e+02
6.270000000000186091e+00 1.172222212080403523e+02
6.290000000000185665e+00 1.162459222552897842e+02
6.310000000000185238e+00 1.149018572695651130e+02
6.330000000000184812e+00 1.138931892716370555e+02
6.350000000000184386e+00 1.124668130960472183e+02
6.370000000000183960e+00 1.113773727039287138e+02
6.390000000000183533e+00 1.102270767486800764e+02
6.410000000000183107e+00 1.087814376215448391e+02
6.430000000000182681e+00 1.081618006085764705e+02
6.450000000000182254e+00 1.068757826187956681e+02
6.470000000000181828e+00 1.061337736316564531e+02
6.490000000000181402e+00 1.046527969710382848e+02
6.510000000000180975e+00 1.041225873454750399e+02
6.530000000000180549e+00 1.024459157223386541e+02
6.550000000000180123e+00 1.014270629736554525e+02
6.570000000000179696e+00 1.004506208947448016e+02
6.590000000000179270e+00 9.960580561312420400e+01
6.610000000000178844e+00 9.829835948279084334e+01
6.630000000000178417e+00 9.735469242130754708e+01
6.650000000000177991e+00 9.713928871216492666e+01
6.670000000000177565e+00 9.564056610724550467e+01
6.690000000000177138e+00 9.435811913121703753e+01
6.710000000000176712e+00 9.315362876995786223e+01
6.730000000000176286e+00 9.244121309221071670e+01
6.750000000000175859e+00 9.093669862793241521e+01
6.770000000000175433e+00 8.984349651800151548e+01
6.790000000000175007e+00 8.910460926182119579e+01
6.810000000000174580e+00 8.793555552864020797e+01
6.830000000000174154e+00 8.688367228727680924e+01
6.850000000000173728e+00 8.560572506786415659e+01
6.870000000000173301e+00 8.478197546055652367e+01
6.890000000000172875e+00 8.406358995896407293e+01
6.910000000000172449e+00 8.312051533127089442e+01
6.930000000000172022e+00 8.245259098953192733e+01
6.950000000000171596e+00 8.135548016240137770e+01
6.970000000000171170e+00 8.085486212988186594e+01
6.990000000000170743e+00 8.000362589496775456e+01
7.010000000000170317e+00 7.903224278815005732e+01
7.030000000000169891e+00 7.833381662965396686e+01
7.050000000000169464e+00 7.748927882640769838e+01
7.070000000000169038e+00 7.669888225169225393e+01
7.090000000000168612e+00 7.622760741982081356e+01
7.110000000000168185e+00 7.534343840999326858e+01
7.130000000000167759e+00 7.429795139972083007e+01
7.150000000000167333e+00 7.376798658281344956e+01
7.170000000000166906e+00 7.321816419885077210e+01
7.190000000000166480e+00 7.235803568791453699e+01
7.210000000000166054e+00 7.132121354043835026e+01
7.230000000000165628e+00 7.065961860813277440e+01
7.250000000000165201e+00 6.974502096201422319e+01
7.270000000000164775e+00 6.871091810165380309e+01
7.290000000000164349e+00 6.815640299832548976e+01
7.310000000000163922e+00 6.728959817124273002e+01
7.330000000000163496e+00 6.659864329485884582e+01
7.350000000000163070e+00 6.573888229353546819e+01
7.370000000000162643e+00 6.546353020541295109e+01
7.390000000000162217e+00 6.461803377850309005e+01
7.410000000000161791e+00 6.381727366353678832e+01
7.430000000000161364e+00 6.311007697871327338e+01
7.450000000000160938e+00 6.279882145016025419e+01
7.470000000000160512e+00 6.211302871824705818e+01
7.490000000000160085e+00 6.136700502558931447e+01
7.510000000000159659e+00 6.086595991146850082e+01
7.530000000000159233e+00 6.026600000982784877e+01
7.550000000000158806e+00 5.973062476093289064e+01
7.570000000000158380e+00 5.905210776123119842e+01
7.590000000000157954e+00 5.810248426864070836e+01
7.610000000000157527e+00 5.752070742955768168e+01
7.630000000000157101e+00 5.698589539966166484e+01
7.650000000000156675e+00 5.640861343751230805e+01
7.670000000000156248e+00 5.587225125752209465e+01
7.690000000000155822e+00 5.533202077421513110e+01
7.710000000000155396e+00 5.453892022621452185e+01
7.730000000000154969e+00 5.409721704058456027e+01
7.750000000000154543e+00 5.336401576674028746e+01
7.770000000000154117e+00 5.264846298691026760e+01
7.790000000000153690e+00 5.232975244806716120e+01
7.810000000000153264e+00 5.155211744502940974e+01
7.830000000000152838e+00 5.118938765568631766e+01
7.850000000000152411e+00 5.074263233806227191e+01
7.870000000000151985e+00 5.012167112227002264e+01
7.890000000000151559e+00 4.988409546675288198e+01
7.910000000000151132e+00 4.916435530151784405e+01
7.930000000000150706e+00 4.862896996904423474e+01
7.950000000000150280e+00 4.791792153797128861e+01
7.970000000000149853e+00 4.737384906720070177e+01
7.990000000000149427e+00 4.696181022697927432e+01
8.010000000000149001e+00 4.651597155729741928e+01
8.030000000000148574e+00 4.598288153945201628e+01
8.050000000000148148e+00 4.548915379264847303e+01
8.070000000000147722e+00 4.491408435729861282e+01
8.090000000000147296e+00 4.465995490797505596e+01
8.110000000000146869e+00 4.407609507352891853e+01
8.130000000000146443e+00 4.351909308087557804e+01
8.150000000000146017e+00 4.310813650300603683e+01
8.170000000000145590e+00 4.260002258418855803e+01
8.190000000000145164e+00 4.225324651543935062e+01
8.210000000000144738e+00 4.158762956239451825e+01
8.230000000000144311e+00 4.136157050972068561e+01
8.250000000000143885e+00 4.066421624455737316e+01
8.270000000000143459e+00 4.034114556448487576e+01
8.290000000000143032e+00 3.987805946381517685e+01
8.310000000000142606e+00 3.940915048524007602e+01
8.330000000000142180e+00 3.905496389453444550e+01
8.350000000000141753e+00 3.864054875658596444e+01
8.370000000000141327e+00 3.826632014369579338e+01
8.390000000000140901e+00 3.767917526316455934e+01
8.410000000000140474e+00 3.732991326853682068e+01
8.430000000000140048e+00 3.701732337223346292e+01
8.450000000000139622e+00 3.649111049573465948e+01
8.470000000000139195e+00 3.597271240236609913e+01
8.490000000000138769e+00 3.559818563883335685e+01
8.510000000000138343e+00 3.542224641365581306e+01
8.530000000000137916e+00 3.487680736490902689e+01
8.550000000000137490e+00 3.454380334604206837e+01
8.570000000000137064e+00 3.409167243858399843e+01
8.590000000000136637e+00 3.370795044217386760e+01
8.610000000000136211e+00 3.332406026660346043e+01
8.630000000000135785e+00 3.310430350976744052e+01
8.650000000000135358e+00 3.266270495483375669e+01
8.670000000000134932e+00 3.229795635656758890e+01
8.690000000000134506e+00 3.189542430422817887e+01
8.710000000000134079e+00 3.148422010901809998e+01
8.730000000000133653e+00 3.109271166489218174e+01
8.750000000000133227e+00 3.083294868046759518e+01
8.770000000000132800e+00 3.041038719435967863e+01
8.790000000000132374e+00 3.004833539192159719e+01
8.810000000000131948e+00 2.973276877353014669e+01
8.830000000000131521e+00 2.934952092001802271e+01
8.850000000000131095e+00 2.923601863619270702e+01
8.870000000000130669e+00 2.869329812438426330e+01
8.890000000000130242e+00 2.849915600396741411e+01
8.910000000000129816e+00 2.809146752684599591e+01
8.930000000000129390e+00 2.769546897897226501e+01
8.950000000000128964e+00 2.739534221493950739e+01
8.970000000000128537e+00 2.719525939458280916e+01
8.990000000000128111e+00 2.687491611844538753e+01
9.010000000000127685e+00 2.646908414600839521e+01
9.030000000000127258e+00 2.625700726485003500e+01
9.050000000000126832e+00 2.586215030469938725e+01
9.070000000000126406e+00 2.561277920369290584e+01
9.090000000000125979e+00 2.524017951874267496e+01
9.110000000000125553e+00 2.492775287640577631e+01
9.130000000000125127e+00 2.474521037798174561e+01
9.150000000000124700e+00 2.429738181247341799e+01
9.170000000000124274e+00 2.415485958617917106e+01
9.190000000000123848e+00 2.378969340026197088e+01
9.210000000000123421e+00 2.350465310131319185e+01
9.230000000000122995e+00 2.327318403145245185e+01
9.250000000000122569e+00 2.305088534024447000e+01
9.270000000000122142e+00 2.274086309100796299e+01
9.290000000000121716e+00 2.256703689590272077e+01
9.310000000000121290e+00 2.226447092717381793e+01
9.330000000000120863e+00 2.201538761267664768e+01
9.350000000000120437e+00 2.166106426130469131e+01
9.370000000000120011e+00 2.140631058475521797e+01
9.390000000000119584e+00 2.113115768241248560e+01
9.410000000000119158e+00 2.086381707573827526e+01
9.430000000000118732e+00 2.062043374572414578e+01
9.450000000000118305e+00 2.043340539840883707e+01
9.470000000000117879e+00 2.013464685465348936e+01
9.490000000000117453e+00 1.998475549226159487e+01
9.510000000000117026e+00 1.972631314146651604e+01
9.530000000000116600e+00 1.946585902937988166e+01
9.550000000000116174e+00 1.922926014669965156e+01
9.570000000000115747e+00 1.893754377656184573e+01
9.590000000000115321e+00 1.885508733888901745e+01
9.610000000000114895e+00 1.861815589763662970e+01
9.630000000000114468e+00 1.835831636327806393e+01
9.650000000000114042e+00 1.808480643618493033e+01
9.670000000000113616e+00 1.793476816930212436e+01
9.690000000000113189e+00 1.772073026344650870e+01
9.710000000000112763e+00 1.748688784391391238e+01
9.730000000000112337e+00 1.726456832454680779e+01
9.750000000000111910e+00 1.703873679613905878e+01
9.770000000000111484e+00 1.684843427360207002e+01
9.790000000000111058e+00 1.660255218039646508e+01
9.810000000000110632e+00 1.651921629029002503e+01
9.830000000000110205e+00 1.617804872502007285e+01
9.850000000000109779e+00 1.609713772563601708e+01
9.870000000000109353e+00 1.595356350983589167e+01
9.890000000000108926e+00 1.564617436468409295e+01
9.910000000000108500e+00 1.553354691102310881e+01
9.930000000000108074e+00 1.537268531087458889e+01
9.950000000000107647e+00 1.509488865560396142e+01
9.970000000000107221e+00 1.487000227155366083e+01
9.990000000000106795e+00 1.485930717918811261e+01
1.001000000000010637e+01 1.462567748169604975e+01
1.003000000000010594e+01 1.438434033356780439e+01
1.005000000000010552e+01 1.419844323950424680e+01
1.007000000000010509e+01 1.412683486430139013e+01
1.009000000000010466e+01 1.388594415258723025e+01
1.011000000000010424e+01 1.380954678108587252e+01
1.013000000000010381e+01 1.356416076911073354e+01
1.015000000000010338e+01 1.335214168944902369e+01
1.017000000000010296e+01 1.325517960934622330e+01
1.019000000000010253e+01 1.310835599299182341e+01
1.021000000000010210e+01 1.288702469497381209e+01
1.023000000000010168e+01 1.280944904511762950e+01
1.025000000000010125e+01 1.263047099383049421e+01
1.027000000000010083e+01 1.249249197203456418e+01
1.029000000000010040e+01 1.236548672909572133e+01
1.031000000000009997e+01 1.219523338724022032e+01
1.033000000000009955e+01 1.200590911526978921e+01
1.035000000000009912e+01 1.183931180827038432e+01
1.037000000000009869e+01 1.169327056319292701e+01
1.039000000000009827e+01 1.160219075846489645e+01
1.041000000000009784e+01 1.150314311857566807e+01
1.043000000000009742e+01 1.128305849575013475e+01
1.045000000000009699e+01 1.117887941717807543e+01
1.047000000000009656e+01 1.102919637455421409e+01
1.049000000000009614e+01 1.085721258018572222e+01
1.051000000000009571e+01 1.078762065759070587e+01
1.053000000000009528e+01 1.065021768074690733e+01
1.055000000000009486e+01 1.043918084404484503e+01
1.057000000000009443e+01 1.042152486041089965e+01
1.059000000000009400e+01 1.014912006379817200e+01
1.061000000000009358e+01 1.012548026496558862e+01
1.063000000000009315e+01 1.005562806956265476e+01
1.065000000000009273e+01 9.828162568913793251e+00
1.067000000000009230e+01 9.750494326584876248e+00
1.069000000000009187e+01 9.574293427545127244e+00
1.071000000000009145e+01 9.437590991645368632e+00
1.073000000000009102e+01 9.367359348009307141e+00
1.075000000000009059e+01 9.250169922579706494e+00
1.077000000000009017e+01 9.107547807657523364e+00
1.079000000000008974e+01 8.975064494249407332e+00
1.081000000000008932e+01 8.913801790051119056e+00
1.083000000000008889e+01 8.752266522847770958e+00
1.085000000000008846e+01 8.644276606945018315e+00
1.087000000000008804e+01 8.533851524659812782e+00
1.089000000000008761e+01 8.419659521889320430e+00
1.091000000000008718e+01 8.294515709852342766e+00
1.093000000000008676e+01 8.136178281330940010e+00
1.095000000000008633e+01 8.075058281370706581e+00
1.097000000000008590e+01 7.933164246486562377e+00
1.099000000000008548e+01 7.912472985005558179e+00
1.101000000000008505e+01 7.822730081092291066e+00
1.103000000000008463e+01 7.591992992672675911e+00
1.105000000000008420e+01 7.561466266511133405e+00
1.107000000000008377e+01 7.332419570449616231e+00
1.109000000000008335e+01 7.293628913568833916e+00
1.111000000000008292e+01 7.230431717566571770e+00
1.113000000000008249e+01 7.122769115676722329e+00
1.115000000000008207e+01 6.977383632206223041e+00
1.117000000000008164e+01 6.910335264958474610e+00
1.119000000000008122e+01 6.807940682165265045e+00
1.121000000000008079e+01 6.681586840640446390e+00
1.123000000000008036e+01 6.575795978435679423e+00
1.125000000000007994e+01 6.508852570968116424e+00
1.127000000000007951e+01 6.389763699941903852e+00
1.129000000000007908e+01 6.223071194778889925e+00
1.131000000000007866e+01 6.221753479016974175e+00
1.133000000000007823e+01 6.123384441928860333e+00
1.135000000000007780e+01 5.974086325699077271e+00
1.137000000000007738e+01 5.882736660093867975e+00
1.139000000000007695e+01 5.815961575304704922e+00
1.141000000000007653e+01 5.692341740309056597e+00
1.143000000000007610e+01 5.606795744246572788e+00
1.145000000000007567e+01 5.565352854883280465e+00
1.147000000000007525e+01 5.419893759568317648e+00
1.149000000000007482e+01 5.318387012480466858e+00
1.151000000000007439e+01 5.190700132761010721e+00
1.153000000000007397e+01 5.183219720109321749e+00
1.155000000000007354e+01 5.051172182895775187e+00
1.157000000000007311e+01 4.986795722460303892e+00
1.159000000000007269e+01 4.876664005830543047e+00
1.161000000000007226e+01 4.824246448523157760e+00
1.163000000000007184e+01 4.667631116215245513e+00
1.165000000000007141e+01 4.622507275803362958e+00
1.167000000000007098e+01 4.538114459626744868e+00
1.169000000000007056e+01 4.443015855777492362e+00
1.171000000000007013e+01 4.339039170343406582e+00
1.173000000000006970e+01 4.306114577903035645e+00
1.175000000000006928e+01 4.192985217424811673e+00
1.177000000000006885e+01 4.118224320285401419e+00
1.179000000000006843e+01 4.030006929240300018e+00
1.181000000000006800e+01 3.989586000486157857e+00
1.183000000000006757e+01 3.877358143242527255e+00
1.185000000000006715e+01 3.784951813103460072e+00
1.187000000000006672e+01 3.699163184149744321e+00
1.189000000000006629e+01 3.657264995162444521e+00
1.191000000000006587e+01 3.544611210749190278e+00
1.193000000000006544e+01 3.503958141422284456e+00
1.195000000000006501e+01 3.402221720772830249e+00
1.197000000000006459e+01 3.380958249241989400e+00
1.199000000000006416e+01 3.256443048087492187e+00
1.201000000000006374e+01 3.195639525463870534e+00
1.203000000000006331e+01 3.126528929236668031e+00
1.205000000000006288e+01 3.052570942737715232e+00
1.207000000000006246e+01 2.974405067933035163e+00
1.209000000000006203e+01 2.928339133448515597e+00
1.211000000000006160e+01 2.877556156643310104e+00
1.213000000000006118e+01 2.761617253842076458e+00
1.215000000000006075e+01 2.767311845336253295e+00
1.217000000000006033e+01 2.625926817412281178e+00
1.219000000000005990e+01 2.558746933792433786e+00
1.221000000000005947e+01 2.550179435537130779e+00
1.223000000000005905e+01 2.481454682736893513e+00
1.225000000000005862e+01 2.426401839071863797e+00
1.227000000000005819e+01 2.332851593521505063e+00
1.229000000000005777e+01 2.284780871500978972e+00
1.231000000000005734e+01 2.217585289247273828e+00
1.233000000000005691e+01 2.183947091634614424e+00
1.235000000000005649e+01 2.117704823106740797e+00
1.237000000000005606e+01 2.067840002636629482e+00
1.239000000000005564e+01 2.016112717153283107e+00
1.241000000000005521e+01 1.956551837025392038e+00
1.243000000000005478e+01 1.902371154977158474e+00
1.245000000000005436e+01 1.853850514715263742e+00
1.247000000000005393e+01 1.798607625864206305e+00
1.249000000000005350e+01 1.752733570989117418e+00
1.251000000000005308e+01 1.708923299766850201e+00
1.253000000000005265e+01 1.644177287671770626e+00
1.255000000000005222e+01 1.610875859357067341e+00
1.257000000000005180e+01 1.582966609668482683e+00
1.259000000000005137e+01 1.518975855286691878e+00
1.261000000000005095e+01 1.482554814879272431e+00
1.263000000000005052e+01 1.424199144636345782e+00
1.265000000000005009e+01 1.377716780584114176e+00
1.267000000000004967e+01 1.365343787303457068e+00
1.269000000000004924e+01 1.325962912360505452e+00
1.271000000000004881e+01 1.265292698456443432e+00
1.273000000000004839e+01 1.225055503744909347e+00
1.275000000000004796e+01 1.196570644123839955e+00
1.277000000000004754e+01 1.171513838881385494e+00
1.279000000000004711e+01 1.119672096559206409e+00
1.281000000000004668e+01 1.105032876030962008e+00
1.283000000000004626e+01 1.042235100524842029e+00
1.285000000000004583e+01 1.017256327163650109e+00
1.287000000000004540e+01 9.812134952071015492e-01
1.289000000000004498e+01 9.872418637367346150e-01
1.291000000000004455e+01 9.106200177367058668e-01
1.293000000000004412e+01 9.213067464600490641e-01
1.295000000000004370e+01 8.533809671098895322e-01
1.297000000000004327e+01 8.366717809255259652e-01
1.299000000000004285e+01 8.184670915408205349e-01
1.301000000000004242e+01 7.998726040681906069e-01
1.303000000000004199e+01 7.550455974283197813e-01
1.305000000000004157e+01 7.327989286520328882e-01
1.307000000000004114e+01 7.198403449028524248e-01
1.309000000000004071e+01 6.826998817256313412e-01
1.311000000000004029e+01 6.657205056207862182e-01
1.313000000000003986e+01 6.467002306184699290e-01
1.315000000000003944e+01 6.201135576508374214e-01
1.317000000000003901e+01 5.899631349053768847e-01
1.319000000000003858e+01 5.844585112818523331e-01
1.321000000000003816e+01 5.646876342012386862e-01
1.323000000000003773e+01 5.507831405973102612e-01
1.325000000000003730e+01 5.159040765221575287e-01
1.327000000000003688e+01 5.001890793694592219e-01
1.329000000000003645e+01 4.806838364175450851e-01
1.331000000000003602e+01 4.742262088792786323e-01
1.333000000000003560e+01 4.585927753641106386e-01
1.335000000000003517e+01 4.308540099754731290e-01
1.337000000000003475e+01 4.195197434687283899e-01
1.339000000000003432e+01 4.143262830097565463e-01
1.341000000000003389e+01 3.953962347541406519e-01
1.343000000000003347e+01 3.823772296812978921e-01
1.345000000000003304e+01 3.594489531071423660e-01
1.347000000000003261e+01 3.529053793013986473e-01
1.349000000000003219e+01 3.341765052654472323e-01
1.351000000000003176e+01 3.307975225623627225e-01
1.353000000000003133e+01 3.143896230383536605e-01
1.355000000000003091e+01 2.923712649111268047e-01
1.357000000000003048e+01 2.790485887581519719e-01
1.359000000000003006e+01 2.755302754999839343e-01
1.361000000000002963e+01 2.576432040578626181e-01
1.363000000000002920e+01 2.525729932841436765e-01
1.365000000000002878e+01 2.282698105304390990e-01
1.367000000000002835e+01 2.282604275304581654e-01
1.369000000000002792e+01 2.040594123993852427e-01
1.371000000000002750e+01 2.049869201360643711e-01
1.373000000000002707e+01 1.972139449129182431e-01
1.375000000000002665e+01 1.771932179677483121e-01
1.377000000000002622e+01 1.631887653449178577e-01
1.379000000000002579e+01 1.582699931922426639e-01
1.381000000000002537e+01 1.485387020748650810e-01
1.383000000000002494e+01 1.496159859197993547e-01
1.385000000000002451e+01 1.193972320636617623e-01
1.387000000000002409e+01 1.247469552850585806e-01
1.389000000000002366e+01 1.098774388424395704e-01
1.391000000000002323e+01 1.069460434585823849e-01
1.393000000000002281e+01 1.014213137983027840e-01
1.395000000000002238e+01 9.962205234725533820e-02
1.397000000000002196e+01 8.377436208626953817e-02
1.399000000000002153e+01 7.062219666595395684e-02
1.401000000000002110e+01 4.081304106870099063e-02
1.403000000000002068e+01 3.267918353924470498e-02
1.405000000000002025e+01 3.149258125746398629e-02
1.407000000000001982e+01 2.584316072783570534e-02
1.409000000000001940e+01 2.536607566621889090e-02
1.411000000000001897e+01 2.377097996681597214e-02
1.413000000000001855e+01 1.936109865054235976e-02
1.415000000000001812e+01 1.766141436270736442e-02
1.417000000000001769e+01 1.426418119716790431e-02
1.419000000000001727e+01 1.322021026901356103e-02
1.421000000000001684e+01 9.154674267972316010e-03
1.423000000000001641e+01 5.793097125182027594e-03
1.425000000000001599e+01 5.312606016015319378e-03
1.427000000000001556e+01 4.723141760712389059e-03
1.429000000000001513e+01 4.007822381823610350e-03
1.431000000000001471e+01 3.753318747931258872e-03
1.433000000000001428e+01 3.674371342777669157e-03
1.435000000000001386e+01 8.102430977163917148e-04
1.437000000000001343e+01 4.950241639122506844e-04
1.439000000000001300e+01 2.995066186807352252e-04
1.441000000000001258e+01 1.141236919581722843e-04
1.443000000000001215e+01 2.193888199361039262e-06
1.445000000000001172e+01 8.151560685150400038e-07
1.447000000000001130e+01 5.537501921113983326e-07
1.449000000000001087e+01 1.480511541735127268e-08
1.451000000000001044e+01 9.954325951185146171e-09
1.453000000000001002e+01 7.135117737240990279e-10
1.455000000000000959e+01 1.285477569945641073e-10
1.457000000000000917e+01 1.173369089347537233e-10
1.459000000000000874e+01 6.048045728232976676e-13
1.461000000000000831e+01 2.810829701315043072e-13
1.463000000000000789e+01 1.117260637054876181e-15
1.465000000000000746e+01 0.000000000000000000e+00
1.467000000000000703e+01 0.000000000000000000e+00
1.469000000000000661e+01 0.000000000000000000e+00
1.471000000000000618e+01 0.000000000000000000e+00
1.473000000000000576e+01 0.000000000000000000e+00
1.475000000000000533e+01 0.000000000000000000e+00
1.477000000000000490e+01 0.000000000000000000e+00
1.479000000000000448e+01 0.000000000000000000e+00
1.481000000000000405e+01 0.000000000000000000e+00
1.483000000000000362e+01 0.000000000000000000e+00
1.485000000000000320e+01 0.000000000000000000e+00
1.487000000000000277e+01 0.000000000000000000e+00
1.489000000000000234e+01 0.000000000000000000e+00
1.491000000000000192e+01 0.000000000000000000e+00
1.493000000000000149e+01 0.000000000000000000e+00
1.495000000000000107e+01 0.000000000000000000e+00
1.497000000000000064e+01 0.000000000000000000e+00
1.499000000000000021e+01 0.000000000000000000e+00
