 Tev(Myr)    type      Mo        Mt      log10(L)  log10(R) log10(Teff)  Mc        Menv              epoch      spin                                  
    0.0000    1.0000    2.8000    2.8000    1.8667    0.2263    4.1168    0.0000  1.0000E-10      0.0000  5.3258E+03
   20.3066    1.0000    2.8000    2.8000    1.8759    0.2368    4.1138    0.0000  1.0000E-10      0.0000  5.1755E+03
   40.6134    1.0000    2.8000    2.8000    1.8857    0.2474    4.1110    0.0000  1.0000E-10     -0.0002  5.0264E+03
   60.9203    1.0000    2.8000    2.8000    1.8962    0.2583    4.1082    0.0000  1.0000E-10     -0.0005  4.8771E+03
   81.2274    1.0000    2.8000    2.8000    1.9074    0.2694    4.1054    0.0000  1.0000E-10     -0.0010  4.7265E+03
  101.5346    1.0000    2.8000    2.8000    1.9191    0.2811    4.1025    0.0000  1.0000E-10     -0.0018  4.5733E+03
  121.8421    1.0000    2.7999    2.7999    1.9316    0.2932    4.0996    0.0000  1.0000E-10     -0.0027  4.4166E+03
  142.1497    1.0000    2.7999    2.7999    1.9447    0.3060    4.0964    0.0000  1.0000E-10     -0.0040  4.2554E+03
  162.4576    1.0000    2.7999    2.7999    1.9584    0.3196    4.0931    0.0000  1.0000E-10     -0.0055  4.0891E+03
  182.7656    1.0000    2.7999    2.7999    1.9728    0.3341    4.0894    0.0000  1.0000E-10     -0.0074  3.9169E+03
  203.0739    1.0000    2.7999    2.7999    1.9878    0.3496    4.0854    0.0000  1.0000E-10     -0.0096  3.7384E+03
  223.3825    1.0000    2.7999    2.7999    2.0034    0.3662    4.0810    0.0000  1.0000E-10     -0.0123  3.5528E+03
  243.6913    1.0000    2.7999    2.7999    2.0198    0.3843    4.0760    0.0000  1.0000E-10     -0.0154  3.3592E+03
  264.0004    1.0000    2.7999    2.7999    2.0367    0.4042    4.0704    0.0000  1.0000E-10     -0.0190  3.1564E+03
  284.3098    1.0000    2.7998    2.7998    2.0543    0.4262    4.0638    0.0000  1.0000E-10     -0.0233  2.9419E+03
  304.6195    1.0000    2.7998    2.7998    2.0726    0.4512    4.0558    0.0000  1.0000E-10     -0.0283  2.7126E+03
  324.9296    1.0000    2.7998    2.7998    2.0915    0.4802    4.0460    0.0000  1.0000E-10     -0.0339  2.4636E+03
  345.2401    1.0000    2.7998    2.7998    2.1110    0.5152    4.0334    0.0000  1.0000E-10     -0.0405  2.1890E+03
  364.4517    1.0000    2.7998    2.7998    2.1301    0.5560    4.0178    0.0000  1.0000E-10     -0.0475  1.9004E+03
  379.8020    1.0000    2.7998    2.7998    2.1458    0.5962    4.0016    0.0000  1.0000E-10     -0.0475  1.6479E+03
  392.4313    1.0000    2.7998    2.7998    2.1589    0.6361    3.9850    0.0000  1.0000E-10     -0.0475  1.4261E+03
  404.3456    1.0000    2.7998    2.7998    2.2033    0.6644    3.9819    0.0000  1.0000E-10     -0.0475  1.2850E+03
  405.3740    1.0000    2.7998    2.7998    2.2403    0.6335    4.0066    0.0000  1.0000E-10     -0.0475  1.4395E+03
  406.1782    2.0000    2.7998    2.7998    2.2787    0.5884    4.0387    0.3818  1.0000E-10     -0.0475  1.9608E+03
  406.3159    2.0000    2.7997    2.7997    2.2676    0.6152    4.0226    0.3822  1.0000E-10     -0.0502  1.7812E+03
  406.4536    2.0000    2.7997    2.7997    2.2564    0.6420    4.0064    0.3827  1.0000E-10     -0.0530  1.6160E+03
  406.5913    2.0000    2.7997    2.7997    2.2452    0.6687    3.9902    0.3831  1.0000E-10     -0.0560  1.4641E+03
  406.7290    2.0000    2.7997    2.7997    2.2341    0.6955    3.9741    0.3836  1.0000E-10     -0.0590  1.3250E+03
  406.8668    2.0000    2.7997    2.7997    2.2229    0.7222    3.9579    0.3840  1.0000E-10     -0.0621  1.1977E+03
  407.0045    2.0000    2.7997    2.7997    2.2118    0.7490    3.9417    0.3845  1.0000E-10     -0.0654  1.0814E+03
  407.1422    2.0000    2.7997    2.7997    2.2006    0.7757    3.9256    0.3849  1.0000E-10     -0.0688  9.7539E+02
  407.2799    2.0000    2.7997    2.7997    2.1894    0.8025    3.9094    0.3854  1.0000E-10     -0.0723  8.7893E+02
  407.4176    2.0000    2.7997    2.7997    2.1783    0.8292    3.8932    0.3858  1.0000E-10     -0.0759  7.9128E+02
  407.5554    2.0000    2.7997    2.7997    2.1671    0.8560    3.8770    0.3863  1.0000E-10     -0.0797  7.1176E+02
  407.6931    2.0000    2.7997    2.7997    2.1560    0.8828    3.8609    0.3867  1.0000E-10     -0.0836  6.3971E+02
  407.8308    2.0000    2.7996    2.7996    2.1448    0.9095    3.8447    0.3872  1.0000E-10     -0.0876  5.7452E+02
  407.9686    2.0000    2.7996    2.7996    2.1336    0.9363    3.8285    0.3876  1.0000E-10     -0.0918  5.1560E+02
  408.1063    2.0000    2.7996    2.7996    2.1225    0.9630    3.8124    0.3881  1.0000E-10     -0.0962  4.6242E+02
  408.2440    2.0000    2.7996    2.7996    2.1113    0.9898    3.7962    0.3885  1.6188E-05     -0.1007  4.1187E+02
  408.3817    2.0000    2.7996    2.7996    2.1001    1.0165    3.7800    0.3890  1.7877E-03     -0.1054  3.3508E+02
  408.5195    2.0000    2.7996    2.7996    2.0890    1.0433    3.7639    0.3894  2.0747E-02     -0.1103  2.2501E+02
  408.6572    2.0000    2.7996    2.7996    2.0778    1.0700    3.7477    0.3899  1.1247E-01     -0.1153  1.2739E+02
  408.7950    2.0000    2.7996    2.7996    2.0666    1.0968    3.7315    0.3903  4.1391E-01     -0.1205  6.7225E+01
  408.9327    2.0000    2.7995    2.7995    2.0555    1.1235    3.7154    0.3907  1.2041E+00     -0.1260  3.5569E+01
  408.9328    3.0000    2.7995    2.7995    2.0555    1.1235    3.7154    0.3907  1.2044E+00     -0.1260  3.5563E+01
  408.9663    3.0000    2.7995    2.7995    2.0609    1.1269    3.7150    0.3912  1.2193E+00     -0.1260  3.4950E+01
  408.9995    3.0000    2.7995    2.7995    2.0664    1.1303    3.7147    0.3917  1.2343E+00     -0.1260  3.4347E+01
  409.0324    3.0000    2.7995    2.7995    2.0718    1.1337    3.7144    0.3922  1.2494E+00     -0.1260  3.3755E+01
  409.0650    3.0000    2.7995    2.7995    2.0773    1.1371    3.7140    0.3927  1.2646E+00     -0.1260  3.3175E+01
  409.0972    3.0000    2.7995    2.7995    2.0828    1.1405    3.7137    0.3932  1.2799E+00     -0.1260  3.2604E+01
  409.1291    3.0000    2.7995    2.7995    2.0882    1.1439    3.7134    0.3936  1.2953E+00     -0.1260  3.2045E+01
  409.1607    3.0000    2.7995    2.7995    2.0937    1.1473    3.7130    0.3941  1.3107E+00     -0.1260  3.1495E+01
  409.1920    3.0000    2.7995    2.7995    2.0991    1.1507    3.7127    0.3946  1.3263E+00     -0.1260  3.0955E+01
  409.2229    3.0000    2.7995    2.7995    2.1046    1.1541    3.7124    0.3950  1.3419E+00     -0.1260  3.0425E+01
  409.2536    3.0000    2.7995    2.7995    2.1100    1.1575    3.7120    0.3955  1.3575E+00     -0.1260  2.9905E+01
  409.2839    3.0000    2.7995    2.7995    2.1155    1.1609    3.7117    0.3959  1.3733E+00     -0.1260  2.9394E+01
  409.3140    3.0000    2.7995    2.7995    2.1209    1.1643    3.7114    0.3964  1.3891E+00     -0.1260  2.8892E+01
  409.3437    3.0000    2.7995    2.7995    2.1264    1.1677    3.7110    0.3968  1.4050E+00     -0.1260  2.8399E+01
  409.3732    3.0000    2.7995    2.7995    2.1319    1.1711    3.7107    0.3972  1.4210E+00     -0.1260  2.7916E+01
  409.4023    3.0000    2.7995    2.7995    2.1373    1.1745    3.7103    0.3977  1.4370E+00     -0.1260  2.7440E+01
  409.4312    3.0000    2.7995    2.7995    2.1428    1.1779    3.7100    0.3981  1.4531E+00     -0.1260  2.6974E+01
  409.4597    3.0000    2.7995    2.7995    2.1482    1.1814    3.7096    0.3985  1.4693E+00     -0.1260  2.6516E+01
  409.4880    3.0000    2.7995    2.7995    2.1537    1.1848    3.7093    0.3989  1.4855E+00     -0.1260  2.6066E+01
  409.5160    3.0000    2.7995    2.7995    2.1591    1.1882    3.7090    0.3993  1.5018E+00     -0.1260  2.5623E+01
  409.5437    3.0000    2.7995    2.7995    2.1646    1.1916    3.7086    0.3997  1.5181E+00     -0.1260  2.5189E+01
  409.5712    3.0000    2.7995    2.7995    2.1701    1.1950    3.7083    0.4001  1.5345E+00     -0.1260  2.4763E+01
  409.5984    3.0000    2.7995    2.7995    2.1755    1.1985    3.7079    0.4005  1.5509E+00     -0.1260  2.4344E+01
  409.6252    3.0000    2.7995    2.7994    2.1810    1.2019    3.7076    0.4009  1.5674E+00     -0.1260  2.3933E+01
  409.6519    3.0000    2.7995    2.7994    2.1864    1.2053    3.7072    0.4013  1.5839E+00     -0.1260  2.3529E+01
  409.6783    3.0000    2.7995    2.7994    2.1919    1.2088    3.7069    0.4017  1.6004E+00     -0.1260  2.3132E+01
  409.7043    3.0000    2.7995    2.7994    2.1973    1.2122    3.7065    0.4021  1.6170E+00     -0.1260  2.2742E+01
  409.7302    3.0000    2.7995    2.7994    2.2028    1.2156    3.7062    0.4025  1.6336E+00     -0.1260  2.2359E+01
  409.7558    3.0000    2.7995    2.7994    2.2082    1.2191    3.7058    0.4028  1.6502E+00     -0.1260  2.1983E+01
  409.7811    3.0000    2.7995    2.7994    2.2137    1.2225    3.7054    0.4032  1.6669E+00     -0.1260  2.1613E+01
  409.8062    3.0000    2.7995    2.7994    2.2192    1.2259    3.7051    0.4036  1.6835E+00     -0.1260  2.1250E+01
  409.8310    3.0000    2.7995    2.7994    2.2246    1.2294    3.7047    0.4040  1.7002E+00     -0.1260  2.0893E+01
  409.8555    3.0000    2.7995    2.7994    2.2301    1.2328    3.7044    0.4043  1.7168E+00     -0.1260  2.0543E+01
  409.8799    3.0000    2.7995    2.7994    2.2355    1.2363    3.7040    0.4047  1.7335E+00     -0.1260  2.0199E+01
  409.9040    3.0000    2.7995    2.7994    2.2410    1.2397    3.7037    0.4050  1.7501E+00     -0.1260  1.9860E+01
  409.9278    3.0000    2.7995    2.7994    2.2464    1.2432    3.7033    0.4054  1.7668E+00     -0.1260  1.9528E+01
  409.9514    3.0000    2.7995    2.7994    2.2519    1.2466    3.7029    0.4057  1.7834E+00     -0.1260  1.9202E+01
  409.9748    3.0000    2.7995    2.7994    2.2573    1.2501    3.7026    0.4061  1.8000E+00     -0.1260  1.8881E+01
  409.9979    3.0000    2.7995    2.7994    2.2628    1.2535    3.7022    0.4064  1.8166E+00     -0.1260  1.8566E+01
  410.0208    3.0000    2.7995    2.7994    2.2683    1.2570    3.7018    0.4067  1.8331E+00     -0.1260  1.8256E+01
  410.0435    3.0000    2.7995    2.7994    2.2737    1.2604    3.7015    0.4071  1.8496E+00     -0.1260  1.7952E+01
  410.0659    3.0000    2.7995    2.7994    2.2792    1.2639    3.7011    0.4074  1.8661E+00     -0.1260  1.7653E+01
  410.0881    3.0000    2.7995    2.7994    2.2846    1.2674    3.7007    0.4077  1.8824E+00     -0.1260  1.7359E+01
  410.1101    3.0000    2.7995    2.7993    2.2901    1.2708    3.7004    0.4081  1.8988E+00     -0.1260  1.7070E+01
  410.1319    3.0000    2.7995    2.7993    2.2955    1.2743    3.7000    0.4084  1.9150E+00     -0.1260  1.6786E+01
  410.1535    3.0000    2.7995    2.7993    2.3010    1.2778    3.6996    0.4087  1.9312E+00     -0.1260  1.6507E+01
  410.1748    3.0000    2.7995    2.7993    2.3065    1.2812    3.6993    0.4090  1.9473E+00     -0.1260  1.6233E+01
  410.1960    3.0000    2.7995    2.7993    2.3119    1.2847    3.6989    0.4093  1.9633E+00     -0.1260  1.5964E+01
  410.2169    3.0000    2.7995    2.7993    2.3174    1.2882    3.6985    0.4096  1.9791E+00     -0.1260  1.5700E+01
  410.2376    3.0000    2.7995    2.7993    2.3228    1.2916    3.6982    0.4099  1.9949E+00     -0.1260  1.5439E+01
  410.2581    3.0000    2.7995    2.7993    2.3283    1.2951    3.6978    0.4102  2.0105E+00     -0.1260  1.5184E+01
  410.2784    3.0000    2.7995    2.7993    2.3337    1.2986    3.6974    0.4105  2.0260E+00     -0.1260  1.4933E+01
  410.2985    3.0000    2.7995    2.7993    2.3392    1.3021    3.6970    0.4108  2.0414E+00     -0.1260  1.4686E+01
  410.3184    3.0000    2.7995    2.7993    2.3446    1.3056    3.6967    0.4111  2.0566E+00     -0.1260  1.4443E+01
  410.3381    3.0000    2.7995    2.7993    2.3501    1.3090    3.6963    0.4114  2.0717E+00     -0.1260  1.4205E+01
  410.3576    3.0000    2.7995    2.7993    2.3556    1.3125    3.6959    0.4117  2.0865E+00     -0.1260  1.3970E+01
  410.3769    3.0000    2.7995    2.7993    2.3610    1.3160    3.6955    0.4120  2.1012E+00     -0.1260  1.3740E+01
  410.3960    3.0000    2.7995    2.7993    2.3665    1.3195    3.6951    0.4123  2.1157E+00     -0.1260  1.3513E+01
  410.4149    3.0000    2.7995    2.7993    2.3719    1.3230    3.6948    0.4125  2.1300E+00     -0.1260  1.3291E+01
  410.4337    3.0000    2.7995    2.7992    2.3774    1.3265    3.6944    0.4128  2.1440E+00     -0.1260  1.3072E+01
  410.4522    3.0000    2.7995    2.7992    2.3828    1.3300    3.6940    0.4131  2.1578E+00     -0.1260  1.2857E+01
  410.4706    3.0000    2.7995    2.7992    2.3883    1.3335    3.6936    0.4134  2.1714E+00     -0.1260  1.2645E+01
  410.4887    3.0000    2.7995    2.7992    2.3937    1.3370    3.6932    0.4136  2.1846E+00     -0.1260  1.2438E+01
  410.5067    3.0000    2.7995    2.7992    2.3992    1.3405    3.6928    0.4139  2.1977E+00     -0.1260  1.2233E+01
  410.5245    3.0000    2.7995    2.7992    2.4047    1.3440    3.6924    0.4141  2.2104E+00     -0.1260  1.2032E+01
  410.5422    3.0000    2.7995    2.7992    2.4101    1.3475    3.6921    0.4144  2.2228E+00     -0.1260  1.1835E+01
  410.5596    3.0000    2.7995    2.7992    2.4156    1.3510    3.6917    0.4147  2.2349E+00     -0.1260  1.1641E+01
  410.5769    3.0000    2.7995    2.7992    2.4210    1.3545    3.6913    0.4149  2.2466E+00     -0.1260  1.1450E+01
  410.5940    3.0000    2.7995    2.7992    2.4265    1.3580    3.6909    0.4152  2.2580E+00     -0.1260  1.1262E+01
  410.6110    3.0000    2.7995    2.7992    2.4319    1.3615    3.6905    0.4154  2.2690E+00     -0.1260  1.1078E+01
  410.6277    3.0000    2.7995    2.7992    2.4374    1.3650    3.6901    0.4157  2.2796E+00     -0.1260  1.0897E+01
  410.6443    3.0000    2.7995    2.7992    2.4429    1.3685    3.6897    0.4159  2.2898E+00     -0.1260  1.0718E+01
  410.6608    3.0000    2.7995    2.7992    2.4483    1.3720    3.6893    0.4161  2.2996E+00     -0.1260  1.0543E+01
  410.6771    3.0000    2.7995    2.7991    2.4538    1.3756    3.6889    0.4164  2.3089E+00     -0.1260  1.0371E+01
  410.6932    3.0000    2.7995    2.7991    2.4592    1.3791    3.6885    0.4166  2.3177E+00     -0.1260  1.0201E+01
  410.7091    3.0000    2.7995    2.7991    2.4647    1.3826    3.6881    0.4169  2.3261E+00     -0.1260  1.0035E+01
  410.7249    3.0000    2.7995    2.7991    2.4701    1.3861    3.6877    0.4171  2.3339E+00     -0.1260  9.8710E+00
  410.7405    3.0000    2.7995    2.7991    2.4756    1.3896    3.6874    0.4173  2.3412E+00     -0.1260  9.7100E+00
  410.7560    3.0000    2.7995    2.7991    2.4810    1.3932    3.6870    0.4175  2.3480E+00     -0.1260  9.5517E+00
  410.7713    3.0000    2.7995    2.7991    2.4865    1.3967    3.6866    0.4178  2.3542E+00     -0.1260  9.3960E+00
  410.7865    3.0000    2.7995    2.7991    2.4920    1.4002    3.6862    0.4180  2.3597E+00     -0.1260  9.2429E+00
  410.8015    3.0000    2.7995    2.7991    2.4974    1.4037    3.6858    0.4182  2.3646E+00     -0.1260  9.0923E+00
  410.8164    3.0000    2.7995    2.7991    2.5029    1.4073    3.6854    0.4184  2.3689E+00     -0.1260  8.9443E+00
  410.8311    3.0000    2.7995    2.7991    2.5083    1.4108    3.6850    0.4187  2.3725E+00     -0.1260  8.7988E+00
  410.8457    3.0000    2.7995    2.7991    2.5138    1.4143    3.6845    0.4189  2.3754E+00     -0.1260  8.6557E+00
  410.8601    3.0000    2.7995    2.7990    2.5192    1.4179    3.6841    0.4191  2.3775E+00     -0.1260  8.5149E+00
  410.8744    3.0000    2.7995    2.7990    2.5247    1.4214    3.6837    0.4193  2.3789E+00     -0.1260  8.3765E+00
  410.8885    3.0000    2.7995    2.7990    2.5301    1.4249    3.6833    0.4195  2.3794E+00     -0.1260  8.2404E+00
  410.9025    3.0000    2.7995    2.7990    2.5356    1.4285    3.6829    0.4197  2.3793E+00     -0.1260  8.1066E+00
  410.9164    3.0000    2.7995    2.7990    2.5411    1.4320    3.6825    0.4199  2.3791E+00     -0.1260  7.9750E+00
  410.9301    3.0000    2.7995    2.7990    2.5465    1.4356    3.6821    0.4201  2.3789E+00     -0.1260  7.8455E+00
  410.9437    3.0000    2.7995    2.7990    2.5520    1.4391    3.6817    0.4203  2.3787E+00     -0.1260  7.7182E+00
  410.9571    3.0000    2.7995    2.7990    2.5574    1.4427    3.6813    0.4205  2.3785E+00     -0.1260  7.5930E+00
  410.9704    3.0000    2.7995    2.7990    2.5629    1.4462    3.6809    0.4207  2.3783E+00     -0.1260  7.4699E+00
  410.9836    3.0000    2.7995    2.7990    2.5683    1.4498    3.6805    0.4209  2.3781E+00     -0.1260  7.3489E+00
  410.9966    3.0000    2.7995    2.7990    2.5738    1.4533    3.6801    0.4211  2.3779E+00     -0.1260  7.2298E+00
  411.0096    3.0000    2.7995    2.7989    2.5793    1.4569    3.6797    0.4213  2.3777E+00     -0.1260  7.1127E+00
  411.0223    3.0000    2.7995    2.7989    2.5847    1.4604    3.6792    0.4215  2.3775E+00     -0.1260  6.9975E+00
  411.0350    3.0000    2.7995    2.7989    2.5902    1.4640    3.6788    0.4217  2.3773E+00     -0.1260  6.8842E+00
  411.0475    3.0000    2.7995    2.7989    2.5956    1.4675    3.6784    0.4218  2.3771E+00     -0.1260  6.7728E+00
  411.0599    3.0000    2.7995    2.7989    2.6011    1.4711    3.6780    0.4220  2.3769E+00     -0.1260  6.6632E+00
  411.0722    3.0000    2.7995    2.7989    2.6065    1.4747    3.6776    0.4222  2.3767E+00     -0.1260  6.5555E+00
  411.0844    3.0000    2.7995    2.7989    2.6120    1.4782    3.6772    0.4224  2.3765E+00     -0.1260  6.4495E+00
  411.0964    3.0000    2.7995    2.7989    2.6174    1.4818    3.6767    0.4226  2.3763E+00     -0.1260  6.3452E+00
  411.1083    3.0000    2.7995    2.7989    2.6229    1.4853    3.6763    0.4227  2.3761E+00     -0.1260  6.2427E+00
  411.1201    3.0000    2.7995    2.7989    2.6284    1.4889    3.6759    0.4229  2.3760E+00     -0.1260  6.1418E+00
  411.1318    3.0000    2.7995    2.7988    2.6338    1.4925    3.6755    0.4231  2.3758E+00     -0.1260  6.0426E+00
  411.1434    3.0000    2.7995    2.7988    2.6393    1.4961    3.6751    0.4232  2.3756E+00     -0.1260  5.9450E+00
  411.1548    3.0000    2.7995    2.7988    2.6447    1.4996    3.6746    0.4234  2.3754E+00     -0.1260  5.8491E+00
  411.1661    3.0000    2.7995    2.7988    2.6502    1.5032    3.6742    0.4236  2.3752E+00     -0.1260  5.7547E+00
  411.1774    3.0000    2.7995    2.7988    2.6556    1.5068    3.6738    0.4237  2.3751E+00     -0.1260  5.6618E+00
  411.1885    3.0000    2.7995    2.7988    2.6611    1.5103    3.6734    0.4239  2.3749E+00     -0.1260  5.5705E+00
  411.1995    3.0000    2.7995    2.7988    2.6665    1.5139    3.6729    0.4241  2.3747E+00     -0.1260  5.4806E+00
  411.2104    3.0000    2.7995    2.7988    2.6720    1.5175    3.6725    0.4242  2.3745E+00     -0.1260  5.3922E+00
  411.2211    3.0000    2.7995    2.7988    2.6775    1.5211    3.6721    0.4244  2.3744E+00     -0.1260  5.3053E+00
  411.2318    3.0000    2.7995    2.7987    2.6829    1.5247    3.6717    0.4245  2.3742E+00     -0.1260  5.2198E+00
  411.2424    3.0000    2.7995    2.7987    2.6884    1.5283    3.6712    0.4247  2.3740E+00     -0.1260  5.1357E+00
  411.2528    3.0000    2.7995    2.7987    2.6938    1.5318    3.6708    0.4249  2.3739E+00     -0.1260  5.0529E+00
  411.2632    3.0000    2.7995    2.7987    2.6993    1.5354    3.6704    0.4250  2.3737E+00     -0.1260  4.9715E+00
  411.2734    3.0000    2.7995    2.7987    2.7047    1.5390    3.6699    0.4252  2.3735E+00     -0.1260  4.8914E+00
  411.2836    3.0000    2.7995    2.7987    2.7102    1.5426    3.6695    0.4253  2.3734E+00     -0.1260  4.8127E+00
  411.2936    3.0000    2.7995    2.7987    2.7157    1.5462    3.6691    0.4255  2.3732E+00     -0.1260  4.7352E+00
  411.3036    3.0000    2.7995    2.7987    2.7211    1.5498    3.6687    0.4256  2.3731E+00     -0.1260  4.6589E+00
  411.3134    3.0000    2.7995    2.7986    2.7266    1.5534    3.6682    0.4257  2.3729E+00     -0.1260  4.5839E+00
  411.3232    3.0000    2.7995    2.7986    2.7320    1.5570    3.6678    0.4259  2.3727E+00     -0.1260  4.5102E+00
  411.3328    3.0000    2.7995    2.7986    2.7375    1.5606    3.6674    0.4260  2.3726E+00     -0.1260  4.4376E+00
  411.3328    4.0000    2.7995    2.7986    2.7375    1.5606    3.6673    0.4260  2.3726E+00     -0.1260  4.4376E+00
  412.0852    4.0000    2.7995    2.7975    2.6738    1.5188    3.6723    0.4281  2.3694E+00     -0.1260  5.3617E+00
  412.8934    4.0000    2.7995    2.7966    2.6102    1.4772    3.6772    0.4304  2.3663E+00     -0.1260  6.4818E+00
  413.8406    4.0000    2.7995    2.7958    2.5419    1.4328    3.6824    0.4330  2.3628E+00     -0.1260  7.9577E+00
  414.7879    4.0000    2.7995    2.7952    2.4799    1.3927    3.6869    0.4356  2.3596E+00     -0.1260  9.5970E+00
  415.7351    4.0000    2.7995    2.7947    2.4239    1.3566    3.6909    0.4382  2.3564E+00     -0.1260  1.1378E+01
  416.6823    4.0000    2.7995    2.7943    2.3737    1.3244    3.6945    0.4409  2.3534E+00     -0.1260  1.3270E+01
  417.6295    4.0000    2.7995    2.7939    2.3288    1.2958    3.6976    0.4435  2.3504E+00     -0.1260  1.5238E+01
  418.5768    4.0000    2.7995    2.7936    2.2891    1.2706    3.7003    0.4461  2.3475E+00     -0.1260  1.7237E+01
  419.5240    4.0000    2.7995    2.7934    2.2542    1.2484    3.7026    0.4487  2.3446E+00     -0.1260  1.9225E+01
  420.4712    4.0000    2.7995    2.7932    2.2237    1.2292    3.7046    0.4514  2.3418E+00     -0.1260  2.1157E+01
  421.4184    4.0000    2.7995    2.7930    2.1974    1.2126    3.7063    0.4540  2.3390E+00     -0.1260  2.2991E+01
  422.3656    4.0000    2.7995    2.7928    2.1750    1.1986    3.7077    0.4566  2.3362E+00     -0.1260  2.4691E+01
  423.3129    4.0000    2.7995    2.7926    2.1562    1.1868    3.7089    0.4592  2.3334E+00     -0.1260  2.6227E+01
  424.2601    4.0000    2.7995    2.7925    2.1406    1.1770    3.7099    0.4619  2.3306E+00     -0.1260  2.7579E+01
  425.2073    4.0000    2.7995    2.7924    2.1280    1.1691    3.7107    0.4645  2.3279E+00     -0.1260  2.8734E+01
  426.1545    4.0000    2.7995    2.7922    2.1179    1.1629    3.7113    0.4671  2.3251E+00     -0.1260  2.9690E+01
  427.1017    4.0000    2.7995    2.7921    2.1103    1.1581    3.7118    0.4698  2.3223E+00     -0.1260  3.0453E+01
  428.0490    4.0000    2.7995    2.7920    2.1046    1.1546    3.7121    0.4724  2.3196E+00     -0.1260  3.1036E+01
  428.9962    4.0000    2.7995    2.7918    2.1007    1.1521    3.7124    0.4750  2.3168E+00     -0.1260  3.1458E+01
  429.9434    4.0000    2.7995    2.7917    2.0981    1.1505    3.7125    0.4776  2.3141E+00     -0.1260  3.1743E+01
  430.8907    4.0000    2.7995    2.7916    2.0967    1.1496    3.7126    0.4803  2.3113E+00     -0.1260  3.1919E+01
  431.8379    4.0000    2.7995    2.7915    2.0960    1.1492    3.7127    0.4829  2.3086E+00     -0.1260  3.2016E+01
  432.7851    4.0000    2.7995    2.7914    2.0958    1.1491    3.7127    0.4855  2.3058E+00     -0.1260  3.2064E+01
  433.7323    4.0000    2.7995    2.7912    2.0959    1.1491    3.7127    0.4881  2.1477E+00     -0.1260  3.3259E+01
  434.6795    4.0000    2.7995    2.7911    2.0964    1.1491    3.7128    0.4908  1.8329E+00     -0.1260  3.6038E+01
  435.6268    4.0000    2.7995    2.7910    2.0972    1.1491    3.7130    0.4934  1.5611E+00     -0.1260  3.9036E+01
  436.5740    4.0000    2.7995    2.7909    2.0982    1.1492    3.7132    0.4960  1.3267E+00     -0.1260  4.2264E+01
  437.5212    4.0000    2.7995    2.7908    2.0995    1.1492    3.7136    0.4986  1.1252E+00     -0.1260  4.5732E+01
  438.4684    4.0000    2.7995    2.7906    2.1011    1.1493    3.7139    0.5013  9.5234E-01     -0.1260  4.9446E+01
  439.4156    4.0000    2.7995    2.7905    2.1028    1.1493    3.7143    0.5039  8.0436E-01     -0.1260  5.3412E+01
  440.3629    4.0000    2.7995    2.7904    2.1047    1.1494    3.7147    0.5065  6.7799E-01     -0.1260  5.7631E+01
  441.3101    4.0000    2.7995    2.7903    2.1068    1.1496    3.7152    0.5092  5.7033E-01     -0.1260  6.2103E+01
  442.2573    4.0000    2.7995    2.7902    2.1091    1.1497    3.7157    0.5118  4.7883E-01     -0.1260  6.6820E+01
  443.2046    4.0000    2.7995    2.7900    2.1116    1.1499    3.7162    0.5144  4.0124E-01     -0.1260  7.1772E+01
  444.1518    4.0000    2.7995    2.7899    2.1142    1.1501    3.7168    0.5170  3.3561E-01     -0.1260  7.6943E+01
  445.0990    4.0000    2.7995    2.7898    2.1170    1.1504    3.7173    0.5197  2.8022E-01     -0.1260  8.2312E+01
  446.0462    4.0000    2.7995    2.7897    2.1199    1.1507    3.7179    0.5223  2.3360E-01     -0.1260  8.7849E+01
  446.9934    4.0000    2.7995    2.7895    2.1231    1.1511    3.7185    0.5249  1.9443E-01     -0.1260  9.3522E+01
  447.9407    4.0000    2.7995    2.7894    2.1263    1.1515    3.7191    0.5275  1.6161E-01     -0.1260  9.9292E+01
  448.8879    4.0000    2.7995    2.7893    2.1297    1.1520    3.7197    0.5302  1.3417E-01     -0.1260  1.0511E+02
  449.8351    4.0000    2.7995    2.7891    2.1333    1.1525    3.7203    0.5328  1.1127E-01     -0.1260  1.1094E+02
  450.7823    4.0000    2.7995    2.7890    2.1370    1.1531    3.7209    0.5354  9.2214E-02     -0.1260  1.1672E+02
  451.7296    4.0000    2.7995    2.7889    2.1408    1.1538    3.7216    0.5380  7.6381E-02     -0.1260  1.2239E+02
  452.6768    4.0000    2.7995    2.7888    2.1448    1.1546    3.7222    0.5407  6.3254E-02     -0.1260  1.2791E+02
  453.6240    4.0000    2.7995    2.7886    2.1489    1.1554    3.7228    0.5433  5.2390E-02     -0.1260  1.3323E+02
  454.5712    4.0000    2.7995    2.7885    2.1531    1.1563    3.7234    0.5459  4.3416E-02     -0.1260  1.3829E+02
  455.5184    4.0000    2.7995    2.7883    2.1575    1.1573    3.7240    0.5486  3.6013E-02     -0.1260  1.4306E+02
  456.4657    4.0000    2.7995    2.7882    2.1620    1.1584    3.7246    0.5512  2.9917E-02     -0.1260  1.4749E+02
  457.4129    4.0000    2.7995    2.7881    2.1667    1.1595    3.7252    0.5538  2.4903E-02     -0.1260  1.5154E+02
  458.3601    4.0000    2.7995    2.7879    2.1714    1.1608    3.7257    0.5564  2.0784E-02     -0.1260  1.5520E+02
  459.3073    4.0000    2.7995    2.7878    2.1763    1.1621    3.7263    0.5591  1.7403E-02     -0.1260  1.5845E+02
  460.2545    4.0000    2.7995    2.7876    2.1813    1.1636    3.7268    0.5617  1.4631E-02     -0.1260  1.6127E+02
  461.2018    4.0000    2.7995    2.7875    2.1864    1.1652    3.7273    0.5643  1.2361E-02     -0.1260  1.6365E+02
  462.1490    4.0000    2.7995    2.7873    2.1917    1.1668    3.7278    0.5669  1.0502E-02     -0.1260  1.6561E+02
  463.0962    4.0000    2.7995    2.7872    2.1971    1.1686    3.7282    0.5696  8.9825E-03     -0.1260  1.6713E+02
  464.0435    4.0000    2.7995    2.7870    2.2026    1.1705    3.7287    0.5722  7.7413E-03     -0.1260  1.6824E+02
  464.9907    4.0000    2.7995    2.7868    2.2082    1.1725    3.7290    0.5748  6.7294E-03     -0.1260  1.6894E+02
  465.9379    4.0000    2.7995    2.7867    2.2139    1.1747    3.7294    0.5774  5.9067E-03     -0.1260  1.6924E+02
  466.8851    4.0000    2.7995    2.7865    2.2197    1.1770    3.7297    0.5801  5.2406E-03     -0.1260  1.6917E+02
  467.8323    4.0000    2.7995    2.7863    2.2257    1.1794    3.7300    0.5827  4.7050E-03     -0.1260  1.6874E+02
  468.7796    4.0000    2.7995    2.7862    2.2318    1.1819    3.7303    0.5853  4.2790E-03     -0.1260  1.6796E+02
  469.7268    4.0000    2.7995    2.7860    2.2379    1.1846    3.7305    0.5879  3.9461E-03     -0.1260  1.6685E+02
  470.6740    4.0000    2.7995    2.7858    2.2442    1.1874    3.7306    0.5906  3.6937E-03     -0.1260  1.6543E+02
  471.6212    4.0000    2.7995    2.7856    2.2506    1.1904    3.7307    0.5932  3.5123E-03     -0.1260  1.6370E+02
  472.5685    4.0000    2.7995    2.7854    2.2571    1.1935    3.7308    0.5958  3.3954E-03     -0.1260  1.6168E+02
  473.5157    4.0000    2.7995    2.7853    2.2638    1.1968    3.7308    0.5985  3.3391E-03     -0.1260  1.5938E+02
  474.4629    4.0000    2.7995    2.7851    2.2705    1.2002    3.7308    0.6011  3.3420E-03     -0.1260  1.5681E+02
  475.4101    4.0000    2.7995    2.7849    2.2773    1.2038    3.7307    0.6037  3.4052E-03     -0.1260  1.5397E+02
  476.3574    4.0000    2.7995    2.7846    2.2843    1.2076    3.7305    0.6063  3.5327E-03     -0.1260  1.5087E+02
  477.3046    4.0000    2.7995    2.7844    2.2913    1.2115    3.7303    0.6090  3.7311E-03     -0.1260  1.4752E+02
  478.2518    4.0000    2.7995    2.7842    2.2985    1.2156    3.7301    0.6116  4.0109E-03     -0.1260  1.4390E+02
  479.1990    4.0000    2.7995    2.7840    2.3057    1.2199    3.7297    0.6142  4.3866E-03     -0.1260  1.4003E+02
  480.1462    4.0000    2.7995    2.7838    2.3131    1.2244    3.7294    0.6168  4.8781E-03     -0.1260  1.3591E+02
  481.0935    4.0000    2.7995    2.7835    2.3205    1.2290    3.7289    0.6195  5.5117E-03     -0.1260  1.3153E+02
  482.0407    4.0000    2.7995    2.7833    2.3281    1.2338    3.7284    0.6221  6.3222E-03     -0.1260  1.2690E+02
  482.9879    4.0000    2.7995    2.7830    2.3357    1.2389    3.7278    0.6247  7.3554E-03     -0.1260  1.2202E+02
  483.9351    4.0000    2.7995    2.7828    2.3435    1.2441    3.7271    0.6273  8.6708E-03     -0.1260  1.1689E+02
  484.8824    4.0000    2.7995    2.7825    2.3513    1.2495    3.7264    0.6300  1.0346E-02     -0.1260  1.1152E+02
  485.8296    4.0000    2.7995    2.7823    2.3593    1.2551    3.7255    0.6326  1.2482E-02     -0.1260  1.0592E+02
  486.7768    4.0000    2.7995    2.7820    2.3673    1.2609    3.7246    0.6352  1.5211E-02     -0.1260  1.0012E+02
  487.7240    4.0000    2.7995    2.7817    2.3755    1.2670    3.7237    0.6379  1.8703E-02     -0.1260  9.4140E+01
  488.6712    4.0000    2.7995    2.7814    2.3837    1.2732    3.7226    0.6405  2.3180E-02     -0.1260  8.8014E+01
  489.6185    4.0000    2.7995    2.7811    2.3921    1.2797    3.7215    0.6431  2.8931E-02     -0.1260  8.1787E+01
  490.5657    4.0000    2.7995    2.7808    2.4005    1.2864    3.7202    0.6457  3.6329E-02     -0.1260  7.5509E+01
  491.5129    4.0000    2.7995    2.7804    2.4090    1.2933    3.7189    0.6484  4.5859E-02     -0.1260  6.9240E+01
  492.4601    4.0000    2.7995    2.7801    2.4177    1.3004    3.7175    0.6510  5.8146E-02     -0.1260  6.3041E+01
  493.4073    4.0000    2.7995    2.7797    2.4264    1.3078    3.7160    0.6536  7.4002E-02     -0.1260  5.6980E+01
  494.3546    4.0000    2.7995    2.7794    2.4352    1.3154    3.7144    0.6562  9.4471E-02     -0.1260  5.1120E+01
  495.3018    4.0000    2.7995    2.7790    2.4441    1.3232    3.7127    0.6589  1.2090E-01     -0.1260  4.5521E+01
  496.2490    4.0000    2.7995    2.7786    2.4531    1.3313    3.7109    0.6615  1.5502E-01     -0.1260  4.0237E+01
  497.1963    4.0000    2.7995    2.7782    2.4622    1.3397    3.7090    0.6641  1.9907E-01     -0.1260  3.5310E+01
  498.1435    4.0000    2.7995    2.7777    2.4713    1.3483    3.7070    0.6667  2.5590E-01     -0.1260  3.0770E+01
  499.0907    4.0000    2.7995    2.7773    2.4806    1.3571    3.7049    0.6694  3.2916E-01     -0.1260  2.6636E+01
  500.0379    4.0000    2.7995    2.7768    2.4899    1.3662    3.7027    0.6720  4.2354E-01     -0.1260  2.2913E+01
  500.9851    4.0000    2.7995    2.7763    2.4994    1.3756    3.7003    0.6746  5.4501E-01     -0.1260  1.9594E+01
  501.9324    4.0000    2.7995    2.7758    2.5089    1.3852    3.6979    0.6773  7.0117E-01     -0.1260  1.6666E+01
  502.8796    4.0000    2.7995    2.7753    2.5185    1.3951    3.6953    0.6799  9.0170E-01     -0.1260  1.4105E+01
  503.8268    4.0000    2.7995    2.7747    2.5282    1.4053    3.6927    0.6825  1.1589E+00     -0.1260  1.1884E+01
  504.7740    4.0000    2.7995    2.7741    2.5380    1.4157    3.6899    0.6851  1.4883E+00     -0.1260  9.9714E+00
  505.7213    4.0000    2.7995    2.7735    2.5478    1.4265    3.6870    0.6878  1.9097E+00     -0.1260  8.3360E+00
  506.0551    5.0000    2.7995    2.7733    2.5513    1.4303    3.6859    0.6887  2.0846E+00     -0.1260  7.8198E+00
  506.1210    5.0000    2.7995    2.7732    2.5623    1.4374    3.6852    0.6887  2.0846E+00     -0.1260  7.5685E+00
  506.1856    5.0000    2.7995    2.7732    2.5732    1.4444    3.6844    0.6887  2.0845E+00     -0.1260  7.3254E+00
  506.2489    5.0000    2.7995    2.7731    2.5842    1.4515    3.6836    0.6887  2.0845E+00     -0.1260  7.0903E+00
  506.3109    5.0000    2.7995    2.7731    2.5952    1.4585    3.6828    0.6887  2.0844E+00     -0.1260  6.8629E+00
  506.3717    5.0000    2.7995    2.7730    2.6061    1.4656    3.6820    0.6887  2.0844E+00     -0.1260  6.6429E+00
  506.4313    5.0000    2.7995    2.7730    2.6171    1.4727    3.6812    0.6887  2.0843E+00     -0.1260  6.4302E+00
  506.4897    5.0000    2.7995    2.7729    2.6281    1.4798    3.6804    0.6887  2.0843E+00     -0.1260  6.2243E+00
  506.5469    5.0000    2.7995    2.7729    2.6390    1.4869    3.6796    0.6887  2.0842E+00     -0.1260  6.0252E+00
  506.6030    5.0000    2.7995    2.7728    2.6500    1.4940    3.6788    0.6887  2.0842E+00     -0.1260  5.8325E+00
  506.6579    5.0000    2.7995    2.7728    2.6610    1.5011    3.6780    0.6887  2.0841E+00     -0.1260  5.6461E+00
  506.7118    5.0000    2.7995    2.7727    2.6720    1.5082    3.6772    0.6887  2.0840E+00     -0.1260  5.4657E+00
  506.7646    5.0000    2.7995    2.7727    2.6829    1.5153    3.6764    0.6887  2.0840E+00     -0.1260  5.2912E+00
  506.8163    5.0000    2.7995    2.7726    2.6939    1.5224    3.6755    0.6887  2.0839E+00     -0.1260  5.1223E+00
  506.8669    5.0000    2.7995    2.7725    2.7049    1.5295    3.6747    0.6887  2.0839E+00     -0.1260  4.9589E+00
  506.9166    5.0000    2.7995    2.7725    2.7158    1.5367    3.6739    0.6887  2.0838E+00     -0.1260  4.8008E+00
  506.9653    5.0000    2.7995    2.7724    2.7268    1.5438    3.6731    0.6887  2.0837E+00     -0.1260  4.6477E+00
  507.0130    5.0000    2.7995    2.7724    2.7378    1.5510    3.6722    0.6887  2.0837E+00     -0.1260  4.4996E+00
  507.0598    5.0000    2.7995    2.7723    2.7487    1.5581    3.6714    0.6887  2.0836E+00     -0.1260  4.3563E+00
  507.1056    5.0000    2.7995    2.7722    2.7597    1.5653    3.6706    0.6887  2.0835E+00     -0.1260  4.2175E+00
  507.1505    5.0000    2.7995    2.7722    2.7707    1.5724    3.6697    0.6887  2.0835E+00     -0.1260  4.0833E+00
  507.1945    5.0000    2.7995    2.7721    2.7816    1.5796    3.6689    0.6887  2.0834E+00     -0.1260  3.9533E+00
  507.2376    5.0000    2.7995    2.7720    2.7926    1.5868    3.6680    0.6887  2.0833E+00     -0.1260  3.8275E+00
  507.2798    5.0000    2.7995    2.7719    2.8036    1.5939    3.6672    0.6887  2.0833E+00     -0.1260  3.7057E+00
  507.3213    5.0000    2.7995    2.7719    2.8145    1.6011    3.6663    0.6887  2.0832E+00     -0.1260  3.5878E+00
  507.3618    5.0000    2.7995    2.7718    2.8255    1.6083    3.6655    0.6887  2.0831E+00     -0.1260  3.4737E+00
  507.4016    5.0000    2.7995    2.7717    2.8365    1.6155    3.6646    0.6887  2.0830E+00     -0.1260  3.3632E+00
  507.4406    5.0000    2.7995    2.7716    2.8474    1.6227    3.6638    0.6887  2.0830E+00     -0.1260  3.2563E+00
  507.4788    5.0000    2.7995    2.7716    2.8584    1.6299    3.6629    0.6887  2.0829E+00     -0.1260  3.1528E+00
  507.5162    5.0000    2.7995    2.7715    2.8694    1.6371    3.6620    0.6887  2.0828E+00     -0.1260  3.0525E+00
  507.5529    5.0000    2.7995    2.7714    2.8803    1.6444    3.6612    0.6887  2.0827E+00     -0.1260  2.9555E+00
  507.5889    5.0000    2.7995    2.7713    2.8913    1.6516    3.6603    0.6887  2.0826E+00     -0.1260  2.8616E+00
  507.6241    5.0000    2.7995    2.7712    2.9023    1.6588    3.6594    0.6887  2.0825E+00     -0.1260  2.7706E+00
  507.6586    5.0000    2.7995    2.7711    2.9132    1.6661    3.6585    0.6887  2.0824E+00     -0.1260  2.6825E+00
  507.6925    5.0000    2.7995    2.7710    2.9242    1.6733    3.6577    0.6887  2.0823E+00     -0.1260  2.5973E+00
  507.7256    5.0000    2.7995    2.7709    2.9352    1.6805    3.6568    0.6887  2.0823E+00     -0.1260  2.5147E+00
  507.7581    5.0000    2.7995    2.7708    2.9461    1.6878    3.6559    0.6887  2.0822E+00     -0.1260  2.4347E+00
  507.7900    5.0000    2.7995    2.7707    2.9571    1.6951    3.6550    0.6887  2.0821E+00     -0.1260  2.3573E+00
  507.8212    5.0000    2.7995    2.7706    2.9681    1.7023    3.6541    0.6887  2.0820E+00     -0.1260  2.2824E+00
  507.8518    5.0000    2.7995    2.7705    2.9790    1.7096    3.6532    0.6887  2.0819E+00     -0.1260  2.2098E+00
  507.8817    5.0000    2.7995    2.7704    2.9900    1.7169    3.6523    0.6887  2.0817E+00     -0.1260  2.1395E+00
  507.9111    5.0000    2.7995    2.7703    3.0010    1.7241    3.6514    0.6887  2.0816E+00     -0.1260  2.0715E+00
  507.9399    5.0000    2.7995    2.7702    3.0119    1.7314    3.6505    0.6887  2.0815E+00     -0.1260  2.0056E+00
  507.9681    5.0000    2.7995    2.7701    3.0229    1.7387    3.6496    0.6887  2.0814E+00     -0.1260  1.9417E+00
  507.9958    5.0000    2.7995    2.7700    3.0339    1.7460    3.6487    0.6887  2.0813E+00     -0.1260  1.8799E+00
  508.0229    5.0000    2.7995    2.7699    3.0448    1.7533    3.6478    0.6887  2.0812E+00     -0.1260  1.8201E+00
  508.0494    5.0000    2.7995    2.7697    3.0558    1.7606    3.6469    0.6887  2.0811E+00     -0.1260  1.7621E+00
  508.0754    5.0000    2.7995    2.7696    3.0668    1.7679    3.6460    0.6887  2.0809E+00     -0.1260  1.7060E+00
  508.1010    5.0000    2.7995    2.7695    3.0777    1.7752    3.6451    0.6887  2.0808E+00     -0.1260  1.6516E+00
  508.1259    5.0000    2.7995    2.7694    3.0887    1.7826    3.6442    0.6887  2.0807E+00     -0.1260  1.5990E+00
  508.1504    5.0000    2.7995    2.7692    3.0997    1.7899    3.6432    0.6887  2.0806E+00     -0.1260  1.5480E+00
  508.1744    5.0000    2.7995    2.7691    3.1106    1.7972    3.6423    0.6887  2.0804E+00     -0.1260  1.4986E+00
  508.1979    5.0000    2.7995    2.7690    3.1216    1.8045    3.6414    0.6887  2.0803E+00     -0.1260  1.4508E+00
  508.2210    5.0000    2.7995    2.7688    3.1326    1.8119    3.6405    0.6887  2.0801E+00     -0.1260  1.4045E+00
  508.2436    5.0000    2.7995    2.7687    3.1436    1.8192    3.6395    0.6887  2.0800E+00     -0.1260  1.3596E+00
  508.2657    5.0000    2.7995    2.7685    3.1545    1.8266    3.6386    0.6887  2.0798E+00     -0.1260  1.3162E+00
  508.2874    5.0000    2.7995    2.7684    3.1655    1.8339    3.6377    0.6887  2.0797E+00     -0.1260  1.2741E+00
  508.3087    5.0000    2.7995    2.7682    3.1765    1.8413    3.6367    0.6887  2.0795E+00     -0.1260  1.2333E+00
  508.3295    5.0000    2.7995    2.7681    3.1874    1.8487    3.6358    0.6887  2.0794E+00     -0.1260  1.1938E+00
  508.3499    5.0000    2.7995    2.7679    3.1984    1.8560    3.6349    0.6887  2.0792E+00     -0.1260  1.1556E+00
  508.3700    5.0000    2.7995    2.7677    3.2094    1.8634    3.6339    0.6887  2.0791E+00     -0.1260  1.1186E+00
  508.3896    5.0000    2.7995    2.7676    3.2203    1.8708    3.6330    0.6887  2.0789E+00     -0.1260  1.0827E+00
  508.4088    5.0000    2.7995    2.7674    3.2313    1.8782    3.6320    0.6887  2.0787E+00     -0.1260  1.0480E+00
  508.4276    5.0000    2.7995    2.7672    3.2423    1.8855    3.6311    0.6887  2.0785E+00     -0.1260  1.0143E+00
  508.4461    5.0000    2.7995    2.7671    3.2532    1.8929    3.6301    0.6887  2.0784E+00     -0.1260  9.8173E-01
  508.4642    5.0000    2.7995    2.7669    3.2642    1.9003    3.6292    0.6887  2.0782E+00     -0.1260  9.5016E-01
  508.4819    5.0000    2.7995    2.7667    3.2752    1.9077    3.6282    0.6887  2.0780E+00     -0.1260  9.1958E-01
  508.4993    5.0000    2.7995    2.7665    3.2861    1.9151    3.6272    0.6887  2.0778E+00     -0.1260  8.8996E-01
  508.5163    5.0000    2.7995    2.7663    3.2971    1.9225    3.6263    0.6887  2.0776E+00     -0.1260  8.6126E-01
  508.5330    5.0000    2.7995    2.7661    3.3081    1.9300    3.6253    0.6887  2.0774E+00     -0.1260  8.3347E-01
  508.5493    5.0000    2.7995    2.7659    3.3190    1.9374    3.6243    0.6887  2.0772E+00     -0.1260  8.0655E-01
  508.5653    5.0000    2.7995    2.7657    3.3300    1.9448    3.6234    0.6887  2.0770E+00     -0.1260  7.8047E-01
  508.5811    5.0000    2.7995    2.7655    3.3410    1.9522    3.6224    0.6887  2.0768E+00     -0.1260  7.5521E-01
  508.5964    5.0000    2.7995    2.7653    3.3519    1.9597    3.6214    0.6887  2.0766E+00     -0.1260  7.3074E-01
  508.6115    5.0000    2.7995    2.7650    3.3629    1.9671    3.6204    0.6887  2.0763E+00     -0.1260  7.0703E-01
  508.6263    5.0000    2.7995    2.7648    3.3739    1.9745    3.6195    0.6887  2.0761E+00     -0.1260  6.8407E-01
  508.6408    5.0000    2.7995    2.7646    3.3848    1.9820    3.6185    0.6887  2.0759E+00     -0.1260  6.6182E-01
  508.6550    5.0000    2.7995    2.7643    3.3958    1.9894    3.6175    0.6887  2.0756E+00     -0.1260  6.4027E-01
  508.6689    5.0000    2.7995    2.7641    3.4068    1.9969    3.6165    0.6887  2.0754E+00     -0.1260  6.1940E-01
  508.6825    5.0000    2.7995    2.7638    3.4177    2.0044    3.6155    0.6887  2.0751E+00     -0.1260  5.9917E-01
  508.6959    5.0000    2.7995    2.7636    3.4287    2.0118    3.6145    0.6887  2.0749E+00     -0.1260  5.7958E-01
  508.7090    5.0000    2.7995    2.7633    3.4397    2.0193    3.6135    0.6887  2.0746E+00     -0.1260  5.6060E-01
  508.7218    5.0000    2.7995    2.7630    3.4506    2.0268    3.6126    0.6887  2.0744E+00     -0.1260  5.4221E-01
  508.7344    5.0000    2.7995    2.7628    3.4616    2.0342    3.6116    0.6887  2.0741E+00     -0.1260  5.2440E-01
  508.7467    5.0000    2.7995    2.7625    3.4726    2.0417    3.6106    0.6887  2.0738E+00     -0.1260  5.0714E-01
  508.7588    5.0000    2.7995    2.7622    3.4835    2.0492    3.6096    0.6887  2.0735E+00     -0.1260  4.9041E-01
  508.7706    5.0000    2.7995    2.7619    3.4945    2.0567    3.6086    0.6887  2.0732E+00     -0.1260  4.7421E-01
  508.7822    5.0000    2.7995    2.7616    3.5055    2.0642    3.6076    0.6887  2.0729E+00     -0.1260  4.5852E-01
  508.7936    5.0000    2.7995    2.7613    3.5164    2.0717    3.6065    0.6887  2.0726E+00     -0.1260  4.4331E-01
  508.8047    5.0000    2.7995    2.7610    3.5274    2.0792    3.6055    0.6887  2.0723E+00     -0.1260  4.2857E-01
  508.8156    5.0000    2.7995    2.7607    3.5384    2.0867    3.6045    0.6887  2.0720E+00     -0.1260  4.1429E-01
  508.8263    5.0000    2.7995    2.7604    3.5493    2.0942    3.6035    0.6887  2.0717E+00     -0.1260  4.0046E-01
  508.8368    5.0000    2.7995    2.7600    3.5603    2.1017    3.6025    0.6887  2.0713E+00     -0.1260  3.8705E-01
  508.8471    5.0000    2.7995    2.7597    3.5713    2.1092    3.6015    0.6887  2.0710E+00     -0.1260  3.7407E-01
  508.8571    5.0000    2.7995    2.7593    3.5822    2.1167    3.6005    0.6887  2.0706E+00     -0.1260  3.6148E-01
  508.8670    5.0000    2.7995    2.7590    3.5932    2.1243    3.5994    0.6887  2.0703E+00     -0.1260  3.4929E-01
  508.8767    5.0000    2.7995    2.7586    3.6042    2.1318    3.5984    0.6887  2.0699E+00     -0.1260  3.3747E-01
  508.8862    5.0000    2.7995    2.7582    3.6151    2.1393    3.5974    0.6887  2.0695E+00     -0.1260  3.2602E-01
  508.8954    5.0000    2.7995    2.7578    3.6261    2.1469    3.5964    0.6887  2.0692E+00     -0.1260  3.1492E-01
  508.9046    5.0000    2.7995    2.7575    3.6371    2.1544    3.5953    0.6887  2.0688E+00     -0.1260  3.0417E-01
  508.9135    5.0000    2.7995    2.7571    3.6481    2.1619    3.5943    0.6887  2.0684E+00     -0.1260  2.9374E-01
  508.9222    5.0000    2.7995    2.7566    3.6590    2.1695    3.5933    0.6887  2.0680E+00     -0.1260  2.8364E-01
  508.9308    5.0000    2.7995    2.7562    3.6700    2.1770    3.5922    0.6887  2.0675E+00     -0.1260  2.7386E-01
  508.9392    5.0000    2.7995    2.7558    3.6810    2.1846    3.5912    0.6887  2.0671E+00     -0.1260  2.6437E-01
  508.9474    5.0000    2.7995    2.7554    3.6919    2.1922    3.5902    0.6887  2.0667E+00     -0.1260  2.5518E-01
  508.9555    5.0000    2.7995    2.7549    3.7029    2.1997    3.5891    0.6887  2.0662E+00     -0.1260  2.4627E-01
  508.9634    5.0000    2.7995    2.7545    3.7139    2.2073    3.5881    0.6887  2.0658E+00     -0.1260  2.3764E-01
  508.9711    5.0000    2.7995    2.7540    3.7248    2.2149    3.5870    0.6887  2.0653E+00     -0.1260  2.2927E-01
  508.9787    5.0000    2.7995    2.7535    3.7358    2.2224    3.5860    0.6887  2.0648E+00     -0.1260  2.2116E-01
  508.9861    5.0000    2.7995    2.7530    3.7468    2.2300    3.5849    0.6887  2.0643E+00     -0.1260  2.1331E-01
  508.9934    5.0000    2.7995    2.7525    3.7577    2.2376    3.5839    0.6887  2.0638E+00     -0.1260  2.0569E-01
  509.0006    5.0000    2.7995    2.7520    3.7687    2.2452    3.5828    0.6887  2.0633E+00     -0.1260  1.9831E-01
  509.0076    5.0000    2.7995    2.7515    3.7797    2.2528    3.5818    0.6887  2.0628E+00     -0.1260  1.9116E-01
  509.0144    5.0000    2.7995    2.7509    3.7906    2.2604    3.5807    0.6887  2.0623E+00     -0.1260  1.8422E-01
  509.0211    5.0000    2.7995    2.7504    3.8016    2.2680    3.5797    0.6887  2.0617E+00     -0.1260  1.7751E-01
  509.0277    5.0000    2.7995    2.7498    3.8126    2.2756    3.5786    0.6887  2.0611E+00     -0.1260  1.7100E-01
  509.0342    5.0000    2.7995    2.7493    3.8235    2.2832    3.5776    0.6887  2.0606E+00     -0.1260  1.6469E-01
  509.0405    5.0000    2.7995    2.7487    3.8345    2.2908    3.5765    0.6887  2.0600E+00     -0.1260  1.5858E-01
  509.0467    5.0000    2.7995    2.7481    3.8455    2.2984    3.5754    0.6887  2.0594E+00     -0.1260  1.5266E-01
  509.0528    5.0000    2.7995    2.7474    3.8564    2.3060    3.5744    0.6887  2.0588E+00     -0.1260  1.4692E-01
  509.0587    5.0000    2.7995    2.7468    3.8674    2.3137    3.5733    0.6887  2.0581E+00     -0.1260  1.4137E-01
  509.0599    6.0000    2.7995    2.7467    3.8696    2.3152    3.5731    0.6887  2.0580E+00     -0.1260  1.4029E-01
  509.0649    6.0000    2.7995    2.7461    3.8710    2.3162    3.5729    0.6889  2.0572E+00     -0.1260  1.3944E-01
  509.0699    6.0000    2.7995    2.7456    3.8725    2.3173    3.5728    0.6892  2.0564E+00     -0.1260  1.3860E-01
  509.0749    6.0000    2.7995    2.7450    3.8740    2.3183    3.5726    0.6894  2.0556E+00     -0.1260  1.3775E-01
  509.0799    6.0000    2.7995    2.7444    3.8755    2.3194    3.5724    0.6897  2.0548E+00     -0.1260  1.3691E-01
  509.0849    6.0000    2.7995    2.7439    3.8770    2.3205    3.5723    0.6899  2.0539E+00     -0.1260  1.3606E-01
  509.0899    6.0000    2.7995    2.7433    3.8785    2.3215    3.5721    0.6902  2.0531E+00     -0.1260  1.3522E-01
  509.0949    6.0000    2.7995    2.7427    3.8800    2.3226    3.5720    0.6904  2.0523E+00     -0.1260  1.3438E-01
  509.0999    6.0000    2.7995    2.7421    3.8815    2.3237    3.5718    0.6907  2.0514E+00     -0.1260  1.3354E-01
  509.1049    6.0000    2.7995    2.7415    3.8831    2.3248    3.5716    0.6910  2.0506E+00     -0.1260  1.3271E-01
  509.1099    6.0000    2.7995    2.7410    3.8846    2.3259    3.5715    0.6912  2.0498E+00     -0.1260  1.3187E-01
  509.1149    6.0000    2.7995    2.7404    3.8861    2.3270    3.5713    0.6915  2.0489E+00     -0.1260  1.3104E-01
  509.1199    6.0000    2.7995    2.7398    3.8876    2.3280    3.5712    0.6917  2.0480E+00     -0.1260  1.3021E-01
  509.1249    6.0000    2.7995    2.7392    3.8892    2.3291    3.5710    0.6920  2.0472E+00     -0.1260  1.2938E-01
  509.1299    6.0000    2.7995    2.7386    3.8907    2.3302    3.5708    0.6922  2.0463E+00     -0.1260  1.2855E-01
  509.1349    6.0000    2.7995    2.7380    3.8923    2.3313    3.5707    0.6925  2.0455E+00     -0.1260  1.2772E-01
  509.1399    6.0000    2.7995    2.7374    3.8938    2.3324    3.5705    0.6928  2.0446E+00     -0.1260  1.2690E-01
  509.1449    6.0000    2.7995    2.7367    3.8954    2.3336    3.5703    0.6930  2.0437E+00     -0.1260  1.2608E-01
  509.1499    6.0000    2.7995    2.7361    3.8969    2.3347    3.5702    0.6933  2.0428E+00     -0.1260  1.2525E-01
  509.1549    6.0000    2.7995    2.7355    3.8985    2.3358    3.5700    0.6936  2.0419E+00     -0.1260  1.2444E-01
  509.1599    6.0000    2.7995    2.7349    3.9000    2.3369    3.5698    0.6938  2.0410E+00     -0.1260  1.2362E-01
  509.1649    6.0000    2.7995    2.7342    3.9016    2.3380    3.5697    0.6941  2.0401E+00     -0.1260  1.2280E-01
  509.1699    6.0000    2.7995    2.7336    3.9032    2.3392    3.5695    0.6944  2.0392E+00     -0.1260  1.2199E-01
  509.1749    6.0000    2.7995    2.7330    3.9048    2.3403    3.5693    0.6946  2.0383E+00     -0.1260  1.2118E-01
  509.1799    6.0000    2.7995    2.7323    3.9064    2.3414    3.5692    0.6949  2.0374E+00     -0.1260  1.2037E-01
  509.1849    6.0000    2.7995    2.7317    3.9079    2.3425    3.5690    0.6952  2.0365E+00     -0.1260  1.1956E-01
  509.1899    6.0000    2.7995    2.7310    3.9095    2.3437    3.5688    0.6954  2.0356E+00     -0.1260  1.1875E-01
  509.1949    6.0000    2.7995    2.7304    3.9111    2.3448    3.5686    0.6957  2.0346E+00     -0.1260  1.1794E-01
  509.1999    6.0000    2.7995    2.7297    3.9127    2.3460    3.5685    0.6960  2.0337E+00     -0.1260  1.1714E-01
  509.2049    6.0000    2.7995    2.7290    3.9144    2.3471    3.5683    0.6963  2.0328E+00     -0.1260  1.1634E-01
  509.2099    6.0000    2.7995    2.7284    3.9160    2.3483    3.5681    0.6965  2.0318E+00     -0.1260  1.1554E-01
  509.2149    6.0000    2.7995    2.7277    3.9176    2.3494    3.5679    0.6968  2.0309E+00     -0.1260  1.1474E-01
  509.2199    6.0000    2.7995    2.7270    3.9192    2.3506    3.5678    0.6971  2.0299E+00     -0.1260  1.1395E-01
  509.2249    6.0000    2.7995    2.7263    3.9208    2.3518    3.5676    0.6974  2.0290E+00     -0.1260  1.1315E-01
  509.2299    6.0000    2.7995    2.7256    3.9225    2.3529    3.5674    0.6977  2.0280E+00     -0.1260  1.1236E-01
  509.2349    6.0000    2.7995    2.7250    3.9241    2.3541    3.5672    0.6979  2.0270E+00     -0.1260  1.1157E-01
  509.2399    6.0000    2.7995    2.7243    3.9257    2.3553    3.5671    0.6982  2.0260E+00     -0.1260  1.1078E-01
  509.2449    6.0000    2.7995    2.7236    3.9274    2.3565    3.5669    0.6985  2.0251E+00     -0.1260  1.0999E-01
  509.2499    6.0000    2.7995    2.7229    3.9290    2.3576    3.5667    0.6988  2.0241E+00     -0.1260  1.0921E-01
  509.2549    6.0000    2.7995    2.7221    3.9307    2.3588    3.5665    0.6991  2.0231E+00     -0.1260  1.0843E-01
  509.2599    6.0000    2.7995    2.7214    3.9324    2.3600    3.5663    0.6994  2.0221E+00     -0.1260  1.0765E-01
  509.2649    6.0000    2.7995    2.7207    3.9340    2.3612    3.5662    0.6996  2.0211E+00     -0.1260  1.0687E-01
  509.2699    6.0000    2.7995    2.7200    3.9357    2.3624    3.5660    0.6999  2.0200E+00     -0.1260  1.0609E-01
  509.2749    6.0000    2.7995    2.7193    3.9374    2.3636    3.5658    0.7002  2.0190E+00     -0.1260  1.0531E-01
  509.2799    6.0000    2.7995    2.7185    3.9391    2.3648    3.5656    0.7005  2.0180E+00     -0.1260  1.0454E-01
  509.2849    6.0000    2.7995    2.7178    3.9407    2.3660    3.5654    0.7008  2.0170E+00     -0.1260  1.0377E-01
  509.2899    6.0000    2.7995    2.7170    3.9424    2.3673    3.5653    0.7011  2.0159E+00     -0.1260  1.0300E-01
  509.2949    6.0000    2.7995    2.7163    3.9441    2.3685    3.5651    0.7014  2.0149E+00     -0.1260  1.0223E-01
  509.2999    6.0000    2.7995    2.7155    3.9458    2.3697    3.5649    0.7017  2.0138E+00     -0.1260  1.0147E-01
  509.3049    6.0000    2.7995    2.7148    3.9476    2.3709    3.5647    0.7020  2.0128E+00     -0.1260  1.0070E-01
  509.3099    6.0000    2.7995    2.7140    3.9493    2.3722    3.5645    0.7023  2.0117E+00     -0.1260  9.9942E-02
  509.3149    6.0000    2.7995    2.7132    3.9510    2.3734    3.5643    0.7026  2.0106E+00     -0.1260  9.9183E-02
  509.3199    6.0000    2.7995    2.7124    3.9527    2.3746    3.5641    0.7029  2.0096E+00     -0.1260  9.8425E-02
  509.3249    6.0000    2.7995    2.7117    3.9544    2.3759    3.5639    0.7032  2.0085E+00     -0.1260  9.7669E-02
  509.3299    6.0000    2.7995    2.7109    3.9562    2.3771    3.5638    0.7035  2.0074E+00     -0.1260  9.6916E-02
  509.3349    6.0000    2.7995    2.7101    3.9579    2.3784    3.5636    0.7038  2.0063E+00     -0.1260  9.6164E-02
  509.3399    6.0000    2.7995    2.7093    3.9597    2.3796    3.5634    0.7041  2.0052E+00     -0.1260  9.5415E-02
  509.3449    6.0000    2.7995    2.7085    3.9614    2.3809    3.5632    0.7044  2.0041E+00     -0.1260  9.4667E-02
  509.3499    6.0000    2.7995    2.7077    3.9632    2.3822    3.5630    0.7047  2.0030E+00     -0.1260  9.3922E-02
  509.3549    6.0000    2.7995    2.7068    3.9649    2.3834    3.5628    0.7050  2.0018E+00     -0.1260  9.3178E-02
  509.3599    6.0000    2.7995    2.7060    3.9667    2.3847    3.5626    0.7053  2.0007E+00     -0.1260  9.2437E-02
  509.3649    6.0000    2.7995    2.7052    3.9685    2.3860    3.5624    0.7056  1.9995E+00     -0.1260  9.1698E-02
  509.3699    6.0000    2.7995    2.7043    3.9703    2.3873    3.5622    0.7059  1.9984E+00     -0.1260  9.0961E-02
  509.3749    6.0000    2.7995    2.7035    3.9721    2.3886    3.5620    0.7063  1.9972E+00     -0.1260  9.0226E-02
  509.3799    6.0000    2.7995    2.7027    3.9739    2.3898    3.5618    0.7066  1.9961E+00     -0.1260  8.9493E-02
  509.3849    6.0000    2.7995    2.7018    3.9757    2.3911    3.5616    0.7069  1.9949E+00     -0.1260  8.8762E-02
  509.3899    6.0000    2.7995    2.7009    3.9775    2.3924    3.5614    0.7072  1.9937E+00     -0.1260  8.8033E-02
  509.3949    6.0000    2.7995    2.7001    3.9793    2.3937    3.5612    0.7075  1.9925E+00     -0.1260  8.7306E-02
  509.3999    6.0000    2.7995    2.6992    3.9811    2.3951    3.5610    0.7079  1.9913E+00     -0.1260  8.6582E-02
  509.4049    6.0000    2.7995    2.6983    3.9829    2.3964    3.5608    0.7082  1.9901E+00     -0.1260  8.5860E-02
  509.4099    6.0000    2.7995    2.6974    3.9847    2.3977    3.5606    0.7085  1.9889E+00     -0.1260  8.5140E-02
  509.4149    6.0000    2.7995    2.6965    3.9866    2.3990    3.5604    0.7088  1.9877E+00     -0.1260  8.4422E-02
  509.4199    6.0000    2.7995    2.6956    3.9884    2.4003    3.5602    0.7091  1.9865E+00     -0.1260  8.3706E-02
  509.4249    6.0000    2.7995    2.6947    3.9903    2.4017    3.5600    0.7095  1.9853E+00     -0.1260  8.2992E-02
  509.4299    6.0000    2.7995    2.6938    3.9921    2.4030    3.5598    0.7098  1.9840E+00     -0.1260  8.2281E-02
  509.4349    6.0000    2.7995    2.6929    3.9940    2.4044    3.5596    0.7101  1.9828E+00     -0.1260  8.1572E-02
  509.4399    6.0000    2.7995    2.6920    3.9959    2.4057    3.5594    0.7105  1.9815E+00     -0.1260  8.0865E-02
  509.4449    6.0000    2.7995    2.6910    3.9977    2.4071    3.5592    0.7108  1.9802E+00     -0.1260  8.0161E-02
  509.4499    6.0000    2.7995    2.6901    3.9996    2.4084    3.5590    0.7111  1.9790E+00     -0.1260  7.9458E-02
  509.4549    6.0000    2.7995    2.6891    4.0015    2.4098    3.5587    0.7115  1.9777E+00     -0.1260  7.8758E-02
  509.4599    6.0000    2.7995    2.6882    4.0034    2.4112    3.5585    0.7118  1.9764E+00     -0.1260  7.8060E-02
  509.4649    6.0000    2.7995    2.6872    4.0053    2.4125    3.5583    0.7121  1.9751E+00     -0.1260  7.7365E-02
  509.4699    6.0000    2.7995    2.6862    4.0072    2.4139    3.5581    0.7125  1.9737E+00     -0.1260  7.6672E-02
  509.4749    6.0000    2.7995    2.6852    4.0091    2.4153    3.5579    0.7128  1.9724E+00     -0.1260  7.5981E-02
  509.4799    6.0000    2.7995    2.6843    4.0110    2.4167    3.5577    0.7132  1.9711E+00     -0.1260  7.5292E-02
  509.4849    6.0000    2.7995    2.6833    4.0130    2.4181    3.5575    0.7135  1.9698E+00     -0.1260  7.4606E-02
  509.4899    6.0000    2.7995    2.6823    4.0149    2.4195    3.5573    0.7139  1.9684E+00     -0.1260  7.3922E-02
  509.4949    6.0000    2.7995    2.6812    4.0168    2.4209    3.5570    0.7142  1.9670E+00     -0.1260  7.3241E-02
  509.4999    6.0000    2.7995    2.6802    4.0188    2.4223    3.5568    0.7146  1.9657E+00     -0.1260  7.2562E-02
  509.5049    6.0000    2.7995    2.6792    4.0207    2.4237    3.5566    0.7149  1.9643E+00     -0.1260  7.1885E-02
  509.5099    6.0000    2.7995    2.6782    4.0227    2.4251    3.5564    0.7153  1.9629E+00     -0.1260  7.1211E-02
  509.5149    6.0000    2.7995    2.6771    4.0247    2.4266    3.5562    0.7156  1.9615E+00     -0.1260  7.0539E-02
  509.5199    6.0000    2.7995    2.6761    4.0267    2.4280    3.5559    0.7160  1.9601E+00     -0.1260  6.9869E-02
  509.5249    6.0000    2.7995    2.6750    4.0286    2.4294    3.5557    0.7163  1.9587E+00     -0.1260  6.9202E-02
  509.5299    6.0000    2.7995    2.6739    4.0306    2.4309    3.5555    0.7167  1.9572E+00     -0.1260  6.8538E-02
  509.5349    6.0000    2.7995    2.6728    4.0326    2.4323    3.5553    0.7170  1.9558E+00     -0.1260  6.7876E-02
  509.5399    6.0000    2.7995    2.6717    4.0346    2.4338    3.5550    0.7174  1.9543E+00     -0.1260  6.7216E-02
  509.5449    6.0000    2.7995    2.6706    4.0366    2.4353    3.5548    0.7178  1.9529E+00     -0.1260  6.6559E-02
  509.5499    6.0000    2.7995    2.6695    4.0387    2.4367    3.5546    0.7181  1.9514E+00     -0.1260  6.5904E-02
  509.5549    6.0000    2.7995    2.6684    4.0407    2.4382    3.5543    0.7185  1.9499E+00     -0.1260  6.5252E-02
  509.5599    6.0000    2.7995    2.6673    4.0427    2.4397    3.5541    0.7189  1.9484E+00     -0.1260  6.4603E-02
  509.5649    6.0000    2.7995    2.6661    4.0448    2.4412    3.5539    0.7192  1.9469E+00     -0.1260  6.3956E-02
  509.5699    6.0000    2.7995    2.6650    4.0468    2.4426    3.5537    0.7196  1.9454E+00     -0.1260  6.3311E-02
  509.5749    6.0000    2.7995    2.6638    4.0489    2.4441    3.5534    0.7200  1.9438E+00     -0.1260  6.2670E-02
  509.5799    6.0000    2.7995    2.6627    4.0510    2.4457    3.5532    0.7204  1.9423E+00     -0.1260  6.2030E-02
  509.5849    6.0000    2.7995    2.6615    4.0530    2.4472    3.5529    0.7207  1.9407E+00     -0.1260  6.1394E-02
  509.5899    6.0000    2.7995    2.6603    4.0551    2.4487    3.5527    0.7211  1.9392E+00     -0.1260  6.0760E-02
  509.5949    6.0000    2.7995    2.6591    4.0572    2.4502    3.5525    0.7215  1.9376E+00     -0.1260  6.0128E-02
  509.5999    6.0000    2.7995    2.6579    4.0593    2.4517    3.5522    0.7219  1.9360E+00     -0.1260  5.9500E-02
  509.6049    6.0000    2.7995    2.6567    4.0614    2.4533    3.5520    0.7223  1.9344E+00     -0.1260  5.8874E-02
  509.6099    6.0000    2.7995    2.6554    4.0635    2.4548    3.5517    0.7227  1.9328E+00     -0.1260  5.8251E-02
  509.6149    6.0000    2.7995    2.6542    4.0656    2.4564    3.5515    0.7231  1.9311E+00     -0.1260  5.7630E-02
  509.6199    6.0000    2.7995    2.6529    4.0678    2.4579    3.5513    0.7234  1.9295E+00     -0.1260  5.7012E-02
  509.6249    6.0000    2.7995    2.6517    4.0699    2.4595    3.5510    0.7238  1.9278E+00     -0.1260  5.6397E-02
  509.6299    6.0000    2.7995    2.6504    4.0721    2.4610    3.5508    0.7242  1.9262E+00     -0.1260  5.5784E-02
  509.6349    6.0000    2.7995    2.6491    4.0742    2.4626    3.5505    0.7246  1.9245E+00     -0.1260  5.5175E-02
  509.6399    6.0000    2.7995    2.6478    4.0764    2.4642    3.5503    0.7250  1.9228E+00     -0.1260  5.4568E-02
  509.6449    6.0000    2.7995    2.6465    4.0786    2.4658    3.5500    0.7254  1.9211E+00     -0.1260  5.3964E-02
  509.6499    6.0000    2.7995    2.6452    4.0807    2.4674    3.5498    0.7258  1.9194E+00     -0.1260  5.3363E-02
  509.6549    6.0000    2.7995    2.6438    4.0829    2.4690    3.5495    0.7262  1.9176E+00     -0.1260  5.2764E-02
  509.6599    6.0000    2.7995    2.6425    4.0851    2.4706    3.5493    0.7266  1.9159E+00     -0.1260  5.2169E-02
  509.6649    6.0000    2.7995    2.6411    4.0874    2.4722    3.5490    0.7270  1.9141E+00     -0.1260  5.1576E-02
  509.6699    6.0000    2.7995    2.6398    4.0896    2.4738    3.5487    0.7275  1.9123E+00     -0.1260  5.0986E-02
  509.6749    6.0000    2.7995    2.6384    4.0918    2.4755    3.5485    0.7279  1.9105E+00     -0.1260  5.0399E-02
  509.6799    6.0000    2.7995    2.6370    4.0940    2.4771    3.5482    0.7283  1.9087E+00     -0.1260  4.9815E-02
  509.6849    6.0000    2.7995    2.6356    4.0963    2.4787    3.5480    0.7287  1.9069E+00     -0.1260  4.9234E-02
  509.6899    6.0000    2.7995    2.6341    4.0985    2.4804    3.5477    0.7291  1.9050E+00     -0.1260  4.8656E-02
  509.6949    6.0000    2.7995    2.6327    4.1008    2.4821    3.5474    0.7295  1.9032E+00     -0.1260  4.8081E-02
  509.6999    6.0000    2.7995    2.6312    4.1031    2.4837    3.5472    0.7300  1.9013E+00     -0.1260  4.7508E-02
  509.7049    6.0000    2.7995    2.6298    4.1054    2.4854    3.5469    0.7304  1.8994E+00     -0.1260  4.6939E-02
  509.7099    6.0000    2.7995    2.6283    4.1077    2.4871    3.5466    0.7308  1.8975E+00     -0.1260  4.6373E-02
  509.7149    6.0000    2.7995    2.6268    4.1100    2.4888    3.5464    0.7313  1.8955E+00     -0.1260  4.5810E-02
  509.7199    6.0000    2.7995    2.6253    4.1123    2.4905    3.5461    0.7317  1.8936E+00     -0.1260  4.5250E-02
  509.7249    6.0000    2.7995    2.6238    4.1146    2.4922    3.5458    0.7321  1.8916E+00     -0.1260  4.4693E-02
  509.7299    6.0000    2.7995    2.6222    4.1169    2.4939    3.5456    0.7326  1.8897E+00     -0.1260  4.4139E-02
  509.7349    6.0000    2.7995    2.6207    4.1193    2.4956    3.5453    0.7330  1.8877E+00     -0.1260  4.3588E-02
  509.7399    6.0000    2.7995    2.6191    4.1216    2.4973    3.5450    0.7334  1.8856E+00     -0.1260  4.3040E-02
  509.7449    6.0000    2.7995    2.6175    4.1240    2.4991    3.5447    0.7339  1.8836E+00     -0.1260  4.2495E-02
  509.7499    6.0000    2.7995    2.6159    4.1264    2.5008    3.5444    0.7343  1.8816E+00     -0.1260  4.1954E-02
  509.7549    6.0000    2.7995    2.6143    4.1288    2.5026    3.5442    0.7348  1.8795E+00     -0.1260  4.1415E-02
  509.7599    6.0000    2.7995    2.6126    4.1312    2.5043    3.5439    0.7352  1.8774E+00     -0.1260  4.0880E-02
  509.7649    6.0000    2.7995    2.6110    4.1336    2.5061    3.5436    0.7357  1.8753E+00     -0.1260  4.0348E-02
  509.7699    6.0000    2.7995    2.6093    4.1360    2.5079    3.5433    0.7362  1.8732E+00     -0.1260  3.9820E-02
  509.7749    6.0000    2.7995    2.6076    4.1384    2.5097    3.5430    0.7366  1.8710E+00     -0.1260  3.9294E-02
  509.7799    6.0000    2.7995    2.6059    4.1408    2.5115    3.5427    0.7371  1.8689E+00     -0.1260  3.8772E-02
  509.7849    6.0000    2.7995    2.6042    4.1433    2.5133    3.5424    0.7375  1.8667E+00     -0.1260  3.8253E-02
  509.7899    6.0000    2.7995    2.6025    4.1457    2.5151    3.5422    0.7380  1.8645E+00     -0.1260  3.7737E-02
  509.7949    6.0000    2.7995    2.6007    4.1482    2.5169    3.5419    0.7385  1.8622E+00     -0.1260  3.7225E-02
  509.7999    6.0000    2.7995    2.5989    4.1507    2.5188    3.5416    0.7390  1.8600E+00     -0.1260  3.6716E-02
  509.8049    6.0000    2.7995    2.5971    4.1532    2.5206    3.5413    0.7394  1.8577E+00     -0.1260  3.6210E-02
  509.8099    6.0000    2.7995    2.5953    4.1557    2.5225    3.5410    0.7399  1.8554E+00     -0.1260  3.5707E-02
  509.8149    6.0000    2.7995    2.5935    4.1582    2.5243    3.5407    0.7404  1.8531E+00     -0.1260  3.5208E-02
  509.8199    6.0000    2.7995    2.5916    4.1608    2.5262    3.5404    0.7409  1.8507E+00     -0.1260  3.4713E-02
  509.8249    6.0000    2.7995    2.5897    4.1633    2.5281    3.5400    0.7414  1.8484E+00     -0.1260  3.4221E-02
  509.8299    6.0000    2.7995    2.5878    4.1658    2.5300    3.5397    0.7418  1.8460E+00     -0.1260  3.3732E-02
  509.8349    6.0000    2.7995    2.5859    4.1684    2.5319    3.5394    0.7423  1.8436E+00     -0.1260  3.3246E-02
  509.8399    6.0000    2.7995    2.5840    4.1710    2.5338    3.5391    0.7428  1.8411E+00     -0.1260  3.2765E-02
  509.8449    6.0000    2.7995    2.5820    4.1736    2.5357    3.5388    0.7433  1.8387E+00     -0.1260  3.2286E-02
  509.8499    6.0000    2.7995    2.5800    4.1762    2.5376    3.5385    0.7438  1.8362E+00     -0.1260  3.1811E-02
  509.8549    6.0000    2.7995    2.5780    4.1788    2.5396    3.5382    0.7443  1.8337E+00     -0.1260  3.1340E-02
  509.8599    6.0000    2.7995    2.5760    4.1814    2.5415    3.5379    0.7448  1.8312E+00     -0.1260  3.0872E-02
  509.8649    6.0000    2.7995    2.5740    4.1841    2.5435    3.5375    0.7454  1.8286E+00     -0.1260  3.0407E-02
  509.8699    6.0000    2.7995    2.5719    4.1867    2.5455    3.5372    0.7459  1.8260E+00     -0.1260  2.9947E-02
  509.8749    6.0000    2.7995    2.5698    4.1894    2.5475    3.5369    0.7464  1.8234E+00     -0.1260  2.9489E-02
  509.8799    6.0000    2.7995    2.5677    4.1921    2.5495    3.5366    0.7469  1.8207E+00     -0.1260  2.9036E-02
  509.8849    6.0000    2.7995    2.5655    4.1948    2.5515    3.5362    0.7474  1.8181E+00     -0.1260  2.8586E-02
  509.8899    6.0000    2.7995    2.5633    4.1975    2.5535    3.5359    0.7480  1.8154E+00     -0.1260  2.8139E-02
  509.8949    6.0000    2.7995    2.5611    4.2002    2.5555    3.5356    0.7485  1.8127E+00     -0.1260  2.7696E-02
  509.8999    6.0000    2.7995    2.5589    4.2029    2.5575    3.5352    0.7490  1.8099E+00     -0.1260  2.7257E-02
  509.9049    6.0000    2.7995    2.5567    4.2057    2.5596    3.5349    0.7496  1.8071E+00     -0.1260  2.6822E-02
  509.9099    6.0000    2.7995    2.5544    4.2084    2.5617    3.5345    0.7501  1.8043E+00     -0.1260  2.6390E-02
  509.9149    6.0000    2.7995    2.5521    4.2112    2.5637    3.5342    0.7506  1.8014E+00     -0.1260  2.5961E-02
  509.9199    6.0000    2.7995    2.5497    4.2140    2.5658    3.5339    0.7512  1.7986E+00     -0.1260  2.5537E-02
  509.9249    6.0000    2.7995    2.5474    4.2168    2.5679    3.5335    0.7517  1.7956E+00     -0.1260  2.5116E-02
  509.9299    6.0000    2.7995    2.5450    4.2196    2.5700    3.5332    0.7523  1.7927E+00     -0.1260  2.4699E-02
  509.9349    6.0000    2.7995    2.5426    4.2224    2.5721    3.5328    0.7529  1.7897E+00     -0.1260  2.4286E-02
  509.9399    6.0000    2.7995    2.5401    4.2253    2.5743    3.5325    0.7534  1.7867E+00     -0.1260  2.3876E-02
  509.9449    6.0000    2.7995    2.5376    4.2281    2.5764    3.5321    0.7540  1.7837E+00     -0.1260  2.3471E-02
  509.9499    6.0000    2.7995    2.5351    4.2310    2.5786    3.5317    0.7545  1.7806E+00     -0.1260  2.3068E-02
  509.9549    6.0000    2.7995    2.5326    4.2339    2.5808    3.5314    0.7551  1.7775E+00     -0.1260  2.2670E-02
  509.9599    6.0000    2.7995    2.5300    4.2368    2.5829    3.5310    0.7557  1.7743E+00     -0.1260  2.2276E-02
  509.9649    6.0000    2.7995    2.5274    4.2398    2.5851    3.5306    0.7563  1.7711E+00     -0.1260  2.1885E-02
  509.9699    6.0000    2.7995    2.5248    4.2427    2.5874    3.5303    0.7569  1.7679E+00     -0.1260  2.1498E-02
  509.9749    6.0000    2.7995    2.5221    4.2456    2.5896    3.5299    0.7575  1.7646E+00     -0.1260  2.1115E-02
  509.9799    6.0000    2.7995    2.5194    4.2486    2.5918    3.5295    0.7580  1.7613E+00     -0.1260  2.0736E-02
  509.9849    6.0000    2.7995    2.5166    4.2516    2.5941    3.5291    0.7586  1.7580E+00     -0.1260  2.0361E-02
  509.9899    6.0000    2.7995    2.5138    4.2546    2.5963    3.5288    0.7592  1.7546E+00     -0.1260  1.9990E-02
  509.9949    6.0000    2.7995    2.5110    4.2576    2.5986    3.5284    0.7598  1.7512E+00     -0.1260  1.9622E-02
  509.9999    6.0000    2.7995    2.5081    4.2607    2.6009    3.5280    0.7605  1.7477E+00     -0.1260  1.9258E-02
  510.0049    6.0000    2.7995    2.5052    4.2637    2.6032    3.5276    0.7611  1.7442E+00     -0.1260  1.8898E-02
  510.0099    6.0000    2.7995    2.5019    4.2668    2.6056    3.5272    0.7617  1.7403E+00     -0.1260  1.8530E-02
  510.0149    6.0000    2.7995    2.4981    4.2699    2.6080    3.5268    0.7623  1.7358E+00     -0.1260  1.8149E-02
  510.0199    6.0000    2.7995    2.4936    4.2730    2.6104    3.5263    0.7629  1.7307E+00     -0.1260  1.7753E-02
  510.0249    6.0000    2.7995    2.4884    4.2761    2.6129    3.5258    0.7636  1.7248E+00     -0.1260  1.7340E-02
  510.0299    6.0000    2.7995    2.4822    4.2793    2.6155    3.5253    0.7642  1.7180E+00     -0.1260  1.6906E-02
  510.0349    6.0000    2.7995    2.4749    4.2824    2.6181    3.5248    0.7648  1.7100E+00     -0.1260  1.6446E-02
  510.0399    6.0000    2.7995    2.4660    4.2856    2.6209    3.5242    0.7655  1.7005E+00     -0.1260  1.5952E-02
  510.0449    6.0000    2.7995    2.4552    4.2888    2.6238    3.5236    0.7661  1.6890E+00     -0.1260  1.5413E-02
  510.0499    6.0000    2.7995    2.4416    4.2920    2.6269    3.5229    0.7668  1.6748E+00     -0.1260  1.4815E-02
  510.0549    6.0000    2.7995    2.4241    4.2953    2.6302    3.5220    0.7674  1.6566E+00     -0.1260  1.4132E-02
  510.0599    6.0000    2.7995    2.4005    4.2985    2.6339    3.5210    0.7681  1.6324E+00     -0.1260  1.3323E-02
  510.0634    6.0000    2.7995    2.3765    4.3009    2.6370    3.5200    0.7686  1.6079E+00     -0.1260  1.2598E-02
  510.0660    6.0000    2.7995    2.3528    4.3025    2.6397    3.5191    0.7689  1.5838E+00     -0.1260  1.1951E-02
  510.0678    6.0000    2.7995    2.3292    4.3037    2.6420    3.5182    0.7692  1.5601E+00     -0.1260  1.1361E-02
  510.0692    6.0000    2.7995    2.3060    4.3046    2.6441    3.5174    0.7694  1.5366E+00     -0.1260  1.0818E-02
  510.0702    6.0000    2.7995    2.2829    4.3053    2.6460    3.5166    0.7695  1.5134E+00     -0.1260  1.0311E-02
  510.0710    6.0000    2.7995    2.2601    4.3059    2.6479    3.5158    0.7696  1.4905E+00     -0.1260  9.8353E-03
  510.0718    6.0000    2.7995    2.2375    4.3064    2.6498    3.5150    0.7697  1.4677E+00     -0.1260  9.3823E-03
  510.0727    6.0000    2.7995    2.2151    4.3069    2.6516    3.5142    0.7698  1.4453E+00     -0.1260  8.9513E-03
  510.0735    6.0000    2.7995    2.1929    4.3075    2.6535    3.5134    0.7699  1.4230E+00     -0.1260  8.5413E-03
  510.0742    6.0000    2.7995    2.1710    4.3080    2.6553    3.5126    0.7700  1.4010E+00     -0.1260  8.1511E-03
  510.0750    6.0000    2.7995    2.1493    4.3085    2.6572    3.5118    0.7702  1.3791E+00     -0.1260  7.7798E-03
  510.0758    6.0000    2.7995    2.1278    4.3090    2.6590    3.5110    0.7703  1.3575E+00     -0.1260  7.4265E-03
  510.0766    6.0000    2.7995    2.1065    4.3095    2.6608    3.5102    0.7704  1.3362E+00     -0.1260  7.0902E-03
  510.0773    6.0000    2.7995    2.0855    4.3101    2.6627    3.5094    0.7705  1.3150E+00     -0.1260  6.7701E-03
  510.0781    6.0000    2.7995    2.0646    4.3106    2.6645    3.5087    0.7706  1.2940E+00     -0.1260  6.4653E-03
  510.0788    6.0000    2.7995    2.0440    4.3111    2.6663    3.5079    0.7707  1.2733E+00     -0.1260  6.1752E-03
  510.0796    6.0000    2.7995    2.0235    4.3115    2.6681    3.5071    0.7708  1.2527E+00     -0.1260  5.8989E-03
  510.0803    6.0000    2.7995    2.0033    4.3120    2.6700    3.5063    0.7709  1.2324E+00     -0.1260  5.6358E-03
  510.0810    6.0000    2.7995    1.9833    4.3125    2.6718    3.5055    0.7710  1.2123E+00     -0.1260  5.3852E-03
  510.0817    6.0000    2.7995    1.9634    4.3130    2.6736    3.5047    0.7711  1.1924E+00     -0.1260  5.1466E-03
  510.0824    6.0000    2.7995    1.9438    4.3135    2.6754    3.5039    0.7712  1.1726E+00     -0.1260  4.9192E-03
  510.0831    6.0000    2.7995    1.9243    4.3139    2.6772    3.5031    0.7713  1.1531E+00     -0.1260  4.7025E-03
  510.0838    6.0000    2.7995    1.9051    4.3144    2.6789    3.5024    0.7714  1.1337E+00     -0.1260  4.4982E-03
  510.0845    6.0000    2.7995    1.8861    4.3148    2.6802    3.5019    0.7715  1.1146E+00     -0.1260  4.3107E-03
  510.0851    6.0000    2.7995    1.8672    4.3153    2.6815    3.5013    0.7715  1.0956E+00     -0.1260  4.1319E-03
  510.0858    6.0000    2.7995    1.8485    4.3157    2.6828    3.5008    0.7716  1.0769E+00     -0.1260  3.9614E-03
  510.0865    6.0000    2.7995    1.8300    4.3162    2.6841    3.5003    0.7717  1.0583E+00     -0.1260  3.7986E-03
  510.0871    6.0000    2.7995    1.8117    4.3166    2.6854    3.4997    0.7718  1.0399E+00     -0.1260  3.6434E-03
  510.0878    6.0000    2.7995    1.7936    4.3171    2.6866    3.4992    0.7719  1.0217E+00     -0.1260  3.4951E-03
  510.0884    6.0000    2.7995    1.7757    4.3175    2.6878    3.4987    0.7720  1.0037E+00     -0.1260  3.3536E-03
  510.0890    6.0000    2.7995    1.7579    4.3179    2.6890    3.4982    0.7721  9.8584E-01     -0.1260  3.2185E-03
  510.0897    6.0000    2.7995    1.7403    4.3183    2.6902    3.4977    0.7722  9.6818E-01     -0.1260  3.0894E-03
  510.0903    6.0000    2.7995    1.7229    4.3188    2.6914    3.4973    0.7723  9.5069E-01     -0.1260  2.9660E-03
  510.0909    6.0000    2.7995    1.7057    4.3192    2.6927    3.4967    0.7723  9.3337E-01     -0.1260  2.8469E-03
  510.0915    6.0000    2.7995    1.6887    4.3196    2.6940    3.4962    0.7724  9.0855E-01     -0.1260  2.7454E-03
  510.0921    6.0000    2.7995    1.6718    4.3200    2.6951    3.4957    0.7725  8.8107E-01     -0.1260  2.6542E-03
  510.0927    6.0000    2.7995    1.6551    4.3204    2.6963    3.4952    0.7726  8.5408E-01     -0.1260  2.5662E-03
  510.0932    6.0000    2.7995    1.6385    4.3208    2.6974    3.4948    0.7727  8.2758E-01     -0.1260  2.4812E-03
  510.0938    6.0000    2.7995    1.6221    4.3212    2.6985    3.4943    0.7728  8.0157E-01     -0.1260  2.3990E-03
  510.0944    6.0000    2.7995    1.6059    4.3216    2.6996    3.4939    0.7728  7.7603E-01     -0.1260  2.3195E-03
  510.0949    6.0000    2.7995    1.5898    4.3219    2.7006    3.4935    0.7729  7.5097E-01     -0.1260  2.2426E-03
  510.0955    6.0000    2.7995    1.5739    4.3223    2.7016    3.4930    0.7730  7.2639E-01     -0.1260  2.1683E-03
  510.0961    6.0000    2.7995    1.5582    4.3227    2.7026    3.4926    0.7731  7.0227E-01     -0.1260  2.0963E-03
  510.0966    6.0000    2.7995    1.5426    4.3231    2.7036    3.4923    0.7731  6.7862E-01     -0.1260  2.0266E-03
  510.0971    6.0000    2.7995    1.5272    4.3234    2.7045    3.4919    0.7732  6.5543E-01     -0.1260  1.9591E-03
  510.0977    6.0000    2.7995    1.5119    4.3238    2.7054    3.4915    0.7733  6.3270E-01     -0.1260  1.8937E-03
  510.0982    6.0000    2.7995    1.4968    4.3242    2.7063    3.4912    0.7734  6.1043E-01     -0.1260  1.8302E-03
  510.0987    6.0000    2.7995    1.4818    4.3245    2.7071    3.4908    0.7734  5.8860E-01     -0.1260  1.7687E-03
  510.0992    6.0000    2.7995    1.4670    4.3249    2.7080    3.4905    0.7735  5.6723E-01     -0.1260  1.7090E-03
  510.0998    6.0000    2.7995    1.4523    4.3252    2.7088    3.4902    0.7736  5.4630E-01     -0.1260  1.6510E-03
  510.1003    6.0000    2.7995    1.4378    4.3256    2.7096    3.4899    0.7737  5.2581E-01     -0.1260  1.5947E-03
  510.1008    6.0000    2.7995    1.4234    4.3259    2.7103    3.4896    0.7737  5.0577E-01     -0.1260  1.5400E-03
  510.1013    6.0000    2.7995    1.4092    4.3263    2.7110    3.4893    0.7738  4.8615E-01     -0.1260  1.4868E-03
  510.1017    6.0000    2.7995    1.3951    4.3266    2.7117    3.4891    0.7739  4.6698E-01     -0.1260  1.4350E-03
  510.1022    6.0000    2.7995    1.3812    4.3269    2.7124    3.4888    0.7739  4.4823E-01     -0.1260  1.3847E-03
  510.1027    6.0000    2.7995    1.3674    4.3273    2.7130    3.4886    0.7740  4.2991E-01     -0.1260  1.3356E-03
  510.1032    6.0000    2.7995    1.3537    4.3276    2.7137    3.4883    0.7741  4.1201E-01     -0.1260  1.2878E-03
  510.1036    6.0000    2.7995    1.3401    4.3279    2.7142    3.4881    0.7741  3.9454E-01     -0.1260  1.2411E-03
  510.1041    6.0000    2.7995    1.3267    4.3282    2.7148    3.4879    0.7742  3.7748E-01     -0.1260  1.1956E-03
  510.1046    6.0000    2.7995    1.3135    4.3285    2.7153    3.4877    0.7743  3.6085E-01     -0.1260  1.1512E-03
  510.1050    6.0000    2.7995    1.3003    4.3289    2.7158    3.4876    0.7743  3.4462E-01     -0.1260  1.1078E-03
  510.1055    6.0000    2.7995    1.2873    4.3292    2.7163    3.4874    0.7744  3.2881E-01     -0.1260  1.0654E-03
  510.1059    6.0000    2.7995    1.2745    4.3295    2.7167    3.4873    0.7745  3.1340E-01     -0.1260  1.0239E-03
  510.1064    6.0000    2.7995    1.2617    4.3298    2.7172    3.4871    0.7745  2.9840E-01     -0.1260  9.8332E-04
  510.1068    6.0000    2.7995    1.2491    4.3301    2.7175    3.4870    0.7746  2.8381E-01     -0.1260  9.4356E-04
  510.1072    6.0000    2.7995    1.2366    4.3304    2.7179    3.4869    0.7747  2.6961E-01     -0.1260  9.0461E-04
  510.1076    6.0000    2.7995    1.2242    4.3307    2.7182    3.4868    0.7747  2.5581E-01     -0.1260  8.6642E-04
  510.1081    6.0000    2.7995    1.2120    4.3310    2.7185    3.4868    0.7748  2.4241E-01     -0.1260  8.2895E-04
  510.1085    6.0000    2.7995    1.1999    4.3312    2.7187    3.4867    0.7748  2.2940E-01     -0.1260  7.9218E-04
  510.1089    6.0000    2.7995    1.1879    4.3315    2.7189    3.4867    0.7749  2.1679E-01     -0.1260  7.5606E-04
  510.1093    6.0000    2.7995    1.1760    4.3318    2.7191    3.4867    0.7750  2.0456E-01     -0.1260  7.2057E-04
  510.1097    6.0000    2.7995    1.1642    4.3321    2.7193    3.4867    0.7750  1.9272E-01     -0.1260  6.8569E-04
  510.1101    6.0000    2.7995    1.1526    4.3324    2.7194    3.4867    0.7751  1.8126E-01     -0.1260  6.5138E-04
  510.1105    6.0000    2.7995    1.1411    4.3326    2.7194    3.4867    0.7751  1.7019E-01     -0.1260  6.1763E-04
  510.1109    6.0000    2.7995    1.1297    4.3329    2.7194    3.4868    0.7752  1.5949E-01     -0.1260  5.8443E-04
  510.1113    6.0000    2.7995    1.1184    4.3332    2.7194    3.4869    0.7752  1.4917E-01     -0.1260  5.5174E-04
  510.1116    6.0000    2.7995    1.1072    4.3335    2.7194    3.4870    0.7753  1.3922E-01     -0.1260  5.1958E-04
  510.1120    6.0000    2.7995    1.0961    4.3337    2.7192    3.4871    0.7753  1.2965E-01     -0.1260  4.8792E-04
  510.1124    6.0000    2.7995    1.0852    4.3340    2.7191    3.4872    0.7754  1.2045E-01     -0.1260  4.5678E-04
  510.1128    6.0000    2.7995    1.0743    4.3342    2.7189    3.4874    0.7755  1.1161E-01     -0.1260  4.2614E-04
  510.1131    6.0000    2.7995    1.0636    4.3345    2.7186    3.4876    0.7755  1.0314E-01     -0.1260  3.9603E-04
  510.1135    6.0000    2.7995    1.0529    4.3347    2.7183    3.4878    0.7756  9.5031E-02     -0.1260  3.6646E-04
  510.1139    6.0000    2.7995    1.0424    4.3350    2.7179    3.4881    0.7756  8.7281E-02     -0.1260  3.3746E-04
  510.1142    6.0000    2.7995    1.0320    4.3352    2.7175    3.4883    0.7757  7.9888E-02     -0.1260  3.0905E-04
  510.1146    6.0000    2.7995    1.0216    4.3355    2.7170    3.4887    0.7757  7.2849E-02     -0.1260  2.8129E-04
  510.1149    6.0000    2.7995    1.0114    4.3357    2.7164    3.4890    0.7758  6.6161E-02     -0.1260  2.5421E-04
  510.1152    6.0000    2.7995    1.0013    4.3360    2.7158    3.4894    0.7758  5.9822E-02     -0.1260  2.2790E-04
  510.1156    6.0000    2.7995    0.9913    4.3362    2.7150    3.4898    0.7759  5.3827E-02     -0.1260  2.0242E-04
  510.1159    6.0000    2.7995    0.9814    4.3364    2.7142    3.4903    0.7759  4.8175E-02     -0.1260  1.7786E-04
  510.1162    6.0000    2.7995    0.9716    4.3367    2.7133    3.4908    0.7760  4.2861E-02     -0.1260  1.5433E-04
  510.1166    6.0000    2.7995    0.9619    4.3369    2.7123    3.4914    0.7760  3.7881E-02     -0.1260  1.3194E-04
  510.1169    6.0000    2.7995    0.9522    4.3371    2.7111    3.4920    0.7761  3.3233E-02     -0.1260  1.1084E-04
  510.1172    6.0000    2.7995    0.9427    4.3374    2.7098    3.4927    0.7761  2.8912E-02     -0.1260  9.1171E-05
  510.1176    6.0000    2.7995    0.9333    4.3376    2.7084    3.4934    0.7762  2.4913E-02     -0.1260  7.3086E-05
  510.1179    6.0000    2.7995    0.9240    4.3378    2.7068    3.4943    0.7762  2.1232E-02     -0.1260  5.6755E-05
  510.1182    6.0000    2.7995    0.9147    4.3380    2.7051    3.4952    0.7762  1.7864E-02     -0.1260  4.2340E-05
  510.1185    6.0000    2.7995    0.9056    4.3382    2.7031    3.4963    0.7763  1.4804E-02     -0.1260  2.9990E-05
  510.1188    6.0000    2.7995    0.8965    4.3384    2.7008    3.4975    0.7763  1.2045E-02     -0.1260  1.9823E-05
  510.1191    6.0000    2.7995    0.8876    4.3386    2.6982    3.4988    0.7764  9.5822E-03     -0.1260  1.1902E-05
  510.1194    6.0000    2.7995    0.8787    4.3388    2.6952    3.5004    0.7764  7.4093E-03     -0.1260  6.1985E-06
  510.1197    6.0000    2.7995    0.8699    4.3390    2.6917    3.5022    0.7765  5.5200E-03     -0.1260  2.5590E-06
  510.1200    6.0000    2.7995    0.8612    4.3392    2.6875    3.5043    0.7765  3.9089E-03     -0.1260  6.6601E-07
  510.1203    6.0000    2.7995    0.8526    4.3394    2.6823    3.5069    0.7766  2.5723E-03     -0.1260  2.1415E-08
  510.1206    6.0000    2.7995    0.8441    4.3395    2.6757    3.5103    0.7766  1.5096E-03     -0.1260  1.3146E-13
  510.1208    6.0000    2.7995    0.8356    4.3396    2.6666    3.5149    0.7766  7.2623E-04     -0.1260  1.9947E-13
  510.1211    6.0000    2.7995    0.8273    4.3396    2.6534    3.5214    0.7767  2.3268E-04     -0.1260  3.4474E-13
  510.1214    6.0000    2.7995    0.8190    4.3394    2.6320    3.5321    0.7767  2.4373E-05     -0.1260  6.9997E-13
  510.1217    6.0000    2.7995    0.8108    4.3388    2.5915    3.5522    0.7768  1.0000E-10     -0.1260  1.3285E-12
  510.1219    6.0000    2.7995    0.8027    4.3368    2.4970    3.5990    0.7768  1.0000E-10     -0.1260  2.6401E-12
  510.1222    6.0000    2.7995    0.7947    4.3291    2.1986    3.7463    0.7768  1.0000E-10     -0.1260  1.4138E-11
  510.1259    6.0000    2.7995    0.7916    4.3201    1.8359    3.9253    0.7774  1.0000E-10     -0.1260  8.6244E-11
  510.1277    6.0000    2.7995    0.7909    4.3160    1.6855    3.9995    0.7776  1.0000E-10     -0.1260  1.7781E-10
  510.1293    6.0000    2.7995    0.7905    4.3125    1.5671    4.0578    0.7779  1.0000E-10     -0.1260  3.1194E-10
  510.1307    6.0000    2.7995    0.7902    4.3093    1.4660    4.1076    0.7781  1.0000E-10     -0.1260  5.0192E-10
  510.1320    6.0000    2.7995    0.7901    4.3063    1.3759    4.1519    0.7783  1.0000E-10     -0.1260  7.6413E-10
  510.1331    6.0000    2.7995    0.7899    4.3037    1.3021    4.1882    0.7784  1.0000E-10     -0.1260  1.0750E-09
  510.1341    6.0000    2.7995    0.7898    4.3011    1.2336    4.2217    0.7786  1.0000E-10     -0.1260  1.4717E-09
  510.1351    6.0000    2.7995    0.7897    4.2986    1.1694    4.2532    0.7787  1.0000E-10     -0.1260  1.9719E-09
  510.1360    6.0000    2.7995    0.7897    4.2961    1.1084    4.2831    0.7789  1.0000E-10     -0.1260  2.5963E-09
  510.1369    6.0000    2.7995    0.7896    4.2936    1.0502    4.3116    0.7790  1.0000E-10     -0.1260  3.3685E-09
  510.1378    6.0000    2.7995    0.7896    4.2912    0.9942    4.3390    0.7792  1.0000E-10     -0.1260  4.3158E-09
  510.1386    6.0000    2.7995    0.7895    4.2886    0.9400    4.3654    0.7793  1.0000E-10     -0.1260  5.4690E-09
  510.1395    6.0000    2.7995    0.7895    4.2861    0.8875    4.3911    0.7794  1.0000E-10     -0.1260  6.8627E-09
  510.1403    6.0000    2.7995    0.7894    4.2835    0.8362    4.4160    0.7795  1.0000E-10     -0.1260  8.5349E-09
  510.1410    6.0000    2.7995    0.7894    4.2808    0.7861    4.4404    0.7796  1.0000E-10     -0.1260  1.0527E-08
  510.1418    6.0000    2.7995    0.7894    4.2781    0.7370    4.4643    0.7798  1.0000E-10     -0.1260  1.2884E-08
  510.1425    6.0000    2.7995    0.7894    4.2754    0.6888    4.4877    0.7799  1.0000E-10     -0.1260  1.5653E-08
  510.1432    6.0000    2.7995    0.7894    4.2725    0.6413    4.5107    0.7800  1.0000E-10     -0.1260  1.8881E-08
  510.1440    6.0000    2.7995    0.7893    4.2696    0.5945    4.5334    0.7801  1.0000E-10     -0.1260  2.2617E-08
  510.1447    6.0000    2.7995    0.7893    4.2666    0.5482    4.5558    0.7802  1.0000E-10     -0.1260  2.6908E-08
  510.1453    6.0000    2.7995    0.7893    4.2635    0.5025    4.5779    0.7803  1.0000E-10     -0.1260  3.1799E-08
  510.1460    6.0000    2.7995    0.7893    4.2603    0.4572    4.5998    0.7804  1.0000E-10     -0.1260  3.7330E-08
  510.1467    6.0000    2.7995    0.7893    4.2570    0.4123    4.6214    0.7805  1.0000E-10     -0.1260  4.3535E-08
  510.1473    6.0000    2.7995    0.7893    4.2536    0.3677    4.6428    0.7806  1.0000E-10     -0.1260  5.0440E-08
  510.1480    6.0000    2.7995    0.7893    4.2501    0.3235    4.6641    0.7807  1.0000E-10     -0.1260  5.8064E-08
  510.1486    6.0000    2.7995    0.7893    4.2465    0.2795    4.6851    0.7808  1.0000E-10     -0.1260  6.6417E-08
  510.1492    6.0000    2.7995    0.7893    4.2427    0.2357    4.7061    0.7809  1.0000E-10     -0.1260  7.5499E-08
  510.1499    6.0000    2.7995    0.7893    4.2388    0.1922    4.7268    0.7810  1.0000E-10     -0.1260  8.5303E-08
  510.1505    6.0000    2.7995    0.7893    4.2347    0.1489    4.7475    0.7811  1.0000E-10     -0.1260  9.5814E-08
  510.1511    6.0000    2.7995    0.7893    4.2305    0.1057    4.7680    0.7812  1.0000E-10     -0.1260  1.0701E-07
  510.1517    6.0000    2.7995    0.7893    4.2261    0.0627    4.7884    0.7813  1.0000E-10     -0.1260  1.1887E-07
  510.1523    6.0000    2.7995    0.7893    4.2215    0.0198    4.8087    0.7814  1.0000E-10     -0.1260  1.3136E-07
  510.1529    6.0000    2.7995    0.7893    4.2167   -0.0229    4.8289    0.7815  1.0000E-10     -0.1260  1.4445E-07
  510.1535    6.0000    2.7995    0.7893    4.2118   -0.0656    4.8490    0.7816  1.0000E-10     -0.1260  1.5812E-07
  510.1541    6.0000    2.7995    0.7893    4.2066   -0.1082    4.8690    0.7816  1.0000E-10     -0.1260  1.7234E-07
  510.1547    6.0000    2.7995    0.7892    4.2012   -0.1506    4.8889    0.7817  1.0000E-10     -0.1260  1.8709E-07
  510.1552    6.0000    2.7995    0.7892    4.1955   -0.1931    4.9087    0.7818  1.0000E-10     -0.1260  2.0235E-07
  510.1558    6.0000    2.7995    0.7892    4.1896   -0.2354    4.9284    0.7819  1.0000E-10     -0.1260  2.1811E-07
  510.1564    6.0000    2.7995    0.7892    4.1834   -0.2777    4.9480    0.7820  1.0000E-10     -0.1260  2.3436E-07
  510.1570    6.0000    2.7995    0.7892    4.1769   -0.3199    4.9675    0.7821  1.0000E-10     -0.1260  2.5108E-07
  510.1576    6.0000    2.7995    0.7892    4.1701   -0.3621    4.9869    0.7822  1.0000E-10     -0.1260  2.6829E-07
  510.1581    6.0000    2.7995    0.7892    4.1629   -0.4043    5.0061    0.7823  1.0000E-10     -0.1260  2.8598E-07
  510.1587    6.0000    2.7995    0.7892    4.1554   -0.4464    5.0253    0.7824  1.0000E-10     -0.1260  3.0415E-07
  510.1593    6.0000    2.7995    0.7892    4.1475   -0.4885    5.0444    0.7825  1.0000E-10     -0.1260  3.2282E-07
  510.1599    6.0000    2.7995    0.7892    4.1392   -0.5306    5.0633    0.7825  1.0000E-10     -0.1260  3.4198E-07
  510.1605    6.0000    2.7995    0.7892    4.1304   -0.5726    5.0822    0.7826  1.0000E-10     -0.1260  3.6166E-07
  510.1610    6.0000    2.7995    0.7892    4.1211   -0.6146    5.1009    0.7827  1.0000E-10     -0.1260  3.8185E-07
  510.1616    6.0000    2.7995    0.7892    4.1112   -0.6566    5.1194    0.7828  1.0000E-10     -0.1260  4.0258E-07
  510.1622    6.0000    2.7995    0.7892    4.1008   -0.6986    5.1378    0.7829  1.0000E-10     -0.1260  4.2383E-07
  510.1628    6.0000    2.7995    0.7892    4.0897   -0.7406    5.1560    0.7830  1.0000E-10     -0.1260  4.4564E-07
  510.1634    6.0000    2.7995    0.7892    4.0780   -0.7826    5.1741    0.7831  1.0000E-10     -0.1260  4.6799E-07
  510.1640    6.0000    2.7995    0.7892    4.0654   -0.8246    5.1919    0.7832  1.0000E-10     -0.1260  4.9090E-07
  510.1646    6.0000    2.7995    0.7892    4.0521   -0.8665    5.2095    0.7833  1.0000E-10     -0.1260  5.1436E-07
  510.1652    6.0000    2.7995    0.7892    4.0378   -0.9085    5.2269    0.7834  1.0000E-10     -0.1260  5.3838E-07
  510.1658    6.0000    2.7995    0.7892    4.0225   -0.9504    5.2441    0.7835  1.0000E-10     -0.1260  5.6297E-07
  510.1664    6.0000    2.7995    0.7892    4.0060   -0.9923    5.2610    0.7836  1.0000E-10     -0.1260  5.8810E-07
  510.1671    6.0000    2.7995    0.7892    3.9884   -1.0343    5.2775    0.7837  1.0000E-10     -0.1260  6.1379E-07
  510.1677    6.0000    2.7995    0.7892    3.9693   -1.0762    5.2937    0.7838  1.0000E-10     -0.1260  6.4002E-07
  510.1683    6.0000    2.7995    0.7892    3.9486   -1.1181    5.3095    0.7839  1.0000E-10     -0.1260  6.6679E-07
  510.1690    6.0000    2.7995    0.7892    3.9262   -1.1601    5.3249    0.7840  1.0000E-10     -0.1260  6.9409E-07
  510.1696    6.0000    2.7995    0.7892    3.9017   -1.2020    5.3397    0.7841  1.0000E-10     -0.1260  7.2191E-07
  510.1703    6.0000    2.7995    0.7892    3.8750   -1.2440    5.3540    0.7842  1.0000E-10     -0.1260  7.5024E-07
  510.1711    6.0000    2.7995    0.7892    3.8457   -1.2859    5.3676    0.7843  1.0000E-10     -0.1260  7.7908E-07
  510.1718    6.0000    2.7995    0.7892    3.8133   -1.3278    5.3805    0.7844  1.0000E-10     -0.1260  8.0841E-07
  510.1725    6.0000    2.7995    0.7892    3.7775   -1.3698    5.3925    0.7845  1.0000E-10     -0.1260  8.3824E-07
  510.1733    6.0000    2.7995    0.7892    3.7376   -1.4117    5.4035    0.7847  1.0000E-10     -0.1260  8.6857E-07
  510.1741    6.0000    2.7995    0.7892    3.6928   -1.4537    5.4133    0.7848  1.0000E-10     -0.1260  8.9941E-07
  510.1749    6.0000    2.7995    0.7892    3.6423   -1.4957    5.4217    0.7849  1.0000E-10     -0.1260  9.3079E-07
  510.1758    6.0000    2.7995    0.7892    3.5849   -1.5376    5.4283    0.7851  1.0000E-10     -0.1260  9.6275E-07
  510.1767    6.0000    2.7995    0.7892    3.5190   -1.5796    5.4328    0.7852  1.0000E-10     -0.1260  9.9535E-07
  510.1776    6.0000    2.7995    0.7892    3.4427   -1.6217    5.4348    0.7854  1.0000E-10     -0.1260  1.0287E-06
  510.1786    6.0000    2.7995    0.7892    3.3533   -1.6637    5.4334    0.7855  1.0000E-10     -0.1260  1.0629E-06
  510.1797    6.0000    2.7995    0.7892    3.2470   -1.7058    5.4279    0.7857  1.0000E-10     -0.1260  1.0983E-06
  510.1810    6.0000    2.7995    0.7892    3.1185   -1.7479    5.4169    0.7859  1.0000E-10     -0.1260  1.2708E-06
  510.1823    6.0000    2.7995    0.7892    2.9601   -1.7901    5.3984    0.7861  1.0000E-10     -0.1260  1.5034E-06
  510.1839    6.0000    2.7995    0.7892    2.7599   -1.8324    5.3695    0.7864  1.0000E-10     -0.1260  1.7875E-06
  510.1858    6.0000    2.7995    0.7892    2.4986   -1.8749    5.3254    0.7867  1.0000E-10     -0.1260  2.1470E-06
  510.1882    6.0000    2.7995    0.7892    2.1433   -1.9175    5.2578    0.7871  1.0000E-10     -0.1260  2.6354E-06
  510.1924    6.0000    2.7995    0.7892    1.6124   -1.9616    5.1472    0.7878  1.0000E-10     -0.1260  3.5006E-06
  510.1974    6.0000    2.7995    0.7892    1.3207   -1.9798    5.0833    0.7886  1.0000E-10     -0.1260  4.5800E-06
  510.2010   11.0000    0.7892    0.7892    1.2947   -1.9815    5.0777    0.7892  1.0000E-10    510.2010  5.5405E-06
  510.3011   11.0000    0.7892    0.7892    0.9395   -1.9815    4.9889    0.7892  1.0000E-10    510.2010  5.5405E-06
  511.3011   11.0000    0.7892    0.7892    0.0213   -1.9815    4.7593    0.7892  1.0000E-10    510.2010  5.5405E-06
  521.3011   11.0000    0.7892    0.7892   -1.1234   -1.9815    4.4732    0.7892  1.0000E-10    510.2010  5.5405E-06
  621.3011   11.0000    0.7892    0.7892   -2.2997   -1.9815    4.1791    0.7892  1.0000E-10    510.2010  5.5405E-06
 1121.3010   11.0000    0.7892    0.7892   -3.1730   -1.9815    3.9608    0.7892  1.0000E-10    510.2010  5.5405E-06
 1621.3010   11.0000    0.7892    0.7892   -3.4793   -1.9815    3.8842    0.7892  1.0000E-10    510.2010  5.5405E-06
 2121.3010   11.0000    0.7892    0.7892   -3.6697   -1.9815    3.8366    0.7892  1.0000E-10    510.2010  5.5405E-06
 2621.3010   11.0000    0.7892    0.7892   -3.8082   -1.9815    3.8020    0.7892  1.0000E-10    510.2010  5.5405E-06
 3121.3010   11.0000    0.7892    0.7892   -3.9172   -1.9815    3.7747    0.7892  1.0000E-10    510.2010  5.5405E-06
 3621.3010   11.0000    0.7892    0.7892   -4.0070   -1.9815    3.7523    0.7892  1.0000E-10    510.2010  5.5405E-06
 4121.3013   11.0000    0.7892    0.7892   -4.0833   -1.9815    3.7332    0.7892  1.0000E-10    510.2010  5.5405E-06
 4621.3013   11.0000    0.7892    0.7892   -4.1498   -1.9815    3.7166    0.7892  1.0000E-10    510.2010  5.5405E-06
 5121.3013   11.0000    0.7892    0.7892   -4.2086   -1.9815    3.7019    0.7892  1.0000E-10    510.2010  5.5405E-06
 5621.3013   11.0000    0.7892    0.7892   -4.2614   -1.9815    3.6887    0.7892  1.0000E-10    510.2010  5.5405E-06
 6121.3013   11.0000    0.7892    0.7892   -4.3092   -1.9815    3.6767    0.7892  1.0000E-10    510.2010  5.5405E-06
 6621.3013   11.0000    0.7892    0.7892   -4.3529   -1.9815    3.6658    0.7892  1.0000E-10    510.2010  5.5405E-06
 7121.3013   11.0000    0.7892    0.7892   -4.3932   -1.9815    3.6557    0.7892  1.0000E-10    510.2010  5.5405E-06
 7621.3013   11.0000    0.7892    0.7892   -4.4306   -1.9815    3.6464    0.7892  1.0000E-10    510.2010  5.5405E-06
 8121.3013   11.0000    0.7892    0.7892   -4.4654   -1.9815    3.6377    0.7892  1.0000E-10    510.2010  5.5405E-06
 8621.3008   11.0000    0.7892    0.7892   -4.4980   -1.9815    3.6295    0.7892  1.0000E-10    510.2010  5.5405E-06
 9121.3008   11.0000    0.7892    0.7892   -4.5287   -1.9815    3.6218    0.7892  1.0000E-10    510.2010  5.5405E-06
 9621.3008   11.0000    0.7892    0.7892   -4.5858   -1.9815    3.6076    0.7892  1.0000E-10    510.2010  5.5405E-06
10121.3008   11.0000    0.7892    0.7892   -4.7362   -1.9815    3.5700    0.7892  1.0000E-10    510.2010  5.5405E-06
10621.3008   11.0000    0.7892    0.7892   -4.8789   -1.9815    3.5343    0.7892  1.0000E-10    510.2010  5.5405E-06
11121.3008   11.0000    0.7892    0.7892   -5.0147   -1.9815    3.5003    0.7892  1.0000E-10    510.2010  5.5405E-06
11621.3008   11.0000    0.7892    0.7892   -5.1443   -1.9815    3.4679    0.7892  1.0000E-10    510.2010  5.5405E-06
12121.3008   11.0000    0.7892    0.7892   -5.2682   -1.9815    3.4370    0.7892  1.0000E-10    510.2010  5.5405E-06
12621.3008   11.0000    0.7892    0.7892   -5.3868   -1.9815    3.4073    0.7892  1.0000E-10    510.2010  5.5405E-06
13121.3008   11.0000    0.7892    0.7892   -5.5007   -1.9815    3.3788    0.7892  1.0000E-10    510.2010  5.5405E-06
13621.3008   11.0000    0.7892    0.7892   -5.6101   -1.9815    3.3515    0.7892  1.0000E-10    510.2010  5.5405E-06
14121.3008   11.0000    0.7892    0.7892   -5.7154   -1.9815    3.3252    0.7892  1.0000E-10    510.2010  5.5405E-06
14621.3008   11.0000    0.7892    0.7892   -5.8170   -1.9815    3.2998    0.7892  1.0000E-10    510.2010  5.5405E-06
15000.0000   11.0000    0.7892    0.7892   -5.8915   -1.9815    3.2811    0.7892  1.0000E-10    510.2010  5.5405E-06
   -1.0000   11.0000    0.7892    0.7892   -5.8915   -1.9815    3.2811    0.7892  1.0000E-10    510.2010  5.5405E-06
