 Tev(Myr)    type      Mo        Mt      log10(L)  log10(R) log10(Teff)  Mc        Menv              epoch      spin                                  
    0.0000    1.0000   50.0000   50.0000    5.5366    0.9683    4.6633    0.0000  1.0000E-10      0.0000  8.9522E+02
    0.2219    1.0000   49.9184   49.9184    5.5468    0.9795    4.6602    0.0000  1.0000E-10      0.0000  8.6526E+02
    0.4441    1.0000   49.8325   49.8325    5.5576    0.9908    4.6573    0.0000  1.0000E-10     -0.0002  8.3498E+02
    0.6664    1.0000   49.7420   49.7420    5.5689    1.0025    4.6543    0.0000  1.0000E-10     -0.0006  8.0406E+02
    0.8889    1.0000   49.6465   49.6465    5.5808    1.0146    4.6511    0.0000  1.0000E-10     -0.0013  7.7221E+02
    1.1117    1.0000   49.5453   49.5453    5.5932    1.0275    4.6478    0.0000  1.0000E-10     -0.0023  7.3919E+02
    1.3347    1.0000   49.4378   49.4378    5.6062    1.0412    4.6442    0.0000  1.0000E-10     -0.0036  7.0477E+02
    1.5580    1.0000   49.3232   49.3232    5.6197    1.0559    4.6402    0.0000  1.0000E-10     -0.0053  6.6878E+02
    1.7815    1.0000   49.2008   49.2008    5.6338    1.0718    4.6358    0.0000  1.0000E-10     -0.0074  6.3106E+02
    2.0054    1.0000   49.0693   49.0693    5.6483    1.0892    4.6308    0.0000  1.0000E-10     -0.0100  5.9153E+02
    2.2296    1.0000   48.9277   48.9277    5.6633    1.1081    4.6250    0.0000  1.0000E-10     -0.0131  5.5011E+02
    2.4541    1.0000   48.7084   48.7084    5.6775    1.1285    4.6184    0.0000  1.0000E-10     -0.0186  5.0048E+02
    2.6792    1.0000   48.4668   48.4668    5.6920    1.1510    4.6108    0.0000  1.0000E-10     -0.0254  4.4886E+02
    2.9049    1.0000   48.2000   48.2000    5.7067    1.1763    4.6018    0.0000  1.0000E-10     -0.0336  3.9541E+02
    3.1313    1.0000   47.9050   47.9050    5.7215    1.2051    4.5911    0.0000  1.0000E-10     -0.0436  3.4038E+02
    3.3584    1.0000   47.5792   47.5792    5.7363    1.2389    4.5779    0.0000  1.0000E-10     -0.0557  2.8417E+02
    3.5718    1.0000   47.2434   47.2434    5.7502    1.2768    4.5624    0.0000  1.0000E-10     -0.0694  2.3112E+02
    3.7476    1.0000   46.9440   46.9440    5.7616    1.3145    4.5464    0.0000  1.0000E-10     -0.0825  1.8797E+02
    3.8948    1.0000   46.6799   46.6799    5.7711    1.3521    4.5300    0.0000  1.0000E-10     -0.0948  1.5307E+02
    4.0202    1.0000   46.4485   46.4485    5.7792    1.3897    4.5132    0.0000  1.0000E-10     -0.1062  1.2488E+02
    4.1290    1.0000   46.2466   46.2466    5.7863    1.4275    4.4961    0.0000  1.0000E-10     -0.1166  1.0206E+02
    4.2249    1.0000   46.0714   46.0714    5.7928    1.4657    4.4786    0.0000  1.0000E-10     -0.1259  8.3561E+01
    4.3106    1.0000   45.9204   45.9204    5.7987    1.5042    4.4608    0.0000  1.0000E-10     -0.1342  6.8535E+01
    4.5196    1.0000   45.5723   45.5723    5.8439    1.4853    4.4816    0.0000  1.0000E-10     -0.1540  6.1693E+01
    4.5205    1.0000   45.5701   45.5701    5.8452    1.4775    4.4858    0.0000  1.0000E-10     -0.1541  6.3298E+01
    4.5205    2.0000   45.5701   45.5701    5.8452    1.4658    4.4917   16.6953  1.0000E-10     -0.1541  1.0319E+02
    4.5206    2.0000   45.5701   45.5699    5.8456    1.5069    4.4712   16.7031  1.0000E-10     -0.1541  8.9729E+01
    4.5207    2.0000   45.5701   45.5696    5.8460    1.5480    4.4508   16.7109  1.0000E-10     -0.1541  7.7738E+01
    4.5209    2.0000   45.5701   45.5693    5.8464    1.5890    4.4304   16.7187  1.0000E-10     -0.1541  6.7118E+01
    4.5210    2.0000   45.5701   45.5690    5.8469    1.6301    4.4099   16.7266  1.0000E-10     -0.1541  5.7763E+01
    4.5211    2.0000   45.5701   45.5686    5.8473    1.6711    4.3895   16.7344  1.0000E-10     -0.1541  4.9563E+01
    4.5212    2.0000   45.5701   45.5683    5.8477    1.7122    4.3691   16.7422  1.0000E-10     -0.1541  4.2410E+01
    4.5213    2.0000   45.5701   45.5678    5.8481    1.7533    4.3487   16.7500  1.0000E-10     -0.1541  3.6198E+01
    4.5214    2.0000   45.5701   45.5674    5.8485    1.7943    4.3282   16.7578  1.0000E-10     -0.1541  3.0823E+01
    4.5216    2.0000   45.5701   45.5669    5.8489    1.8354    4.3078   16.7656  1.0000E-10     -0.1541  2.6191E+01
    4.5217    2.0000   45.5701   45.5664    5.8494    1.8764    4.2874   16.7734  1.0000E-10     -0.1541  2.2213E+01
    4.5218    2.0000   45.5701   45.5658    5.8498    1.9175    4.2670   16.7813  1.0000E-10     -0.1541  1.8805E+01
    4.5219    2.0000   45.5701   45.5652    5.8502    1.9586    4.2465   16.7891  1.0000E-10     -0.1541  1.5895E+01
    4.5220    2.0000   45.5701   45.5646    5.8506    1.9996    4.2261   16.7969  1.0000E-10     -0.1541  1.3417E+01
    4.5221    2.0000   45.5701   45.5639    5.8510    2.0407    4.2057   16.8047  1.0000E-10     -0.1541  1.1310E+01
    4.5222    2.0000   45.5701   45.5631    5.8514    2.0818    4.1853   16.8125  1.0000E-10     -0.1541  9.5228E+00
    4.5224    2.0000   45.5701   45.5551    5.8519    2.1228    4.1648   16.8203  1.0000E-10     -0.1541  7.9462E+00
    4.5225    2.0000   45.5701   45.5472    5.8523    2.1639    4.1444   16.8281  1.0000E-10     -0.1541  6.6239E+00
    4.5226    2.0000   45.5701   45.5392    5.8527    2.2050    4.1240   16.8360  1.0000E-10     -0.1541  5.5165E+00
    4.5227    2.0000   45.5701   45.5312    5.8531    2.2460    4.1035   16.8438  1.0000E-10     -0.1541  4.5905E+00
    4.5228    2.0000   45.5701   45.5232    5.8535    2.2871    4.0831   16.8516  1.0000E-10     -0.1541  3.8171E+00
    4.5229    2.0000   45.5701   45.5152    5.8539    2.3282    4.0627   16.8594  1.0000E-10     -0.1541  3.1718E+00
    4.5231    2.0000   45.5701   45.5072    5.8544    2.3693    4.0422   16.8672  1.0000E-10     -0.1541  2.6341E+00
    4.5232    2.0000   45.5701   45.4992    5.8548    2.4103    4.0218   16.8750  1.0000E-10     -0.1541  2.1863E+00
    4.5233    2.0000   45.5701   45.4913    5.8552    2.4514    4.0014   16.8828  1.0000E-10     -0.1541  1.8137E+00
    4.5234    2.0000   45.5701   45.4833    5.8556    2.4925    3.9809   16.8907  1.0000E-10     -0.1541  1.5040E+00
    4.5235    2.0000   45.5701   45.4753    5.8560    2.5336    3.9605   16.8985  1.0000E-10     -0.1541  1.2466E+00
    4.5236    2.0000   45.5701   45.4673    5.8564    2.5747    3.9401   16.9063  1.0000E-10     -0.1541  1.0329E+00
    4.5238    2.0000   45.5701   45.4593    5.8569    2.6157    3.9196   16.9141  1.0000E-10     -0.1541  8.5551E-01
    4.5239    2.0000   45.5701   45.4513    5.8573    2.6568    3.8992   16.9219  1.0000E-10     -0.1541  7.0837E-01
    4.5240    2.0000   45.5701   45.4434    5.8577    2.6979    3.8787   16.9297  1.0000E-10     -0.1541  5.8637E-01
    4.5241    2.0000   45.5701   45.4354    5.8581    2.7390    3.8583   16.9375  1.0000E-10     -0.1541  4.8525E-01
    4.5242    2.0000   45.5701   45.4274    5.8585    2.7801    3.8379   16.9453  1.0000E-10     -0.1541  4.0146E-01
    4.5243    2.0000   45.5701   45.4194    5.8589    2.8211    3.8174   16.9532  1.0000E-10     -0.1541  3.3206E-01
    4.5245    2.0000   45.5701   45.4114    5.8594    2.8622    3.7970   16.9610  1.0000E-10     -0.1541  2.7460E-01
    4.5246    2.0000   45.5701   45.4035    5.8598    2.9033    3.7766   16.9688  1.0000E-10     -0.1541  2.2703E-01
    4.5247    2.0000   45.5701   45.3955    5.8602    2.9444    3.7561   16.9766  1.0000E-10     -0.1541  1.8766E-01
    4.5248    2.0000   45.5701   45.3875    5.8606    2.9855    3.7357   16.9844  1.0000E-10     -0.1541  1.5509E-01
    4.5249    2.0000   45.5701   45.3795    5.8610    3.0266    3.7152   16.9922  1.0000E-10     -0.1541  1.2815E-01
    4.5250    2.0000   45.5701   45.3715    5.8614    3.0677    3.6948   17.0000  1.0000E-10     -0.1541  1.0587E-01
    4.5251    2.0000   45.5701   45.3635    5.8619    3.1088    3.6744   17.0078  1.7384E-06     -0.1541  8.7414E-02
    4.5253    2.0000   45.5701   45.3556    5.8623    3.1498    3.6539   17.0156  1.3499E-02     -0.1541  6.6726E-02
    4.5254    2.0000   45.5701   45.3476    5.8627    3.1909    3.6335   17.0235  3.1064E-01     -0.1541  3.8598E-02
    4.5255    4.0000   45.5701   45.3417    5.8630    3.2210    3.6185   17.0292  1.9146E+01     -0.1541  9.7975E-03
    4.5303    4.0000   45.5701   45.0114    5.8639    3.2228    3.6178   17.0636  1.8751E+01     -0.1541  8.8958E-03
    4.5351    4.0000   45.5701   44.6811    5.8648    3.2247    3.6171   17.0981  1.8357E+01     -0.1541  8.0557E-03
    4.5399    4.0000   45.5701   44.3508    5.8657    3.2266    3.6164   17.1325  1.7965E+01     -0.1541  7.2761E-03
    4.5447    4.0000   45.5701   44.0204    5.8666    3.2285    3.6157   17.1670  1.7576E+01     -0.1541  6.5555E-03
    4.5495    4.0000   45.5701   43.6901    5.8674    3.2304    3.6150   17.2014  1.7188E+01     -0.1541  5.8922E-03
    4.5543    4.0000   45.5701   43.3598    5.8683    3.2323    3.6142   17.2359  1.6802E+01     -0.1541  5.2838E-03
    4.5591    4.0000   45.5701   43.0295    5.8692    3.2341    3.6135   17.2703  1.6418E+01     -0.1541  4.7278E-03
    4.5639    4.0000   45.5701   42.6991    5.8701    3.2361    3.6128   17.3048  1.6037E+01     -0.1541  4.2214E-03
    4.5687    4.0000   45.5701   42.3688    5.8710    3.2380    3.6120   17.3393  1.5657E+01     -0.1541  3.7619E-03
    4.5734    4.0000   45.5701   42.0385    5.8719    3.2399    3.6113   17.3737  1.5280E+01     -0.1541  3.3462E-03
    4.5782    4.0000   45.5701   41.7081    5.8728    3.2418    3.6106   17.4082  1.4905E+01     -0.1541  2.9713E-03
    4.5830    4.0000   45.5701   41.3778    5.8737    3.2437    3.6098   17.4426  1.4533E+01     -0.1541  2.6341E-03
    4.5878    4.0000   45.5701   41.0475    5.8745    3.2457    3.6091   17.4771  1.4163E+01     -0.1541  2.3317E-03
    4.5926    4.0000   45.5701   40.7172    5.8754    3.2476    3.6083   17.5115  1.3795E+01     -0.1541  2.0611E-03
    4.5974    4.0000   45.5701   40.3868    5.8763    3.2495    3.6076   17.5460  1.3430E+01     -0.1541  1.8196E-03
    4.6022    4.0000   45.5701   40.0565    5.8772    3.2515    3.6068   17.5804  1.3067E+01     -0.1541  1.6044E-03
    4.6070    4.0000   45.5701   39.7262    5.8781    3.2534    3.6061   17.6149  1.2707E+01     -0.1541  1.4132E-03
    4.6118    4.0000   45.5701   39.3959    5.8790    3.2554    3.6053   17.6493  1.2350E+01     -0.1541  1.2435E-03
    4.6166    4.0000   45.5701   39.0655    5.8799    3.2574    3.6046   17.6838  1.1996E+01     -0.1541  1.0932E-03
    4.6214    4.0000   45.5701   38.7352    5.8808    3.2593    3.6038   17.7182  1.1644E+01     -0.1541  9.6023E-04
    4.6262    4.0000   45.5701   38.4049    5.8816    3.2613    3.6030   17.7527  1.1295E+01     -0.1541  8.4276E-04
    4.6310    4.0000   45.5701   38.0745    5.8825    3.2633    3.6023   17.7871  1.0949E+01     -0.1541  7.3911E-04
    4.6358    4.0000   45.5701   37.7442    5.8834    3.2653    3.6015   17.8216  1.0607E+01     -0.1541  6.4775E-04
    4.6406    4.0000   45.5701   37.4139    5.8843    3.2673    3.6007   17.8561  1.0267E+01     -0.1541  5.6730E-04
    4.6454    4.0000   45.5701   37.0836    5.8852    3.2693    3.5999   17.8905  9.9304E+00     -0.1541  4.9651E-04
    4.6502    4.0000   45.5701   36.7532    5.8861    3.2712    3.5992   17.9250  9.5973E+00     -0.1541  4.3426E-04
    4.6550    4.0000   45.5701   36.4229    5.8870    3.2732    3.5984   17.9594  9.2675E+00     -0.1541  3.7956E-04
    4.6598    4.0000   45.5701   36.0926    5.8879    3.2752    3.5976   17.9939  8.9412E+00     -0.1541  3.3153E-04
    4.6646    4.0000   45.5701   35.7623    5.8887    3.2773    3.5968   18.0283  8.6184E+00     -0.1541  2.8936E-04
    4.6694    4.0000   45.5701   35.4319    5.8896    3.2793    3.5960   18.0628  8.2993E+00     -0.1541  2.5237E-04
    4.6742    4.0000   45.5701   35.1016    5.8905    3.2813    3.5953   18.0972  7.9839E+00     -0.1541  2.1992E-04
    4.6790    4.0000   45.5701   34.7713    5.8914    3.2833    3.5945   18.1317  7.6723E+00     -0.1541  1.9147E-04
    4.6838    4.0000   45.5701   34.4409    5.8923    3.2853    3.5937   18.1661  7.3647E+00     -0.1541  1.6654E-04
    4.6886    4.0000   45.5701   34.1106    5.8932    3.2873    3.5929   18.2006  7.0612E+00     -0.1541  1.4470E-04
    4.6934    4.0000   45.5701   33.7803    5.8941    3.2893    3.5921   18.2350  6.7619E+00     -0.1541  1.2556E-04
    4.6982    4.0000   45.5701   33.4500    5.8949    3.2913    3.5913   18.2695  6.4668E+00     -0.1541  1.0881E-04
    4.7030    4.0000   45.5701   33.1196    5.8958    3.2934    3.5906   18.3040  6.1761E+00     -0.1541  9.4158E-05
    4.7078    4.0000   45.5701   32.7893    5.8967    3.2954    3.5898   18.3384  5.8900E+00     -0.1541  8.1338E-05
    4.7126    4.0000   45.5701   32.4614    5.8976    3.2974    3.5890   18.3726  5.6106E+00     -0.1541  7.0215E-05
    4.7173    4.0000   45.5701   32.1368    5.8985    3.2993    3.5882   18.4065  5.3386E+00     -0.1541  6.0585E-05
    4.7220    4.0000   45.5701   31.8154    5.8993    3.3013    3.5875   18.4400  5.0740E+00     -0.1541  5.2242E-05
    4.7266    4.0000   45.5701   31.4973    5.9002    3.3032    3.5867   18.4732  4.8168E+00     -0.1541  4.5011E-05
    4.7312    4.0000   45.5701   31.1823    5.9010    3.3051    3.5860   18.5060  4.5669E+00     -0.1541  3.8739E-05
    4.7357    4.0000   45.5701   30.8705    5.9019    3.3070    3.5853   18.5385  4.3243E+00     -0.1541  3.3299E-05
    4.7402    4.0000   45.5701   30.5618    5.9027    3.3088    3.5845   18.5707  4.0890E+00     -0.1541  2.8578E-05
    4.7446    4.0000   45.5701   30.2562    5.9035    3.3106    3.5838   18.6026  3.8608E+00     -0.1541  2.4483E-05
    4.7490    4.0000   45.5701   29.9536    5.9043    3.3124    3.5831   18.6342  3.6399E+00     -0.1541  2.0931E-05
    4.7534    4.0000   45.5701   29.6541    5.9051    3.3142    3.5825   18.6654  3.4260E+00     -0.1541  1.7851E-05
    4.7577    4.0000   45.5701   29.3575    5.9059    3.3159    3.5818   18.6964  3.2193E+00     -0.1541  1.5182E-05
    4.7619    4.0000   45.5701   29.0639    5.9067    3.3176    3.5812   18.7270  3.0196E+00     -0.1541  1.2871E-05
    4.7661    4.0000   45.5701   28.7733    5.9075    3.3193    3.5805   18.7573  2.8270E+00     -0.1541  1.0874E-05
    4.7703    4.0000   45.5701   28.4856    5.9083    3.3209    3.5799   18.7873  2.6413E+00     -0.1541  9.1489E-06
    4.7745    4.0000   45.5701   28.2007    5.9091    3.3225    3.5793   18.8170  2.4625E+00     -0.1541  7.6629E-06
    4.7786    4.0000   45.5701   27.9187    5.9098    3.3240    3.5787   18.8464  2.2906E+00     -0.1541  6.3854E-06
    4.7826    4.0000   45.5701   27.6395    5.9106    3.3255    3.5781   18.8755  2.1256E+00     -0.1541  5.2902E-06
    4.7866    4.0000   45.5701   27.3631    5.9113    3.3270    3.5776   18.9044  1.9673E+00     -0.1541  4.3544E-06
    4.7906    4.0000   45.5701   27.0895    5.9120    3.3284    3.5771   18.9329  1.8158E+00     -0.1541  3.5579E-06
    4.7945    4.0000   45.5701   26.8186    5.9128    3.3298    3.5766   18.9612  1.6710E+00     -0.1541  2.8831E-06
    4.7984    4.0000   45.5701   26.5504    5.9135    3.3311    3.5761   18.9891  1.5329E+00     -0.1541  2.3145E-06
    4.8023    4.0000   45.5701   26.2849    5.9142    3.3324    3.5756   19.0168  1.4013E+00     -0.1541  1.8383E-06
    4.8061    4.0000   45.5701   26.0221    5.9149    3.3336    3.5752   19.0439  1.2765E+00     -0.1541  1.4426E-06
    4.8097    4.0000   45.5701   25.7618    5.9156    3.3347    3.5748   19.0702  1.1583E+00     -0.1541  1.1164E-06
    4.8133    4.0000   45.5701   25.5042    5.9162    3.3358    3.5744   19.0959  1.0468E+00     -0.1541  8.5037E-07
    4.8168    4.0000   45.5701   25.2492    5.9169    3.3368    3.5741   19.1208  9.4171E-01     -0.1541  6.3590E-07
    4.8201    4.0000   45.5701   24.9967    5.9175    3.3377    3.5738   19.1450  8.4302E-01     -0.1541  4.6544E-07
    4.8234    4.0000   45.5701   24.7467    5.9181    3.3386    3.5735   19.1686  7.5061E-01     -0.1541  3.3224E-07
    4.8266    4.0000   45.5701   24.4993    5.9187    3.3393    3.5733   19.1915  6.6437E-01     -0.1541  2.3024E-07
    4.8297    4.0000   45.5701   24.2543    5.9193    3.3400    3.5731   19.2138  5.8419E-01     -0.1541  1.5403E-07
    4.8327    4.0000   45.5701   24.0117    5.9198    3.3405    3.5730   19.2355  5.0995E-01     -0.1541  9.8753E-08
    4.8357    4.0000   45.5701   23.7716    5.9204    3.3410    3.5729   19.2565  4.4152E-01     -0.1541  6.0102E-08
    4.8385    4.0000   45.5701   23.5339    5.9209    3.3413    3.5729   19.2770  3.7879E-01     -0.1541  3.4280E-08
    4.8413    4.0000   45.5701   23.2985    5.9214    3.3414    3.5729   19.2969  3.2163E-01     -0.1541  1.7998E-08
    4.8440    4.0000   45.5701   23.0656    5.9219    3.3415    3.5730   19.3162  2.6987E-01     -0.1541  8.4738E-09
    4.8466    4.0000   45.5701   22.8349    5.9224    3.3413    3.5732   19.3349  2.2339E-01     -0.1541  3.4343E-09
    4.8491    4.0000   45.5701   22.6066    5.9229    3.3410    3.5735   19.3531  1.8201E-01     -0.1541  1.1166E-09
    4.8516    4.0000   45.5701   22.3805    5.9233    3.3404    3.5739   19.3708  1.4557E-01     -0.1541  2.5211E-10
    4.8540    4.0000   45.5701   22.1567    5.9238    3.3396    3.5744   19.3880  1.1387E-01     -0.1541  2.5377E-11
    4.8563    4.0000   45.5701   21.9351    5.9242    3.3385    3.5751   19.4046  8.6719E-02     -0.1541  1.7611E-16
    4.8586    4.0000   45.5701   21.7158    5.9246    3.3371    3.5759   19.4208  6.3887E-02     -0.1541  2.1202E-16
    4.8607    4.0000   45.5701   21.4986    5.9250    3.3352    3.5769   19.4365  4.5129E-02     -0.1541  2.6061E-16
    4.8629    4.0000   45.5701   21.2836    5.9254    3.3327    3.5783   19.4517  3.0171E-02     -0.1541  3.2850E-16
    4.8649    4.0000   45.5701   21.0708    5.9258    3.3296    3.5799   19.4665  1.8708E-02     -0.1541  4.2719E-16
    4.8669    4.0000   45.5701   20.8601    5.9261    3.3255    3.5821   19.4808  1.0397E-02     -0.1541  5.7793E-16
    4.8688    4.0000   45.5701   20.6515    5.9265    3.3199    3.5849   19.4947  4.8509E-03     -0.1541  8.2325E-16
    4.8707    4.0000   45.5701   20.4450    5.9268    3.3119    3.5890   19.5082  1.6321E-03     -0.1541  1.2568E-15
    4.8725    4.0000   45.5701   20.2405    5.9272    3.2990    3.5956   19.5212  2.4039E-04     -0.1541  2.1042E-15
    4.8743    4.0000   45.5701   20.0381    5.9275    3.2713    3.6095   19.5339  1.6704E-07     -0.1541  3.8710E-15
    4.8760    4.0000   45.5701   19.8377    5.9276    3.1584    3.6660   19.5461  1.0000E-10     -0.1541  1.0984E-14
    4.8777    4.0000   45.5701   19.6394    5.9199    1.2832    4.6016   19.5580  1.0000E-10     -0.1541  9.4640E-12
    4.8779    4.0000   45.5701   19.6387    5.9192    1.2220    4.6321   19.5597  1.0000E-10     -0.1541  9.6738E-12
    4.8781    4.0000   45.5701   19.6381    5.9185    1.1627    4.6615   19.5613  1.0000E-10     -0.1541  9.8396E-12
    4.8784    4.0000   45.5701   19.6375    5.9177    1.1049    4.6902   19.5630  1.0000E-10     -0.1541  9.9719E-12
    4.8786    4.0000   45.5701   19.6371    5.9169    1.0486    4.7182   19.5647  1.0000E-10     -0.1541  1.0078E-11
    4.8788    4.0000   45.5701   19.6366    5.9160    0.9934    4.7456   19.5664  1.0000E-10     -0.1541  1.0165E-11
    4.8791    4.0000   45.5701   19.6362    5.9149    0.9393    4.7724   19.5681  1.0000E-10     -0.1541  1.0236E-11
    4.8793    4.0000   45.5701   19.6359    5.9138    0.8861    4.7987   19.5699  1.0000E-10     -0.1541  1.0296E-11
    4.8796    4.0000   45.5701   19.6355    5.9125    0.8337    4.8245   19.5717  1.0000E-10     -0.1541  1.0345E-11
    4.8798    4.0000   45.5701   19.6352    5.9111    0.7820    4.8500   19.5735  1.0000E-10     -0.1541  1.0387E-11
    4.8801    4.0000   45.5701   19.6349    5.9094    0.7309    4.8752   19.5754  1.0000E-10     -0.1541  1.0423E-11
    4.8804    4.0000   45.5701   19.6347    5.9075    0.6803    4.9000   19.5774  1.0000E-10     -0.1541  1.0454E-11
    4.8807    4.0000   45.5701   19.6344    5.9053    0.6301    4.9245   19.5795  1.0000E-10     -0.1541  1.0481E-11
    4.8810    4.0000   45.5701   19.6342    5.9026    0.5802    4.9488   19.5817  1.0000E-10     -0.1541  1.0505E-11
    4.8813    4.0000   45.5701   19.6340    5.8994    0.5306    4.9728   19.5840  1.0000E-10     -0.1541  1.0526E-11
    4.8816    4.0000   45.5701   19.6338    5.8959    0.4858    4.9943   19.5863  1.0000E-10     -0.1541  1.0543E-11
    4.8819    4.0000   45.5701   19.6336    5.8915    0.4414    5.0155   19.5887  1.0000E-10     -0.1541  1.0559E-11
    4.8823    4.0000   45.5701   19.6334    5.8860    0.3972    5.0362   19.5914  1.0000E-10     -0.1541  1.0573E-11
    4.8827    4.0000   45.5701   19.6332    5.8789    0.3531    5.0564   19.5945  1.0000E-10     -0.1541  1.0587E-11
    4.8832    4.0000   45.5701   19.6330    5.8693    0.3090    5.0761   19.5980  1.0000E-10     -0.1541  1.0600E-11
    4.8839    4.0000   45.5701   19.6328    5.8553    0.2645    5.0948   19.6025  1.0000E-10     -0.1541  1.0612E-11
    4.8848    4.0000   45.5701   19.6326    5.8325    0.2187    5.1120   19.6091  1.0000E-10     -0.1541  1.0627E-11
    4.8880    7.0000   19.6318   19.6318    5.7986    0.1785    5.1237    0.0000  1.9632E+01      4.5637  2.0305E-11
    4.8966    7.0000   19.4355   19.4355    5.7943    0.1755    5.1241    0.0000  1.9436E+01      4.5619  2.0761E-11
    4.9052    7.0000   19.2412   19.2412    5.7900    0.1723    5.1246    0.0000  1.9241E+01      4.5600  2.1247E-11
    4.9139    7.0000   19.0488   19.0488    5.7857    0.1689    5.1253    0.0000  1.9049E+01      4.5581  2.1770E-11
    4.9226    7.0000   18.8583   18.8583    5.7813    0.1652    5.1260    0.0000  1.8858E+01      4.5561  2.2333E-11
    4.9313    7.0000   18.6697   18.6697    5.7768    0.1611    5.1269    0.0000  1.8670E+01      4.5541  2.2943E-11
    4.9401    7.0000   18.4830   18.4830    5.7724    0.1568    5.1280    0.0000  1.8483E+01      4.5520  2.3608E-11
    4.9490    7.0000   18.2982   18.2982    5.7679    0.1520    5.1292    0.0000  1.8298E+01      4.5498  2.4334E-11
    4.9579    7.0000   18.1152   18.1152    5.7633    0.1469    5.1307    0.0000  1.8115E+01      4.5475  2.5134E-11
    4.9668    7.0000   17.9340   17.9340    5.7587    0.1412    5.1323    0.0000  1.7934E+01      4.5452  2.6018E-11
    4.9758    7.0000   17.7547   17.7547    5.7541    0.1350    5.1343    0.0000  1.7755E+01      4.5428  2.7001E-11
    4.9848    7.0000   17.5771   17.5771    5.7494    0.1282    5.1365    0.0000  1.7577E+01      4.5404  2.8100E-11
    4.9939    7.0000   17.4014   17.4014    5.7447    0.1207    5.1391    0.0000  1.7401E+01      4.5378  2.9337E-11
    4.9969    7.0000   17.3446   17.3446    5.7432    0.1180    5.1400    0.0000  1.7345E+01      4.5370  2.9775E-11
    4.9969    7.0000   17.3445   17.3445    5.7432    0.1180    5.1400    0.0000  1.7345E+01      4.5370  2.9776E-11
    4.9969    8.0000   17.3445   17.3445    5.7432    0.1180    5.1400   12.9513  1.0000E-10      4.5370  1.2917E-10
    4.9977    8.0000   17.3445   17.3307    5.7487    0.1191    5.1409   12.9838  1.0000E-10      4.5370  1.2969E-10
    4.9984    8.0000   17.3445   17.3168    5.7541    0.1202    5.1417   13.0165  1.0000E-10      4.5370  1.3022E-10
    4.9991    8.0000   17.3445   17.3027    5.7596    0.1212    5.1425   13.0493  1.0000E-10      4.5370  1.3075E-10
    4.9993   14.0000   17.3445   16.7992  -10.0000   -4.1473    3.3369   16.7992  1.0000E-10      4.9993  2.0000E+08
    5.0993   14.0000   17.3445   16.7992  -10.0000   -4.1473    3.3369   16.7992  1.0000E-10      4.9993  2.0000E+08
    6.0993   14.0000   17.3445   16.7992  -10.0000   -4.1473    3.3369   16.7992  1.0000E-10      4.9993  2.0000E+08
   16.0993   14.0000   17.3445   16.7992  -10.0000   -4.1473    3.3369   16.7992  1.0000E-10      4.9993  2.0000E+08
  116.0993   14.0000   17.3445   16.7992  -10.0000   -4.1473    3.3369   16.7992  1.0000E-10      4.9993  2.0000E+08
  616.0993   14.0000   17.3445   16.7992  -10.0000   -4.1473    3.3369   16.7992  1.0000E-10      4.9993  2.0000E+08
 1116.0992   14.0000   17.3445   16.7992  -10.0000   -4.1473    3.3369   16.7992  1.0000E-10      4.9993  2.0000E+08
 1616.0992   14.0000   17.3445   16.7992  -10.0000   -4.1473    3.3369   16.7992  1.0000E-10      4.9993  2.0000E+08
 2116.0994   14.0000   17.3445   16.7992  -10.0000   -4.1473    3.3369   16.7992  1.0000E-10      4.9993  2.0000E+08
 2616.0994   14.0000   17.3445   16.7992  -10.0000   -4.1473    3.3369   16.7992  1.0000E-10      4.9993  2.0000E+08
 3116.0994   14.0000   17.3445   16.7992  -10.0000   -4.1473    3.3369   16.7992  1.0000E-10      4.9993  2.0000E+08
 3616.0994   14.0000   17.3445   16.7992  -10.0000   -4.1473    3.3369   16.7992  1.0000E-10      4.9993  2.0000E+08
 4116.0991   14.0000   17.3445   16.7992  -10.0000   -4.1473    3.3369   16.7992  1.0000E-10      4.9993  2.0000E+08
 4616.0991   14.0000   17.3445   16.7992  -10.0000   -4.1473    3.3369   16.7992  1.0000E-10      4.9993  2.0000E+08
 5116.0991   14.0000   17.3445   16.7992  -10.0000   -4.1473    3.3369   16.7992  1.0000E-10      4.9993  2.0000E+08
 5616.0991   14.0000   17.3445   16.7992  -10.0000   -4.1473    3.3369   16.7992  1.0000E-10      4.9993  2.0000E+08
 6116.0991   14.0000   17.3445   16.7992  -10.0000   -4.1473    3.3369   16.7992  1.0000E-10      4.9993  2.0000E+08
 6616.0991   14.0000   17.3445   16.7992  -10.0000   -4.1473    3.3369   16.7992  1.0000E-10      4.9993  2.0000E+08
 7116.0991   14.0000   17.3445   16.7992  -10.0000   -4.1473    3.3369   16.7992  1.0000E-10      4.9993  2.0000E+08
 7616.0991   14.0000   17.3445   16.7992  -10.0000   -4.1473    3.3369   16.7992  1.0000E-10      4.9993  2.0000E+08
 8116.0991   14.0000   17.3445   16.7992  -10.0000   -4.1473    3.3369   16.7992  1.0000E-10      4.9993  2.0000E+08
 8616.0996   14.0000   17.3445   16.7992  -10.0000   -4.1473    3.3369   16.7992  1.0000E-10      4.9993  2.0000E+08
 9116.0996   14.0000   17.3445   16.7992  -10.0000   -4.1473    3.3369   16.7992  1.0000E-10      4.9993  2.0000E+08
 9616.0996   14.0000   17.3445   16.7992  -10.0000   -4.1473    3.3369   16.7992  1.0000E-10      4.9993  2.0000E+08
10116.0996   14.0000   17.3445   16.7992  -10.0000   -4.1473    3.3369   16.7992  1.0000E-10      4.9993  2.0000E+08
10616.0996   14.0000   17.3445   16.7992  -10.0000   -4.1473    3.3369   16.7992  1.0000E-10      4.9993  2.0000E+08
11116.0996   14.0000   17.3445   16.7992  -10.0000   -4.1473    3.3369   16.7992  1.0000E-10      4.9993  2.0000E+08
11616.0996   14.0000   17.3445   16.7992  -10.0000   -4.1473    3.3369   16.7992  1.0000E-10      4.9993  2.0000E+08
12116.0996   14.0000   17.3445   16.7992  -10.0000   -4.1473    3.3369   16.7992  1.0000E-10      4.9993  2.0000E+08
12616.0996   14.0000   17.3445   16.7992  -10.0000   -4.1473    3.3369   16.7992  1.0000E-10      4.9993  2.0000E+08
13116.0996   14.0000   17.3445   16.7992  -10.0000   -4.1473    3.3369   16.7992  1.0000E-10      4.9993  2.0000E+08
13616.0996   14.0000   17.3445   16.7992  -10.0000   -4.1473    3.3369   16.7992  1.0000E-10      4.9993  2.0000E+08
14116.0996   14.0000   17.3445   16.7992  -10.0000   -4.1473    3.3369   16.7992  1.0000E-10      4.9993  2.0000E+08
14616.0996   14.0000   17.3445   16.7992  -10.0000   -4.1473    3.3369   16.7992  1.0000E-10      4.9993  2.0000E+08
15000.0000   14.0000   17.3445   16.7992  -10.0000   -4.1473    3.3369   16.7992  1.0000E-10      4.9993  2.0000E+08
   -1.0000   14.0000   17.3445   16.7992  -10.0000   -4.1473    3.3369   16.7992  1.0000E-10      4.9993  2.0000E+08
