 Tev(Myr)    type      Mo        Mt      log10(L)  log10(R) log10(Teff)  Mc        Menv              epoch      spin                                  
    0.0000    1.0000   12.0000   12.0000    3.9882    0.5898    4.4654    0.0000  1.0000E-10      0.0000  2.6435E+03
    0.9562    1.0000   11.9990   11.9990    3.9984    0.6005    4.4626    0.0000  1.0000E-10      0.0000  2.5785E+03
    1.9125    1.0000   11.9979   11.9979    4.0098    0.6112    4.4601    0.0000  1.0000E-10     -0.0001  2.5139E+03
    2.8690    1.0000   11.9968   11.9968    4.0223    0.6222    4.4578    0.0000  1.0000E-10     -0.0004  2.4489E+03
    3.8255    1.0000   11.9957   11.9957    4.0360    0.6334    4.4556    0.0000  1.0000E-10     -0.0008  2.3833E+03
    4.7823    1.0000   11.9945   11.9945    4.0509    0.6450    4.4535    0.0000  1.0000E-10     -0.0014  2.3164E+03
    5.7392    1.0000   11.9932   11.9932    4.0669    0.6571    4.4515    0.0000  1.0000E-10     -0.0023  2.2479E+03
    6.6962    1.0000   11.9918   11.9918    4.0840    0.6697    4.4494    0.0000  1.0000E-10     -0.0033  2.1773E+03
    7.6534    1.0000   11.9903   11.9903    4.1023    0.6830    4.4473    0.0000  1.0000E-10     -0.0046  2.1044E+03
    8.6108    1.0000   11.9886   11.9886    4.1218    0.6971    4.4452    0.0000  1.0000E-10     -0.0062  2.0288E+03
    9.5684    1.0000   11.9868   11.9868    4.1424    0.7121    4.4428    0.0000  1.0000E-10     -0.0082  1.9501E+03
   10.5263    1.0000   11.9849   11.9849    4.1641    0.7281    4.4402    0.0000  1.0000E-10     -0.0107  1.8677E+03
   11.4843    1.0000   11.9828   11.9828    4.1870    0.7455    4.4373    0.0000  1.0000E-10     -0.0136  1.7811E+03
   12.4427    1.0000   11.9804   11.9804    4.2110    0.7645    4.4338    0.0000  1.0000E-10     -0.0171  1.6890E+03
   13.4013    1.0000   11.9778   11.9778    4.2361    0.7858    4.4294    0.0000  1.0000E-10     -0.0213  1.5896E+03
   14.3603    1.0000   11.9750   11.9750    4.2624    0.8103    4.4237    0.0000  1.0000E-10     -0.0263  1.4804E+03
   15.3196    1.0000   11.9719   11.9719    4.2898    0.8395    4.4160    0.0000  1.0000E-10     -0.0322  1.3574E+03
   16.2793    1.0000   11.9685   11.9685    4.3183    0.8756    4.4050    0.0000  1.0000E-10     -0.0389  1.2158E+03
   17.1270    1.0000   11.9653   11.9653    4.3444    0.9161    4.3914    0.0000  1.0000E-10     -0.0457  1.0711E+03
   17.7950    1.0000   11.9628   11.9628    4.3657    0.9559    4.3767    0.0000  1.0000E-10     -0.0514  9.4209E+02
   18.3422    1.0000   11.9608   11.9608    4.3835    0.9954    4.3614    0.0000  1.0000E-10     -0.0560  8.2664E+02
   19.1658    1.0000   11.9580   11.9580    4.4745    0.9692    4.3973    0.0000  1.0000E-10     -0.0629  8.9619E+02
   19.1661    1.0000   11.9580   11.9580    4.4747    0.9688    4.3975    0.0000  1.0000E-10     -0.0629  8.9749E+02
   19.1661    2.0000   11.9580   11.9580    4.4747    0.9689    4.3975    2.7409  1.0000E-10     -0.0629  1.1601E+03
   19.1675    2.0000   11.9579   11.9579    4.4698    1.0099    4.3758    2.7424  1.0000E-10     -0.0629  1.0152E+03
   19.1688    2.0000   11.9579   11.9579    4.4650    1.0509    4.3541    2.7440  1.0000E-10     -0.0630  8.8486E+02
   19.1701    2.0000   11.9579   11.9579    4.4601    1.0919    4.3323    2.7456  1.0000E-10     -0.0630  7.6842E+02
   19.1714    2.0000   11.9579   11.9579    4.4553    1.1330    4.3106    2.7472  1.0000E-10     -0.0631  6.6495E+02
   19.1727    2.0000   11.9579   11.9579    4.4504    1.1740    4.2889    2.7487  1.0000E-10     -0.0631  5.7352E+02
   19.1740    2.0000   11.9578   11.9578    4.4455    1.2150    4.2672    2.7503  1.0000E-10     -0.0632  4.9314E+02
   19.1753    2.0000   11.9578   11.9578    4.4407    1.2560    4.2454    2.7519  1.0000E-10     -0.0633  4.2282E+02
   19.1766    2.0000   11.9578   11.9578    4.4358    1.2970    4.2237    2.7535  1.0000E-10     -0.0633  3.6158E+02
   19.1779    2.0000   11.9577   11.9577    4.4310    1.3381    4.2020    2.7550  1.0000E-10     -0.0634  3.0846E+02
   19.1792    2.0000   11.9577   11.9577    4.4261    1.3791    4.1803    2.7566  1.0000E-10     -0.0635  2.6256E+02
   19.1805    2.0000   11.9577   11.9577    4.4213    1.4201    4.1585    2.7582  1.0000E-10     -0.0636  2.2305E+02
   19.1819    2.0000   11.9576   11.9576    4.4164    1.4611    4.1368    2.7597  1.0000E-10     -0.0637  1.8914E+02
   19.1832    2.0000   11.9576   11.9576    4.4116    1.5022    4.1151    2.7613  1.0000E-10     -0.0638  1.6012E+02
   19.1845    2.0000   11.9576   11.9576    4.4067    1.5432    4.0934    2.7629  1.0000E-10     -0.0639  1.3536E+02
   19.1858    2.0000   11.9575   11.9575    4.4019    1.5842    4.0716    2.7644  1.0000E-10     -0.0640  1.1427E+02
   19.1871    2.0000   11.9575   11.9575    4.3970    1.6252    4.0499    2.7660  1.0000E-10     -0.0641  9.6359E+01
   19.1884    2.0000   11.9574   11.9574    4.3921    1.6662    4.0282    2.7676  1.0000E-10     -0.0642  8.1167E+01
   19.1897    2.0000   11.9574   11.9574    4.3873    1.7073    4.0065    2.7691  1.0000E-10     -0.0644  6.8306E+01
   19.1910    2.0000   11.9573   11.9573    4.3824    1.7483    3.9847    2.7707  1.0000E-10     -0.0645  5.7435E+01
   19.1923    2.0000   11.9572   11.9572    4.3776    1.7893    3.9630    2.7722  1.0000E-10     -0.0647  4.8258E+01
   19.1936    2.0000   11.9572   11.9572    4.3727    1.8303    3.9413    2.7738  1.0000E-10     -0.0648  4.0520E+01
   19.1949    2.0000   11.9571   11.9571    4.3678    1.8714    3.9196    2.7754  1.0000E-10     -0.0650  3.4003E+01
   19.1962    2.0000   11.9570   11.9570    4.3630    1.9124    3.8978    2.7769  1.0000E-10     -0.0652  2.8519E+01
   19.1976    2.0000   11.9570   11.9570    4.3581    1.9534    3.8761    2.7785  1.0000E-10     -0.0654  2.3908E+01
   19.1989    2.0000   11.9569   11.9569    4.3533    1.9944    3.8544    2.7800  1.0000E-10     -0.0656  2.0035E+01
   19.2002    2.0000   11.9568   11.9568    4.3484    2.0354    3.8327    2.7816  1.0000E-10     -0.0658  1.6783E+01
   19.2015    2.0000   11.9567   11.9567    4.3435    2.0765    3.8109    2.7831  1.0000E-10     -0.0660  1.4054E+01
   19.2028    2.0000   11.9566   11.9566    4.3387    2.1175    3.7892    2.7847  1.0000E-10     -0.0663  1.1765E+01
   19.2041    2.0000   11.9565   11.9565    4.3338    2.1585    3.7675    2.7862  1.0000E-10     -0.0666  9.8468E+00
   19.2054    2.0000   11.9564   11.9564    4.3290    2.1995    3.7458    2.7878  1.0000E-10     -0.0669  8.2391E+00
   19.2067    2.0000   11.9563   11.9563    4.3241    2.2405    3.7240    2.7893  7.4587E-05     -0.0672  6.8385E+00
   19.2080    2.0000   11.9561   11.9561    4.3192    2.2815    3.7023    2.7908  1.9209E-02     -0.0675  4.7121E+00
   19.2093    2.0000   11.9560   11.9560    4.3144    2.3226    3.6806    2.7924  2.7667E-01     -0.0678  2.2734E+00
   19.2106    2.0000   11.9558   11.9558    4.3095    2.3636    3.6589    2.7939  1.6810E+00     -0.0682  9.2716E-01
   19.2116    2.0000   11.9557   11.9557    4.3061    2.3924    3.6436    2.7950  4.5803E+00     -0.0685  4.9658E-01
   19.2116    3.0000   11.9557   11.9557    4.3062    2.3925    3.6436    2.7950  4.5840E+00     -0.0685  4.9626E-01
   19.2116    3.0000   11.9557   11.9557    4.3117    2.3964    3.6430    2.7950  4.6975E+00     -0.0685  4.8647E-01
   19.2117    3.0000   11.9557   11.9557    4.3172    2.4002    3.6424    2.7950  4.8110E+00     -0.0685  4.7687E-01
   19.2117    3.0000   11.9557   11.9557    4.3226    2.4041    3.6419    2.7950  4.9244E+00     -0.0685  4.6745E-01
   19.2118    3.0000   11.9557   11.9557    4.3281    2.4080    3.6413    2.7950  5.0377E+00     -0.0685  4.5822E-01
   19.2119    3.0000   11.9557   11.9557    4.3335    2.4118    3.6407    2.7950  5.1509E+00     -0.0685  4.4916E-01
   19.2119    3.0000   11.9557   11.9557    4.3390    2.4157    3.6402    2.7950  5.2639E+00     -0.0685  4.4027E-01
   19.2120    3.0000   11.9557   11.9557    4.3444    2.4196    3.6396    2.7950  5.3767E+00     -0.0685  4.3156E-01
   19.2120    3.0000   11.9557   11.9557    4.3499    2.4235    3.6390    2.7950  5.4892E+00     -0.0685  4.2301E-01
   19.2121    3.0000   11.9557   11.9557    4.3553    2.4273    3.6384    2.7950  5.6014E+00     -0.0685  4.1462E-01
   19.2121    3.0000   11.9557   11.9557    4.3608    2.4312    3.6379    2.7950  5.7133E+00     -0.0685  4.0639E-01
   19.2122    3.0000   11.9557   11.9556    4.3663    2.4351    3.6373    2.7950  5.8247E+00     -0.0685  3.9831E-01
   19.2122    3.0000   11.9557   11.9556    4.3717    2.4390    3.6367    2.7950  5.9357E+00     -0.0685  3.9038E-01
   19.2123    3.0000   11.9557   11.9556    4.3772    2.4428    3.6361    2.7950  6.0462E+00     -0.0685  3.8260E-01
   19.2123    3.0000   11.9557   11.9556    4.3826    2.4467    3.6356    2.7950  6.1561E+00     -0.0685  3.7497E-01
   19.2124    3.0000   11.9557   11.9556    4.3881    2.4506    3.6350    2.7950  6.2654E+00     -0.0685  3.6747E-01
   19.2125    3.0000   11.9557   11.9556    4.3935    2.4545    3.6344    2.7950  6.3740E+00     -0.0685  3.6012E-01
   19.2125    3.0000   11.9557   11.9556    4.3990    2.4583    3.6338    2.7950  6.4819E+00     -0.0685  3.5289E-01
   19.2126    3.0000   11.9557   11.9556    4.4044    2.4622    3.6333    2.7950  6.5890E+00     -0.0685  3.4580E-01
   19.2126    3.0000   11.9557   11.9556    4.4099    2.4661    3.6327    2.7950  6.6952E+00     -0.0685  3.3884E-01
   19.2127    3.0000   11.9557   11.9556    4.4154    2.4700    3.6321    2.7950  6.8004E+00     -0.0685  3.3201E-01
   19.2127    3.0000   11.9557   11.9556    4.4208    2.4739    3.6315    2.7950  6.9047E+00     -0.0685  3.2530E-01
   19.2127    3.0000   11.9557   11.9555    4.4263    2.4777    3.6310    2.7950  7.0078E+00     -0.0685  3.1871E-01
   19.2128    3.0000   11.9557   11.9555    4.4317    2.4816    3.6304    2.7950  7.1098E+00     -0.0685  3.1224E-01
   19.2128    3.0000   11.9557   11.9555    4.4372    2.4855    3.6298    2.7950  7.2106E+00     -0.0685  3.0588E-01
   19.2129    3.0000   11.9557   11.9555    4.4426    2.4894    3.6292    2.7950  7.3101E+00     -0.0685  2.9964E-01
   19.2129    3.0000   11.9557   11.9555    4.4481    2.4933    3.6287    2.7950  7.4081E+00     -0.0685  2.9351E-01
   19.2130    3.0000   11.9557   11.9555    4.4536    2.4971    3.6281    2.7950  7.5047E+00     -0.0685  2.8749E-01
   19.2130    3.0000   11.9557   11.9555    4.4590    2.5010    3.6275    2.7951  7.5997E+00     -0.0685  2.8157E-01
   19.2131    3.0000   11.9557   11.9555    4.4645    2.5049    3.6269    2.7951  7.6931E+00     -0.0685  2.7576E-01
   19.2131    3.0000   11.9557   11.9555    4.4699    2.5088    3.6264    2.7951  7.7847E+00     -0.0685  2.7005E-01
   19.2132    3.0000   11.9557   11.9555    4.4754    2.5127    3.6258    2.7951  7.8744E+00     -0.0685  2.6444E-01
   19.2132    3.0000   11.9557   11.9554    4.4808    2.5166    3.6252    2.7951  7.9622E+00     -0.0685  2.5893E-01
   19.2132    3.0000   11.9557   11.9554    4.4863    2.5205    3.6246    2.7951  8.0479E+00     -0.0685  2.5352E-01
   19.2133    3.0000   11.9557   11.9554    4.4917    2.5243    3.6240    2.7951  8.1315E+00     -0.0685  2.4820E-01
   19.2133    3.0000   11.9557   11.9554    4.4972    2.5282    3.6235    2.7951  8.2128E+00     -0.0685  2.4298E-01
   19.2134    3.0000   11.9557   11.9554    4.5027    2.5321    3.6229    2.7951  8.2918E+00     -0.0685  2.3784E-01
   19.2134    3.0000   11.9557   11.9554    4.5081    2.5360    3.6223    2.7951  8.3682E+00     -0.0685  2.3280E-01
   19.2135    3.0000   11.9557   11.9554    4.5136    2.5399    3.6217    2.7951  8.4420E+00     -0.0685  2.2784E-01
   19.2135    3.0000   11.9557   11.9554    4.5190    2.5438    3.6211    2.7951  8.5130E+00     -0.0685  2.2297E-01
   19.2135    3.0000   11.9557   11.9554    4.5245    2.5477    3.6206    2.7951  8.5812E+00     -0.0685  2.1818E-01
   19.2136    3.0000   11.9557   11.9553    4.5299    2.5516    3.6200    2.7951  8.6464E+00     -0.0685  2.1348E-01
   19.2136    3.0000   11.9557   11.9553    4.5354    2.5554    3.6194    2.7951  8.7084E+00     -0.0685  2.0886E-01
   19.2136    3.0000   11.9557   11.9553    4.5408    2.5593    3.6188    2.7951  8.7672E+00     -0.0685  2.0432E-01
   19.2137    3.0000   11.9557   11.9553    4.5463    2.5632    3.6182    2.7951  8.8225E+00     -0.0685  1.9986E-01
   19.2137    3.0000   11.9557   11.9553    4.5518    2.5671    3.6177    2.7951  8.8743E+00     -0.0685  1.9548E-01
   19.2138    3.0000   11.9557   11.9553    4.5572    2.5710    3.6171    2.7951  8.9223E+00     -0.0685  1.9117E-01
   19.2138    3.0000   11.9557   11.9553    4.5627    2.5749    3.6165    2.7951  8.9664E+00     -0.0685  1.8694E-01
   19.2138    3.0000   11.9557   11.9553    4.5681    2.5788    3.6159    2.7951  9.0065E+00     -0.0685  1.8278E-01
   19.2139    3.0000   11.9557   11.9552    4.5736    2.5827    3.6153    2.7951  9.0423E+00     -0.0685  1.7870E-01
   19.2139    3.0000   11.9557   11.9552    4.5790    2.5866    3.6147    2.7951  9.0738E+00     -0.0685  1.7469E-01
   19.2139    3.0000   11.9557   11.9552    4.5845    2.5905    3.6142    2.7951  9.1007E+00     -0.0685  1.7075E-01
   19.2140    3.0000   11.9557   11.9552    4.5900    2.5944    3.6136    2.7951  9.1228E+00     -0.0685  1.6688E-01
   19.2140    3.0000   11.9557   11.9552    4.5954    2.5983    3.6130    2.7951  9.1400E+00     -0.0685  1.6308E-01
   19.2141    3.0000   11.9557   11.9552    4.6009    2.6022    3.6124    2.7951  9.1520E+00     -0.0685  1.5934E-01
   19.2141    3.0000   11.9557   11.9552    4.6063    2.6060    3.6118    2.7951  9.1587E+00     -0.0685  1.5568E-01
   19.2141    4.0000   11.9557   11.9551    4.6102    2.6088    3.6114    2.7951  9.1600E+00     -0.0685  1.5314E-01
   19.2345    4.0000   11.9557   11.9461    4.5934    2.5970    3.6131    2.8056  9.1405E+00     -0.0685  1.6395E-01
   19.2550    4.0000   11.9557   11.9377    4.5780    2.5861    3.6147    2.8161  9.1215E+00     -0.0685  1.7439E-01
   19.2754    4.0000   11.9557   11.9297    4.5639    2.5761    3.6162    2.8266  9.1031E+00     -0.0685  1.8439E-01
   19.2959    4.0000   11.9557   11.9223    4.5510    2.5670    3.6175    2.8371  9.0852E+00     -0.0685  1.9388E-01
   19.3163    4.0000   11.9557   11.9152    4.5393    2.5588    3.6187    2.8476  9.0676E+00     -0.0685  2.0282E-01
   19.3367    4.0000   11.9557   11.9085    4.5287    2.5513    3.6198    2.8581  9.0504E+00     -0.0685  2.1116E-01
   19.3572    4.0000   11.9557   11.9021    4.5192    2.5446    3.6207    2.8686  9.0334E+00     -0.0685  2.1886E-01
   19.3776    4.0000   11.9557   11.8959    4.5107    2.5387    3.6216    2.8791  9.0167E+00     -0.0685  2.2590E-01
   19.3981    4.0000   11.9557   11.8899    4.5031    2.5334    3.6224    2.8896  9.0003E+00     -0.0685  2.3228E-01
   19.4185    4.0000   11.9557   11.8841    4.4964    2.5287    3.6230    2.9001  8.9840E+00     -0.0685  2.3799E-01
   19.4389    4.0000   11.9557   11.8785    4.4906    2.5246    3.6236    2.9106  8.9678E+00     -0.0685  2.4303E-01
   19.4594    4.0000   11.9557   11.8730    4.4855    2.5211    3.6241    2.9212  8.9518E+00     -0.0685  2.4743E-01
   19.4798    4.0000   11.9557   11.8676    4.4812    2.5181    3.6245    2.9317  8.9360E+00     -0.0685  2.5119E-01
   19.5002    4.0000   11.9557   11.8623    4.4775    2.5155    3.6249    2.9422  8.9202E+00     -0.0685  2.5435E-01
   19.5207    4.0000   11.9557   11.8571    4.4745    2.5134    3.6252    2.9527  8.9045E+00     -0.0685  2.5694E-01
   19.5411    4.0000   11.9557   11.8520    4.4720    2.5117    3.6254    2.9632  8.8888E+00     -0.0685  2.5901E-01
   19.5616    4.0000   11.9557   11.8469    4.4700    2.5104    3.6256    2.9737  8.8732E+00     -0.0685  2.6059E-01
   19.5820    4.0000   11.9557   11.8419    4.4684    2.5094    3.6257    2.9842  8.8577E+00     -0.0685  2.6174E-01
   19.6024    4.0000   11.9557   11.8369    4.4673    2.5086    3.6258    2.9947  8.8422E+00     -0.0685  2.6250E-01
   19.6229    4.0000   11.9557   11.8319    4.4665    2.5081    3.6258    3.0052  8.8267E+00     -0.0685  2.6293E-01
   19.6433    4.0000   11.9557   11.8269    4.4659    2.5078    3.6259    3.0157  8.8112E+00     -0.0685  2.6309E-01
   19.6637    4.0000   11.9557   11.8220    4.4656    2.5076    3.6259    3.0262  8.7958E+00     -0.0685  2.6303E-01
   19.6842    4.0000   11.9557   11.8170    4.4654    2.5076    3.6258    3.0367  8.7803E+00     -0.0685  2.6280E-01
   19.7046    4.0000   11.9557   11.8121    4.4654    2.5076    3.6258    3.0472  8.7649E+00     -0.0685  2.6246E-01
   19.7251    4.0000   11.9557   11.8071    4.4798    2.5007    3.6329    3.0577  7.0072E+00     -0.0685  3.0129E-01
   19.7362    4.0000   11.9557   11.8043    4.4973    2.4575    3.6589    3.0634  1.4207E+00     -0.0685  7.7171E-01
   19.7476    4.0000   11.9557   11.8016    4.5065    2.4144    3.6827    3.0693  1.5693E-01     -0.0685  1.9128E+00
   19.7594    4.0000   11.9557   11.7989    4.5136    2.3714    3.7060    3.0754  3.8025E-03     -0.0685  3.4825E+00
   19.7716    4.0000   11.9557   11.7963    4.5195    2.3285    3.7289    3.0816  1.0000E-10     -0.0685  4.4288E+00
   19.7841    4.0000   11.9557   11.7937    4.5248    2.2858    3.7516    3.0881  1.0000E-10     -0.0685  5.2778E+00
   19.7971    4.0000   11.9557   11.7913    4.5295    2.2432    3.7741    3.0947  1.0000E-10     -0.0685  6.2880E+00
   19.8105    4.0000   11.9557   11.7889    4.5340    2.2007    3.7964    3.1016  1.0000E-10     -0.0685  7.4892E+00
   19.8245    4.0000   11.9557   11.7866    4.5382    2.1584    3.8186    3.1088  1.0000E-10     -0.0685  8.9165E+00
   19.8391    4.0000   11.9557   11.7843    4.5422    2.1162    3.8407    3.1163  1.0000E-10     -0.0685  1.0611E+01
   19.8542    4.0000   11.9557   11.7821    4.5461    2.0742    3.8627    3.1241  1.0000E-10     -0.0685  1.2620E+01
   19.8701    4.0000   11.9557   11.7800    4.5499    2.0324    3.8845    3.1323  1.0000E-10     -0.0685  1.5000E+01
   19.8869    4.0000   11.9557   11.7778    4.5536    1.9907    3.9063    3.1409  1.0000E-10     -0.0685  1.7815E+01
   19.9045    4.0000   11.9557   11.7757    4.5573    1.9492    3.9280    3.1499  1.0000E-10     -0.0685  2.1139E+01
   19.9249    4.0000   11.9557   11.7735    4.5613    1.9043    3.9515    3.1604  1.0000E-10     -0.0685  2.5436E+01
   19.9454    4.0000   11.9557   11.7714    4.5651    1.8626    3.9733    3.1709  1.0000E-10     -0.0685  3.0193E+01
   19.9658    4.0000   11.9557   11.7694    4.5686    1.8240    3.9934    3.1814  1.0000E-10     -0.0685  3.5371E+01
   19.9862    4.0000   11.9557   11.7675    4.5720    1.7883    4.0122    3.1919  1.0000E-10     -0.0685  4.0932E+01
   20.0067    4.0000   11.9557   11.7658    4.5753    1.7553    4.0294    3.2024  1.0000E-10     -0.0685  4.6819E+01
   20.0271    4.0000   11.9557   11.7641    4.5784    1.7251    4.0453    3.2130  1.0000E-10     -0.0685  5.2931E+01
   20.0476    4.0000   11.9557   11.7625    4.5814    1.6975    4.0599    3.2235  1.0000E-10     -0.0685  5.9176E+01
   20.0680    4.0000   11.9557   11.7610    4.5842    1.6725    4.0731    3.2340  1.0000E-10     -0.0685  6.5459E+01
   20.0884    4.0000   11.9557   11.7595    4.5870    1.6498    4.0851    3.2445  1.0000E-10     -0.0685  7.1682E+01
   20.1089    4.0000   11.9557   11.7581    4.5897    1.6294    4.0960    3.2550  1.0000E-10     -0.0685  7.7750E+01
   20.1293    4.0000   11.9557   11.7568    4.5923    1.6112    4.1058    3.2655  1.0000E-10     -0.0685  8.3576E+01
   20.1498    4.0000   11.9557   11.7554    4.5948    1.5949    4.1145    3.2760  1.0000E-10     -0.0685  8.9080E+01
   20.1702    4.0000   11.9557   11.7541    4.5973    1.5806    4.1223    3.2865  1.0000E-10     -0.0685  9.4195E+01
   20.1906    4.0000   11.9557   11.7528    4.5996    1.5681    4.1291    3.2970  1.0000E-10     -0.0685  9.8869E+01
   20.2111    4.0000   11.9557   11.7516    4.6020    1.5573    4.1351    3.3075  1.0000E-10     -0.0685  1.0306E+02
   20.2315    4.0000   11.9557   11.7504    4.6042    1.5480    4.1403    3.3180  1.0000E-10     -0.0685  1.0675E+02
   20.2519    4.0000   11.9557   11.7491    4.6064    1.5401    4.1448    3.3285  1.0000E-10     -0.0685  1.0992E+02
   20.2724    4.0000   11.9557   11.7479    4.6086    1.5335    4.1486    3.3390  1.0000E-10     -0.0685  1.1259E+02
   20.2928    4.0000   11.9557   11.7467    4.6107    1.5282    4.1519    3.3495  1.0000E-10     -0.0685  1.1476E+02
   20.3133    4.0000   11.9557   11.7455    4.6128    1.5238    4.1545    3.3600  1.0000E-10     -0.0685  1.1646E+02
   20.3337    4.0000   11.9557   11.7443    4.6148    1.5204    4.1567    3.3705  1.0000E-10     -0.0685  1.1774E+02
   20.3541    4.0000   11.9557   11.7431    4.6168    1.5179    4.1585    3.3810  1.0000E-10     -0.0685  1.1863E+02
   20.3746    4.0000   11.9557   11.7419    4.6187    1.5160    4.1599    3.3915  1.0000E-10     -0.0685  1.1918E+02
   20.3950    4.0000   11.9557   11.7407    4.6206    1.5147    4.1610    3.4020  1.0000E-10     -0.0685  1.1945E+02
   20.4154    4.0000   11.9557   11.7395    4.6225    1.5139    4.1619    3.4125  1.0000E-10     -0.0685  1.1950E+02
   20.4359    4.0000   11.9557   11.7383    4.6243    1.5134    4.1626    3.4230  1.0000E-10     -0.0685  1.1938E+02
   20.4563    4.0000   11.9557   11.7370    4.6261    1.5132    4.1632    3.4335  1.0000E-10     -0.0685  1.1915E+02
   20.4768    4.0000   11.9557   11.7358    4.6279    1.5130    4.1637    3.4440  1.0000E-10     -0.0685  1.1888E+02
   20.4972    4.0000   11.9557   11.7346    4.6297    1.5129    4.1642    3.4546  1.0000E-10     -0.0685  1.1857E+02
   20.5176    4.0000   11.9557   11.7334    4.6314    1.5129    4.1647    3.4651  1.0000E-10     -0.0685  1.1820E+02
   20.5381    4.0000   11.9557   11.7321    4.6331    1.5132    4.1649    3.4756  1.0000E-10     -0.0685  1.1769E+02
   20.5585    4.0000   11.9557   11.7309    4.6347    1.5139    4.1650    3.4861  1.0000E-10     -0.0685  1.1699E+02
   20.5790    4.0000   11.9557   11.7296    4.6364    1.5151    4.1648    3.4966  1.0000E-10     -0.0685  1.1605E+02
   20.5994    4.0000   11.9557   11.7283    4.6380    1.5169    4.1643    3.5071  1.0000E-10     -0.0685  1.1482E+02
   20.6198    4.0000   11.9557   11.7271    4.6396    1.5195    4.1634    3.5176  1.0000E-10     -0.0685  1.1325E+02
   20.6403    4.0000   11.9557   11.7258    4.6412    1.5229    4.1621    3.5281  1.0000E-10     -0.0685  1.1129E+02
   20.6607    4.0000   11.9557   11.7245    4.6427    1.5274    4.1603    3.5386  1.0000E-10     -0.0685  1.0891E+02
   20.6811    4.0000   11.9557   11.7232    4.6443    1.5329    4.1579    3.5491  1.0000E-10     -0.0685  1.0608E+02
   20.7016    4.0000   11.9557   11.7218    4.6458    1.5398    4.1548    3.5596  1.0000E-10     -0.0685  1.0280E+02
   20.7220    4.0000   11.9557   11.7205    4.6473    1.5479    4.1511    3.5701  1.0000E-10     -0.0685  9.9043E+01
   20.7425    4.0000   11.9557   11.7191    4.6488    1.5576    4.1467    3.5806  1.0000E-10     -0.0685  9.4829E+01
   20.7629    4.0000   11.9557   11.7177    4.6502    1.5688    4.1414    3.5911  1.0000E-10     -0.0685  9.0178E+01
   20.7833    4.0000   11.9557   11.7162    4.6517    1.5818    4.1353    3.6016  1.0000E-10     -0.0685  8.5123E+01
   20.8038    4.0000   11.9557   11.7147    4.6531    1.5966    4.1283    3.6121  1.0000E-10     -0.0685  7.9715E+01
   20.8242    4.0000   11.9557   11.7132    4.6545    1.6134    4.1202    3.6226  1.0000E-10     -0.0685  7.4015E+01
   20.8446    4.0000   11.9557   11.7116    4.6559    1.6322    4.1111    3.6331  1.0000E-10     -0.0685  6.8097E+01
   20.8651    4.0000   11.9557   11.7099    4.6573    1.6533    4.1010    3.6436  1.0000E-10     -0.0685  6.2044E+01
   20.8855    4.0000   11.9557   11.7082    4.6587    1.6767    4.0896    3.6541  1.0000E-10     -0.0685  5.5945E+01
   20.9060    4.0000   11.9557   11.7064    4.6600    1.7025    4.0770    3.6646  1.0000E-10     -0.0685  4.9893E+01
   20.9264    4.0000   11.9557   11.7044    4.6614    1.7309    4.0631    3.6751  1.0000E-10     -0.0685  4.3980E+01
   20.9468    4.0000   11.9557   11.7024    4.6627    1.7620    4.0479    3.6857  1.0000E-10     -0.0685  3.8292E+01
   20.9673    4.0000   11.9557   11.7002    4.6640    1.7960    4.0313    3.6962  1.0000E-10     -0.0685  3.2909E+01
   20.9877    4.0000   11.9557   11.6979    4.6653    1.8328    4.0132    3.7067  1.0000E-10     -0.0685  2.7897E+01
   21.0082    4.0000   11.9557   11.6955    4.6666    1.8727    3.9936    3.7172  1.0000E-10     -0.0685  2.3311E+01
   21.0276    4.0000   11.9557   11.6929    4.6678    1.9137    3.9734    3.7272  1.0000E-10     -0.0685  1.9370E+01
   21.0458    4.0000   11.9557   11.6903    4.6689    1.9547    3.9531    3.7365  1.0000E-10     -0.0685  1.6078E+01
   21.0630    4.0000   11.9557   11.6877    4.6700    1.9958    3.9328    3.7453  1.0000E-10     -0.0685  1.3330E+01
   21.0792    4.0000   11.9557   11.6850    4.6710    2.0370    3.9125    3.7537  1.0000E-10     -0.0685  1.1038E+01
   21.0946    4.0000   11.9557   11.6822    4.6719    2.0783    3.8921    3.7616  1.0000E-10     -0.0685  9.1283E+00
   21.1094    4.0000   11.9557   11.6793    4.6728    2.1197    3.8716    3.7692  1.0000E-10     -0.0685  7.5389E+00
   21.1233    4.0000   11.9557   11.6763    4.6736    2.1607    3.8513    3.7764  1.0000E-10     -0.0685  6.2320E+00
   21.1367    4.0000   11.9557   11.6733    4.6744    2.2016    3.8311    3.7832  1.0000E-10     -0.0685  5.1467E+00
   21.1496    4.0000   11.9557   11.6701    4.6752    2.2426    3.8107    3.7898  1.0000E-10     -0.0685  4.2460E+00
   21.1619    4.0000   11.9557   11.6668    4.6759    2.2836    3.7904    3.7962  1.0000E-10     -0.0685  3.4993E+00
   21.1739    4.0000   11.9557   11.6633    4.6766    2.3246    3.7701    3.8023  1.0000E-10     -0.0685  2.8806E+00
   21.1855    4.0000   11.9557   11.6597    4.6773    2.3656    3.7498    3.8083  1.0000E-10     -0.0685  2.3685E+00
   21.1967    4.0000   11.9557   11.6559    4.6779    2.4067    3.7294    3.8140  1.0000E-10     -0.0685  1.9450E+00
   21.2075    4.0000   11.9557   11.6519    4.6785    2.4477    3.7090    3.8196  1.0000E-10     -0.0685  1.5951E+00
   21.2181    4.0000   11.9557   11.6477    4.6791    2.4888    3.6887    3.8250  4.5065E-06     -0.0685  1.3042E+00
   21.2283    4.0000   11.9557   11.6433    4.6797    2.5298    3.6683    3.8303  9.4027E-03     -0.0685  9.2683E-01
   21.2383    4.0000   11.9557   11.6387    4.6803    2.5709    3.6479    3.8355  1.8801E-01     -0.0685  4.5295E-01
   21.2480    4.0000   11.9557   11.6338    4.6808    2.6120    3.6275    3.8405  1.2998E+00     -0.0685  1.8014E-01
   21.2575    4.0000   11.9557   11.6286    4.6814    2.6531    3.6071    3.8453  5.5328E+00     -0.0685  7.2601E-02
   21.2579    5.0000   11.9557   11.6284    4.6814    2.6548    3.6062    3.8455  5.8440E+00     -0.0685  6.9952E-02
   21.2607    5.0000   11.9557   11.6268    4.6924    2.6623    3.6052    3.8455  5.7931E+00     -0.0685  6.6862E-02
   21.2634    5.0000   11.9557   11.6251    4.7033    2.6701    3.6040    3.8455  5.7913E+00     -0.0685  6.3515E-02
   21.2661    5.0000   11.9557   11.6233    4.7143    2.6779    3.6029    3.8455  5.7894E+00     -0.0685  6.0307E-02
   21.2687    5.0000   11.9557   11.6216    4.7253    2.6857    3.6017    3.8455  5.7875E+00     -0.0685  5.7235E-02
   21.2713    5.0000   11.9557   11.6198    4.7362    2.6935    3.6006    3.8455  5.7855E+00     -0.0685  5.4296E-02
   21.2738    5.0000   11.9557   11.6179    4.7472    2.7013    3.5994    3.8455  5.7835E+00     -0.0685  5.1486E-02
   21.2763    5.0000   11.9557   11.6160    4.7582    2.7091    3.5983    3.8455  5.7815E+00     -0.0685  4.8802E-02
   21.2787    5.0000   11.9557   11.6140    4.7691    2.7169    3.5971    3.8455  5.7794E+00     -0.0685  4.6241E-02
   21.2811    5.0000   11.9557   11.6120    4.7801    2.7247    3.5959    3.8455  5.7772E+00     -0.0685  4.3799E-02
   21.2834    5.0000   11.9557   11.6100    4.7911    2.7325    3.5948    3.8455  5.7750E+00     -0.0685  4.1474E-02
   21.2857    5.0000   11.9557   11.6078    4.8020    2.7403    3.5936    3.8455  5.7727E+00     -0.0685  3.9261E-02
   21.2879    5.0000   11.9557   11.6057    4.8130    2.7481    3.5925    3.8455  5.7703E+00     -0.0685  3.7157E-02
   21.2901    5.0000   11.9557   11.6035    4.8240    2.7559    3.5913    3.8455  5.7679E+00     -0.0685  3.5159E-02
   21.2922    5.0000   11.9557   11.6012    4.8350    2.7637    3.5901    3.8455  5.7655E+00     -0.0685  3.3263E-02
   21.2943    5.0000   11.9557   11.5988    4.8459    2.7716    3.5890    3.8455  5.7629E+00     -0.0685  3.1464E-02
   21.2964    5.0000   11.9557   11.5964    4.8569    2.7794    3.5878    3.8455  5.7603E+00     -0.0685  2.9760E-02
   21.2984    5.0000   11.9557   11.5940    4.8679    2.7872    3.5866    3.8455  5.7577E+00     -0.0685  2.8147E-02
   21.3003    5.0000   11.9557   11.5914    4.8788    2.7950    3.5855    3.8455  5.7549E+00     -0.0685  2.6621E-02
   21.3023    5.0000   11.9557   11.5888    4.8898    2.8029    3.5843    3.8455  5.7521E+00     -0.0685  2.5178E-02
   21.3042    5.0000   11.9557   11.5862    4.9008    2.8107    3.5831    3.8455  5.7493E+00     -0.0685  2.3814E-02
   21.3060    5.0000   11.9557   11.5834    4.9117    2.8185    3.5819    3.8455  5.7463E+00     -0.0685  2.2526E-02
   21.3079    5.0000   11.9557   11.5806    4.9227    2.8264    3.5808    3.8455  5.7433E+00     -0.0685  2.1311E-02
   21.3096    5.0000   11.9557   11.5777    4.9337    2.8342    3.5796    3.8455  5.7402E+00     -0.0685  2.0164E-02
   21.3114    5.0000   11.9557   11.5748    4.9446    2.8420    3.5784    3.8455  5.7370E+00     -0.0685  1.9083E-02
   21.3131    5.0000   11.9557   11.5718    4.9556    2.8499    3.5772    3.8455  5.7338E+00     -0.0685  1.8064E-02
   21.3148    5.0000   11.9557   11.5686    4.9666    2.8577    3.5760    3.8455  5.7304E+00     -0.0685  1.7103E-02
   21.3164    5.0000   11.9557   11.5655    4.9775    2.8656    3.5749    3.8455  5.7270E+00     -0.0685  1.6198E-02
   21.3180    5.0000   11.9557   11.5622    4.9885    2.8734    3.5737    3.8455  5.7235E+00     -0.0685  1.5345E-02
   21.3196    5.0000   11.9557   11.5588    4.9995    2.8813    3.5725    3.8455  5.7199E+00     -0.0685  1.4542E-02
   21.3212    5.0000   11.9557   11.5554    5.0104    2.8891    3.5713    3.8455  5.7162E+00     -0.0685  1.3785E-02
   21.3227    5.0000   11.9557   11.5518    5.0214    2.8970    3.5701    3.8455  5.7124E+00     -0.0685  1.3073E-02
   21.3242    5.0000   11.9557   11.5482    5.0324    2.9048    3.5689    3.8455  5.7085E+00     -0.0685  1.2402E-02
   21.3256    5.0000   11.9557   11.5445    5.0433    2.9127    3.5677    3.8455  5.7045E+00     -0.0685  1.1769E-02
   21.3271    5.0000   11.9557   11.5407    5.0543    2.9206    3.5666    3.8455  5.7004E+00     -0.0685  1.1174E-02
   21.3285    5.0000   11.9557   11.5368    5.0653    2.9284    3.5654    3.8455  5.6962E+00     -0.0685  1.0613E-02
   21.3298    5.0000   11.9557   11.5327    5.0762    2.9363    3.5642    3.8455  5.6920E+00     -0.0685  1.0084E-02
   21.3312    5.0000   11.9557   11.5286    5.0872    2.9442    3.5630    3.8455  5.6875E+00     -0.0685  9.5848E-03
   21.3325    5.0000   11.9557   11.5244    5.0982    2.9521    3.5618    3.8455  5.6830E+00     -0.0685  9.1146E-03
   21.3338    5.0000   11.9557   11.5200    5.1091    2.9600    3.5606    3.8455  5.6784E+00     -0.0685  8.6709E-03
   21.3351    5.0000   11.9557   11.5156    5.1201    2.9678    3.5594    3.8455  5.6737E+00     -0.0685  8.2523E-03
   21.3356   13.0000   11.9557    1.2238    0.3598   -4.8539    6.2802    1.2238  1.0000E-10     21.3356  2.0000E+08
   21.4356   13.0000   11.9557    1.2238    0.3598   -4.8539    6.2802    1.2238  1.0000E-10     21.3356  2.0000E+08
   22.4356   13.0000   11.9557    1.2238   -1.7230   -4.8539    5.7595    1.2238  1.0000E-10     21.3356  2.0000E+08
   32.4356   13.0000   11.9557    1.2238   -3.7309   -4.8539    5.2575    1.2238  1.0000E-10     21.3356  2.0000E+08
  132.4356   13.0000   11.9557    1.2238   -5.7316   -4.8539    4.7573    1.2238  1.0000E-10     21.3356  2.0000E+08
  632.4356   13.0000   11.9557    1.2238   -7.2124   -4.8539    4.3871    1.2238  1.0000E-10     21.3356  2.0000E+08
 1132.4355   13.0000   11.9557    1.2238   -7.7317   -4.8539    4.2573    1.2238  1.0000E-10     21.3356  2.0000E+08
 1632.4355   13.0000   11.9557    1.2238   -8.0545   -4.8539    4.1766    1.2238  1.0000E-10     21.3356  2.0000E+08
 2132.4355   13.0000   11.9557    1.2238   -8.2892   -4.8539    4.1179    1.2238  1.0000E-10     21.3356  2.0000E+08
 2632.4355   13.0000   11.9557    1.2238   -8.4739   -4.8539    4.0717    1.2238  1.0000E-10     21.3356  2.0000E+08
 3132.4355   13.0000   11.9557    1.2238   -8.6260   -4.8539    4.0337    1.2238  1.0000E-10     21.3356  2.0000E+08
 3632.4355   13.0000   11.9557    1.2238   -8.7555   -4.8539    4.0013    1.2238  1.0000E-10     21.3356  2.0000E+08
 4132.4355   13.0000   11.9557    1.2238   -8.8681   -4.8539    3.9732    1.2238  1.0000E-10     21.3356  2.0000E+08
 4632.4355   13.0000   11.9557    1.2238   -8.9678   -4.8539    3.9482    1.2238  1.0000E-10     21.3356  2.0000E+08
 5132.4355   13.0000   11.9557    1.2238   -9.0572   -4.8539    3.9259    1.2238  1.0000E-10     21.3356  2.0000E+08
 5632.4355   13.0000   11.9557    1.2238   -9.1383   -4.8539    3.9056    1.2238  1.0000E-10     21.3356  2.0000E+08
 6132.4355   13.0000   11.9557    1.2238   -9.2125   -4.8539    3.8871    1.2238  1.0000E-10     21.3356  2.0000E+08
 6632.4355   13.0000   11.9557    1.2238   -9.2808   -4.8539    3.8700    1.2238  1.0000E-10     21.3356  2.0000E+08
 7132.4355   13.0000   11.9557    1.2238   -9.3441   -4.8539    3.8542    1.2238  1.0000E-10     21.3356  2.0000E+08
 7632.4355   13.0000   11.9557    1.2238   -9.4031   -4.8539    3.8394    1.2238  1.0000E-10     21.3356  2.0000E+08
 8132.4355   13.0000   11.9557    1.2238   -9.4584   -4.8539    3.8256    1.2238  1.0000E-10     21.3356  2.0000E+08
 8632.4355   13.0000   11.9557    1.2238   -9.5103   -4.8539    3.8126    1.2238  1.0000E-10     21.3356  2.0000E+08
 9132.4355   13.0000   11.9557    1.2238   -9.5594   -4.8539    3.8004    1.2238  1.0000E-10     21.3356  2.0000E+08
 9632.4355   13.0000   11.9557    1.2238   -9.6058   -4.8539    3.7888    1.2238  1.0000E-10     21.3356  2.0000E+08
10132.4355   13.0000   11.9557    1.2238   -9.6498   -4.8539    3.7778    1.2238  1.0000E-10     21.3356  2.0000E+08
10632.4355   13.0000   11.9557    1.2238   -9.6917   -4.8539    3.7673    1.2238  1.0000E-10     21.3356  2.0000E+08
11132.4355   13.0000   11.9557    1.2238   -9.7317   -4.8539    3.7573    1.2238  1.0000E-10     21.3356  2.0000E+08
11632.4355   13.0000   11.9557    1.2238   -9.7700   -4.8539    3.7477    1.2238  1.0000E-10     21.3356  2.0000E+08
12132.4355   13.0000   11.9557    1.2238   -9.8066   -4.8539    3.7386    1.2238  1.0000E-10     21.3356  2.0000E+08
12632.4355   13.0000   11.9557    1.2238   -9.8417   -4.8539    3.7298    1.2238  1.0000E-10     21.3356  2.0000E+08
13132.4355   13.0000   11.9557    1.2238   -9.8755   -4.8539    3.7213    1.2238  1.0000E-10     21.3356  2.0000E+08
13632.4355   13.0000   11.9557    1.2238   -9.9080   -4.8539    3.7132    1.2238  1.0000E-10     21.3356  2.0000E+08
14132.4355   13.0000   11.9557    1.2238   -9.9393   -4.8539    3.7054    1.2238  1.0000E-10     21.3356  2.0000E+08
14632.4355   13.0000   11.9557    1.2238   -9.9696   -4.8539    3.6978    1.2238  1.0000E-10     21.3356  2.0000E+08
15000.0000   13.0000   11.9557    1.2238   -9.9912   -4.8539    3.6924    1.2238  1.0000E-10     21.3356  2.0000E+08
   -1.0000   13.0000   11.9557    1.2238   -9.9912   -4.8539    3.6924    1.2238  1.0000E-10     21.3356  2.0000E+08
