 Tev(Myr)    type      Mo        Mt      log10(L)  log10(R) log10(Teff)  Mc        Menv              epoch      spin                                  
    0.0000    1.0000   50.0000   50.0000    5.5350    0.9515    4.6713    0.0000  1.0000E-10      0.0000  9.3051E+02
    0.2244    1.0000   49.9376   49.9376    5.5452    0.9619    4.6686    0.0000  1.0000E-10      0.0000  9.0314E+02
    0.4490    1.0000   49.8722   49.8722    5.5559    0.9724    4.6661    0.0000  1.0000E-10     -0.0002  8.7542E+02
    0.6737    1.0000   49.8033   49.8033    5.5674    0.9833    4.6635    0.0000  1.0000E-10     -0.0005  8.4702E+02
    0.8986    1.0000   49.7306   49.7306    5.5794    0.9947    4.6608    0.0000  1.0000E-10     -0.0010  8.1761E+02
    1.1237    1.0000   49.6537   49.6537    5.5921    1.0069    4.6579    0.0000  1.0000E-10     -0.0018  7.8691E+02
    1.3490    1.0000   49.5721   49.5721    5.6054    1.0199    4.6547    0.0000  1.0000E-10     -0.0028  7.5465E+02
    1.5745    1.0000   49.4852   49.4852    5.6193    1.0341    4.6511    0.0000  1.0000E-10     -0.0041  7.2061E+02
    1.8002    1.0000   49.3923   49.3923    5.6338    1.0495    4.6470    0.0000  1.0000E-10     -0.0057  6.8461E+02
    2.0261    1.0000   49.2926   49.2926    5.6488    1.0664    4.6423    0.0000  1.0000E-10     -0.0077  6.4649E+02
    2.2523    1.0000   49.1851   49.1851    5.6645    1.0850    4.6369    0.0000  1.0000E-10     -0.0102  6.0613E+02
    2.4787    1.0000   49.0686   49.0686    5.6806    1.1056    4.6306    0.0000  1.0000E-10     -0.0131  5.6341E+02
    2.7055    1.0000   48.9418   48.9418    5.6973    1.1285    4.6233    0.0000  1.0000E-10     -0.0167  5.1819E+02
    2.9325    1.0000   48.7347   48.7347    5.7132    1.1539    4.6146    0.0000  1.0000E-10     -0.0231  4.6368E+02
    3.1601    1.0000   48.5037   48.5037    5.7294    1.1830    4.6041    0.0000  1.0000E-10     -0.0309  4.0640E+02
    3.3884    1.0000   48.2457   48.2457    5.7458    1.2171    4.5912    0.0000  1.0000E-10     -0.0405  3.4646E+02
    3.6041    1.0000   47.9743   47.9743    5.7613    1.2558    4.5757    0.0000  1.0000E-10     -0.0514  2.8782E+02
    3.7817    1.0000   47.7284   47.7284    5.7741    1.2941    4.5598    0.0000  1.0000E-10     -0.0621  2.3865E+02
    3.9303    1.0000   47.5082   47.5082    5.7848    1.3322    4.5434    0.0000  1.0000E-10     -0.0722  1.9772E+02
    4.0569    1.0000   47.3122   47.3122    5.7939    1.3702    4.5266    0.0000  1.0000E-10     -0.0817  1.6374E+02
    4.1666    1.0000   47.1385   47.1385    5.8019    1.4084    4.5095    0.0000  1.0000E-10     -0.0904  1.3557E+02
    4.2633    1.0000   46.9857   46.9857    5.8091    1.4469    4.4921    0.0000  1.0000E-10     -0.0984  1.1222E+02
    4.3497    1.0000   46.8520   46.8520    5.8156    1.4858    4.4743    0.0000  1.0000E-10     -0.1056  9.2893E+01
    4.5494    1.0000   46.5557   46.5557    5.8607    1.4592    4.4989    0.0000  1.0000E-10     -0.1220  8.8585E+01
    4.5501    1.0000   46.5542   46.5542    5.8617    1.4530    4.5022    0.0000  1.0000E-10     -0.1221  9.0410E+01
    4.5501    2.0000   46.5542   46.5542    5.8617    1.4411    4.5082   17.1840  1.0000E-10     -0.1221  1.4791E+02
    4.5502    2.0000   46.5542   46.5539    5.8624    1.4822    4.4878   17.1926  1.0000E-10     -0.1221  1.2880E+02
    4.5504    2.0000   46.5542   46.5537    5.8630    1.5232    4.4674   17.2011  1.0000E-10     -0.1221  1.1174E+02
    4.5505    2.0000   46.5542   46.5535    5.8637    1.5643    4.4471   17.2096  1.0000E-10     -0.1221  9.6602E+01
    4.5506    2.0000   46.5542   46.5532    5.8643    1.6053    4.4267   17.2182  1.0000E-10     -0.1221  8.3240E+01
    4.5507    2.0000   46.5542   46.5529    5.8650    1.6464    4.4063   17.2267  1.0000E-10     -0.1221  7.1506E+01
    4.5508    2.0000   46.5542   46.5526    5.8656    1.6874    4.3860   17.2352  1.0000E-10     -0.1221  6.1252E+01
    4.5510    2.0000   46.5542   46.5523    5.8663    1.7285    4.3656   17.2438  1.0000E-10     -0.1221  5.2332E+01
    4.5511    2.0000   46.5542   46.5519    5.8669    1.7695    4.3452   17.2523  1.0000E-10     -0.1221  4.4604E+01
    4.5512    2.0000   46.5542   46.5515    5.8676    1.8106    4.3249   17.2608  1.0000E-10     -0.1221  3.7934E+01
    4.5513    2.0000   46.5542   46.5511    5.8682    1.8516    4.3045   17.2694  1.0000E-10     -0.1221  3.2197E+01
    4.5514    2.0000   46.5542   46.5507    5.8689    1.8927    4.2842   17.2779  1.0000E-10     -0.1221  2.7279E+01
    4.5516    2.0000   46.5542   46.5502    5.8695    1.9337    4.2638   17.2864  1.0000E-10     -0.1221  2.3075E+01
    4.5517    2.0000   46.5542   46.5496    5.8702    1.9748    4.2434   17.2950  1.0000E-10     -0.1221  1.9489E+01
    4.5518    2.0000   46.5542   46.5491    5.8708    2.0158    4.2231   17.3035  1.0000E-10     -0.1221  1.6439E+01
    4.5519    2.0000   46.5542   46.5484    5.8715    2.0569    4.2027   17.3120  1.0000E-10     -0.1221  1.3850E+01
    4.5520    2.0000   46.5542   46.5478    5.8721    2.0979    4.1823   17.3206  1.0000E-10     -0.1221  1.1656E+01
    4.5522    2.0000   46.5542   46.5413    5.8728    2.1390    4.1620   17.3291  1.0000E-10     -0.1221  9.7384E+00
    4.5523    2.0000   46.5542   46.5349    5.8734    2.1800    4.1416   17.3376  1.0000E-10     -0.1221  8.1288E+00
    4.5524    2.0000   46.5542   46.5284    5.8741    2.2211    4.1212   17.3462  1.0000E-10     -0.1221  6.7796E+00
    4.5525    2.0000   46.5542   46.5220    5.8747    2.2622    4.1009   17.3547  1.0000E-10     -0.1221  5.6502E+00
    4.5526    2.0000   46.5542   46.5155    5.8754    2.3032    4.0805   17.3632  1.0000E-10     -0.1221  4.7058E+00
    4.5528    2.0000   46.5542   46.5091    5.8760    2.3443    4.0601   17.3718  1.0000E-10     -0.1221  3.9169E+00
    4.5529    2.0000   46.5542   46.5027    5.8767    2.3853    4.0398   17.3803  1.0000E-10     -0.1221  3.2585E+00
    4.5530    2.0000   46.5542   46.4962    5.8773    2.4264    4.0194   17.3888  1.0000E-10     -0.1221  2.7094E+00
    4.5531    2.0000   46.5542   46.4898    5.8780    2.4675    3.9990   17.3974  1.0000E-10     -0.1221  2.2519E+00
    4.5532    2.0000   46.5542   46.4833    5.8786    2.5085    3.9787   17.4059  1.0000E-10     -0.1221  1.8709E+00
    4.5534    2.0000   46.5542   46.4769    5.8793    2.5496    3.9583   17.4144  1.0000E-10     -0.1221  1.5538E+00
    4.5535    2.0000   46.5542   46.4705    5.8799    2.5907    3.9379   17.4230  1.0000E-10     -0.1221  1.2900E+00
    4.5536    2.0000   46.5542   46.4640    5.8805    2.6317    3.9175   17.4315  1.0000E-10     -0.1221  1.0707E+00
    4.5537    2.0000   46.5542   46.4576    5.8812    2.6728    3.8972   17.4400  1.0000E-10     -0.1221  8.8844E-01
    4.5538    2.0000   46.5542   46.4511    5.8818    2.7139    3.8768   17.4486  1.0000E-10     -0.1221  7.3701E-01
    4.5540    2.0000   46.5542   46.4447    5.8825    2.7549    3.8564   17.4571  1.0000E-10     -0.1221  6.1124E-01
    4.5541    2.0000   46.5542   46.4382    5.8831    2.7960    3.8361   17.4656  1.0000E-10     -0.1221  5.0682E-01
    4.5542    2.0000   46.5542   46.4318    5.8838    2.8371    3.8157   17.4741  1.0000E-10     -0.1221  4.2016E-01
    4.5543    2.0000   46.5542   46.4254    5.8844    2.8782    3.7953   17.4827  1.0000E-10     -0.1221  3.4825E-01
    4.5544    2.0000   46.5542   46.4189    5.8851    2.9192    3.7749   17.4912  1.0000E-10     -0.1221  2.8859E-01
    4.5545    2.0000   46.5542   46.4125    5.8857    2.9603    3.7546   17.4997  1.0000E-10     -0.1221  2.3912E-01
    4.5547    2.0000   46.5542   46.4060    5.8864    3.0014    3.7342   17.5083  3.2317E-04     -0.1221  1.9646E-01
    4.5548    2.0000   46.5542   46.3996    5.8870    3.0424    3.7138   17.5168  5.4619E-02     -0.1221  1.3878E-01
    4.5549    2.0000   46.5542   46.3932    5.8877    3.0834    3.6935   17.5253  7.1170E-01     -0.1221  7.3154E-02
    4.5549    4.0000   46.5542   46.3914    5.8879    3.0947    3.6879   17.5277  1.9422E+01     -0.1221  2.5161E-02
    4.5597    4.0000   46.5542   46.1358    5.8887    3.0963    3.6873   17.5615  1.9105E+01     -0.1221  2.3387E-02
    4.5644    4.0000   46.5542   45.8803    5.8895    3.0979    3.6867   17.5952  1.8789E+01     -0.1221  2.1694E-02
    4.5692    4.0000   46.5542   45.6247    5.8904    3.0994    3.6862   17.6290  1.8475E+01     -0.1221  2.0086E-02
    4.5739    4.0000   46.5542   45.3691    5.8912    3.1010    3.6856   17.6628  1.8162E+01     -0.1221  1.8563E-02
    4.5786    4.0000   46.5542   45.1136    5.8920    3.1026    3.6850   17.6966  1.7851E+01     -0.1221  1.7126E-02
    4.5834    4.0000   46.5542   44.8580    5.8929    3.1041    3.6844   17.7304  1.7540E+01     -0.1221  1.5773E-02
    4.5881    4.0000   46.5542   44.6024    5.8937    3.1057    3.6838   17.7642  1.7231E+01     -0.1221  1.4505E-02
    4.5929    4.0000   46.5542   44.3469    5.8946    3.1073    3.6833   17.7980  1.6924E+01     -0.1221  1.3320E-02
    4.5976    4.0000   46.5542   44.0913    5.8954    3.1089    3.6827   17.8318  1.6617E+01     -0.1221  1.2215E-02
    4.6023    4.0000   46.5542   43.8357    5.8962    3.1105    3.6821   17.8655  1.6312E+01     -0.1221  1.1188E-02
    4.6071    4.0000   46.5542   43.5802    5.8971    3.1120    3.6815   17.8993  1.6009E+01     -0.1221  1.0236E-02
    4.6118    4.0000   46.5542   43.3246    5.8979    3.1136    3.6809   17.9331  1.5707E+01     -0.1221  9.3560E-03
    4.6166    4.0000   46.5542   43.0690    5.8987    3.1152    3.6803   17.9669  1.5406E+01     -0.1221  8.5439E-03
    4.6213    4.0000   46.5542   42.8135    5.8996    3.1168    3.6797   18.0007  1.5107E+01     -0.1221  7.7961E-03
    4.6261    4.0000   46.5542   42.5579    5.9004    3.1184    3.6792   18.0345  1.4810E+01     -0.1221  7.1090E-03
    4.6308    4.0000   46.5542   42.3023    5.9013    3.1200    3.6786   18.0683  1.4514E+01     -0.1221  6.4788E-03
    4.6355    4.0000   46.5542   42.0468    5.9021    3.1217    3.6780   18.1021  1.4220E+01     -0.1221  5.9017E-03
    4.6403    4.0000   46.5542   41.7912    5.9029    3.1233    3.6774   18.1359  1.3927E+01     -0.1221  5.3739E-03
    4.6450    4.0000   46.5542   41.5356    5.9038    3.1249    3.6768   18.1696  1.3636E+01     -0.1221  4.8919E-03
    4.6498    4.0000   46.5542   41.2801    5.9046    3.1265    3.6762   18.2034  1.3346E+01     -0.1221  4.4523E-03
    4.6545    4.0000   46.5542   41.0245    5.9055    3.1281    3.6756   18.2372  1.3059E+01     -0.1221  4.0516E-03
    4.6592    4.0000   46.5542   40.7689    5.9063    3.1298    3.6750   18.2710  1.2773E+01     -0.1221  3.6867E-03
    4.6640    4.0000   46.5542   40.5134    5.9071    3.1314    3.6744   18.3048  1.2488E+01     -0.1221  3.3547E-03
    4.6687    4.0000   46.5542   40.2578    5.9080    3.1330    3.6738   18.3386  1.2206E+01     -0.1221  3.0527E-03
    4.6735    4.0000   46.5542   40.0022    5.9088    3.1346    3.6731   18.3724  1.1925E+01     -0.1221  2.7783E-03
    4.6782    4.0000   46.5542   39.7467    5.9096    3.1363    3.6725   18.4062  1.1646E+01     -0.1221  2.5288E-03
    4.6829    4.0000   46.5542   39.4911    5.9105    3.1379    3.6719   18.4399  1.1370E+01     -0.1221  2.3022E-03
    4.6877    4.0000   46.5542   39.2355    5.9113    3.1396    3.6713   18.4737  1.1095E+01     -0.1221  2.0963E-03
    4.6924    4.0000   46.5542   38.9799    5.9122    3.1412    3.6707   18.5075  1.0822E+01     -0.1221  1.9092E-03
    4.6972    4.0000   46.5542   38.7244    5.9130    3.1428    3.6701   18.5413  1.0551E+01     -0.1221  1.7393E-03
    4.7019    4.0000   46.5542   38.4688    5.9138    3.1445    3.6695   18.5751  1.0282E+01     -0.1221  1.5849E-03
    4.7066    4.0000   46.5542   38.2132    5.9147    3.1461    3.6689   18.6089  1.0015E+01     -0.1221  1.4446E-03
    4.7114    4.0000   46.5542   37.9577    5.9155    3.1478    3.6683   18.6427  9.7502E+00     -0.1221  1.3170E-03
    4.7161    4.0000   46.5542   37.7021    5.9163    3.1494    3.6676   18.6765  9.4877E+00     -0.1221  1.2010E-03
    4.7209    4.0000   46.5542   37.4465    5.9172    3.1511    3.6670   18.7103  9.2274E+00     -0.1221  1.0955E-03
    4.7256    4.0000   46.5542   37.1910    5.9180    3.1528    3.6664   18.7440  8.9693E+00     -0.1221  9.9948E-04
    4.7304    4.0000   46.5542   36.9354    5.9189    3.1544    3.6658   18.7778  8.7135E+00     -0.1221  9.1205E-04
    4.7351    4.0000   46.5542   36.6798    5.9197    3.1561    3.6652   18.8116  8.4600E+00     -0.1221  8.3242E-04
    4.7398    4.0000   46.5542   36.4243    5.9205    3.1577    3.6645   18.8454  8.2090E+00     -0.1221  7.5985E-04
    4.7446    4.0000   46.5542   36.1687    5.9214    3.1594    3.6639   18.8792  7.9603E+00     -0.1221  6.9367E-04
    4.7493    4.0000   46.5542   35.9131    5.9222    3.1611    3.6633   18.9130  7.7142E+00     -0.1221  6.3330E-04
    4.7541    4.0000   46.5542   35.6576    5.9230    3.1627    3.6627   18.9468  7.4706E+00     -0.1221  5.7820E-04
    4.7588    4.0000   46.5542   35.4020    5.9239    3.1644    3.6621   18.9806  7.2296E+00     -0.1221  5.2787E-04
    4.7635    4.0000   46.5542   35.1464    5.9247    3.1660    3.6614   19.0143  6.9912E+00     -0.1221  4.8188E-04
    4.7683    4.0000   46.5542   34.8909    5.9256    3.1677    3.6608   19.0481  6.7555E+00     -0.1221  4.3983E-04
    4.7730    4.0000   46.5542   34.6353    5.9264    3.1694    3.6602   19.0819  6.5225E+00     -0.1221  4.0136E-04
    4.7778    4.0000   46.5542   34.3797    5.9272    3.1710    3.6596   19.1157  6.2924E+00     -0.1221  3.6616E-04
    4.7825    4.0000   46.5542   34.1242    5.9281    3.1727    3.6589   19.1495  6.0651E+00     -0.1221  3.3392E-04
    4.7872    4.0000   46.5542   33.8686    5.9289    3.1743    3.6583   19.1833  5.8407E+00     -0.1221  3.0438E-04
    4.7920    4.0000   46.5542   33.6130    5.9298    3.1760    3.6577   19.2171  5.6194E+00     -0.1221  2.7730E-04
    4.7967    4.0000   46.5542   33.3575    5.9306    3.1776    3.6571   19.2509  5.4010E+00     -0.1221  2.5248E-04
    4.8015    4.0000   46.5542   33.1019    5.9314    3.1793    3.6565   19.2846  5.1858E+00     -0.1221  2.2971E-04
    4.8062    4.0000   46.5542   32.8463    5.9323    3.1809    3.6559   19.3184  4.9738E+00     -0.1221  2.0881E-04
    4.8109    4.0000   46.5542   32.5908    5.9331    3.1826    3.6553   19.3522  4.7650E+00     -0.1221  1.8963E-04
    4.8157    4.0000   46.5542   32.3352    5.9339    3.1842    3.6546   19.3860  4.5595E+00     -0.1221  1.7202E-04
    4.8204    4.0000   46.5542   32.0796    5.9348    3.1858    3.6540   19.4198  4.3574E+00     -0.1221  1.5585E-04
    4.8252    4.0000   46.5542   31.8241    5.9356    3.1875    3.6534   19.4536  4.1587E+00     -0.1221  1.4101E-04
    4.8299    4.0000   46.5542   31.5685    5.9365    3.1891    3.6528   19.4874  3.9636E+00     -0.1221  1.2737E-04
    4.8347    4.0000   46.5542   31.3129    5.9373    3.1907    3.6522   19.5212  3.7721E+00     -0.1221  1.1485E-04
    4.8394    4.0000   46.5542   31.0574    5.9381    3.1923    3.6517   19.5550  3.5843E+00     -0.1221  1.0336E-04
    4.8441    4.0000   46.5542   30.8018    5.9390    3.1939    3.6511   19.5887  3.4003E+00     -0.1221  9.2812E-05
    4.8489    4.0000   46.5542   30.5462    5.9398    3.1955    3.6505   19.6225  3.2201E+00     -0.1221  8.3138E-05
    4.8536    4.0000   46.5542   30.2907    5.9406    3.1970    3.6499   19.6563  3.0439E+00     -0.1221  7.4268E-05
    4.8584    4.0000   46.5542   30.0351    5.9415    3.1986    3.6493   19.6901  2.8716E+00     -0.1221  6.6144E-05
    4.8631    4.0000   46.5542   29.7795    5.9423    3.2001    3.6488   19.7239  2.7035E+00     -0.1221  5.8709E-05
    4.8678    4.0000   46.5542   29.5240    5.9432    3.2016    3.6482   19.7577  2.5396E+00     -0.1221  5.1914E-05
    4.8726    4.0000   46.5542   29.2684    5.9440    3.2032    3.6477   19.7915  2.3799E+00     -0.1221  4.5712E-05
    4.8773    4.0000   46.5542   29.0128    5.9448    3.2046    3.6472   19.8253  2.2246E+00     -0.1221  4.0062E-05
    4.8821    4.0000   46.5542   28.7573    5.9457    3.2061    3.6466   19.8590  2.0738E+00     -0.1221  3.4926E-05
    4.8868    4.0000   46.5542   28.5017    5.9465    3.2075    3.6461   19.8928  1.9276E+00     -0.1221  3.0268E-05
    4.8915    4.0000   46.5542   28.2451    5.9474    3.2089    3.6456   19.9266  1.7856E+00     -0.1221  2.6040E-05
    4.8963    4.0000   46.5542   27.9831    5.9482    3.2103    3.6451   19.9604  1.6459E+00     -0.1221  2.2148E-05
    4.9010    4.0000   46.5542   27.7152    5.9490    3.2117    3.6447   19.9942  1.5087E+00     -0.1221  1.8586E-05
    4.9058    4.0000   46.5542   27.4410    5.9499    3.2131    3.6442   20.0280  1.3743E+00     -0.1221  1.5349E-05
    4.9104    4.0000   46.5542   27.1666    5.9507    3.2144    3.6437   20.0610  1.2458E+00     -0.1221  1.2504E-05
    4.9149    4.0000   46.5542   26.8949    5.9515    3.2156    3.6433   20.0929  1.1247E+00     -0.1221  1.0053E-05
    4.9192    4.0000   46.5542   26.6260    5.9522    3.2168    3.6429   20.1238  1.0109E+00     -0.1221  7.9613E-06
    4.9234    4.0000   46.5542   26.3597    5.9530    3.2179    3.6426   20.1535  9.0412E-01     -0.1221  6.1944E-06
    4.9274    4.0000   46.5542   26.0961    5.9537    3.2188    3.6423   20.1823  8.0430E-01     -0.1221  4.7212E-06
    4.9313    4.0000   46.5542   25.8352    5.9544    3.2197    3.6420   20.2101  7.1128E-01     -0.1221  3.5119E-06
    4.9351    4.0000   46.5542   25.5768    5.9550    3.2205    3.6418   20.2369  6.2492E-01     -0.1221  2.5378E-06
    4.9387    4.0000   46.5542   25.3211    5.9557    3.2212    3.6416   20.2628  5.4508E-01     -0.1221  1.7714E-06
    4.9422    4.0000   46.5542   25.0679    5.9563    3.2218    3.6415   20.2878  4.7158E-01     -0.1221  1.1852E-06
    4.9456    4.0000   46.5542   24.8172    5.9569    3.2222    3.6414   20.3119  4.0429E-01     -0.1221  7.5266E-07
    4.9489    4.0000   46.5542   24.5690    5.9575    3.2225    3.6414   20.3351  3.4304E-01     -0.1221  4.4751E-07
    4.9520    4.0000   46.5542   24.3233    5.9580    3.2226    3.6415   20.3576  2.8766E-01     -0.1221  2.4434E-07
    4.9550    4.0000   46.5542   24.0801    5.9586    3.2226    3.6416   20.3792  2.3797E-01     -0.1221  1.1902E-07
    4.9580    4.0000   46.5542   23.8393    5.9591    3.2224    3.6419   20.4001  1.9379E-01     -0.1221  4.9382E-08
    4.9608    4.0000   46.5542   23.6009    5.9596    3.2219    3.6422   20.4202  1.5492E-01     -0.1221  1.6051E-08
    4.9635    4.0000   46.5542   23.3649    5.9601    3.2212    3.6427   20.4396  1.2114E-01     -0.1221  3.3939E-09
    4.9661    4.0000   46.5542   23.1312    5.9605    3.2202    3.6433   20.4582  9.2234E-02     -0.1221  2.2135E-10
    4.9687    4.0000   46.5542   22.8999    5.9610    3.2189    3.6441   20.4762  6.7943E-02     -0.1221  3.1405E-16
    4.9711    4.0000   46.5542   22.6709    5.9614    3.2171    3.6451   20.4936  4.8001E-02     -0.1221  3.8750E-16
    4.9734    4.0000   46.5542   22.4442    5.9618    3.2147    3.6464   20.5103  3.2107E-02     -0.1221  4.9059E-16
    4.9757    4.0000   46.5542   22.2198    5.9622    3.2117    3.6480   20.5264  1.9930E-02     -0.1221  6.4123E-16
    4.9779    4.0000   46.5542   21.9976    5.9626    3.2077    3.6501   20.5418  1.1101E-02     -0.1221  8.7284E-16
    4.9800    4.0000   46.5542   21.7776    5.9630    3.2023    3.6529   20.5567  5.2030E-03     -0.1221  1.2529E-15
    4.9820    4.0000   46.5542   21.5598    5.9633    3.1945    3.6568   20.5711  1.7703E-03     -0.1221  1.9316E-15
    4.9839    4.0000   46.5542   21.3442    5.9637    3.1819    3.6633   20.5849  2.7078E-04     -0.1221  3.2754E-15
    4.9858    4.0000   46.5542   21.1308    5.9640    3.1550    3.6768   20.5981  3.1429E-07     -0.1221  6.0981E-15
    4.9876    4.0000   46.5542   20.9195    5.9642    3.0468    3.7309   20.6109  1.0000E-10     -0.1221  1.6927E-14
    4.9893    4.0000   46.5542   20.7103    5.9583    1.2730    4.6164   20.6232  1.0000E-10     -0.1221  8.9650E-12
    4.9895    4.0000   46.5542   20.7094    5.9578    1.2100    4.6477   20.6250  1.0000E-10     -0.1221  9.1651E-12
    4.9898    4.0000   46.5542   20.7087    5.9572    1.1492    4.6780   20.6268  1.0000E-10     -0.1221  9.3221E-12
    4.9900    4.0000   46.5542   20.7080    5.9566    1.0902    4.7073   20.6286  1.0000E-10     -0.1221  9.4469E-12
    4.9903    4.0000   46.5542   20.7075    5.9559    1.0328    4.7358   20.6304  1.0000E-10     -0.1221  9.5472E-12
    4.9906    4.0000   46.5542   20.7069    5.9552    0.9768    4.7637   20.6323  1.0000E-10     -0.1221  9.6289E-12
    4.9908    4.0000   46.5542   20.7064    5.9543    0.9220    4.7909   20.6341  1.0000E-10     -0.1221  9.6963E-12
    4.9911    4.0000   46.5542   20.7060    5.9534    0.8682    4.8175   20.6360  1.0000E-10     -0.1221  9.7526E-12
    4.9914    4.0000   46.5542   20.7056    5.9524    0.8154    4.8437   20.6380  1.0000E-10     -0.1221  9.8003E-12
    4.9916    4.0000   46.5542   20.7052    5.9512    0.7633    4.8694   20.6400  1.0000E-10     -0.1221  9.8412E-12
    4.9919    4.0000   46.5542   20.7049    5.9498    0.7119    4.8948   20.6420  1.0000E-10     -0.1221  9.8767E-12
    4.9922    4.0000   46.5542   20.7046    5.9483    0.6612    4.9198   20.6442  1.0000E-10     -0.1221  9.9080E-12
    4.9925    4.0000   46.5542   20.7043    5.9464    0.6109    4.9444   20.6464  1.0000E-10     -0.1221  9.9358E-12
    4.9929    4.0000   46.5542   20.7040    5.9442    0.5610    4.9688   20.6488  1.0000E-10     -0.1221  9.9610E-12
    4.9932    4.0000   46.5542   20.7037    5.9415    0.5114    4.9930   20.6514  1.0000E-10     -0.1221  9.9841E-12
    4.9936    4.0000   46.5542   20.7034    5.9381    0.4619    5.0168   20.6541  1.0000E-10     -0.1221  1.0006E-11
    4.9940    4.0000   46.5542   20.7032    5.9343    0.4172    5.0382   20.6569  1.0000E-10     -0.1221  1.0024E-11
    4.9944    4.0000   46.5542   20.7030    5.9293    0.3728    5.0592   20.6599  1.0000E-10     -0.1221  1.0042E-11
    4.9949    4.0000   46.5542   20.7027    5.9227    0.3285    5.0797   20.6634  1.0000E-10     -0.1221  1.0061E-11
    4.9955    4.0000   46.5542   20.7025    5.9134    0.2842    5.0995   20.6676  1.0000E-10     -0.1221  1.0080E-11
    4.9963    4.0000   46.5542   20.7022    5.8992    0.2392    5.1185   20.6733  1.0000E-10     -0.1221  1.0102E-11
    4.9976    4.0000   46.5542   20.7018    5.8758    0.1950    5.1347   20.6828  1.0000E-10     -0.1221  1.0135E-11
    5.0003    7.0000   20.7013   20.7013    5.8621    0.1767    5.1404    0.0000  2.0701E+01      4.6087  1.9575E-11
    5.0096    7.0000   20.4942   20.4942    5.8581    0.1703    5.1426    0.0000  2.0494E+01      4.6065  2.0329E-11
    5.0189    7.0000   20.2893   20.2893    5.8540    0.1633    5.1451    0.0000  2.0289E+01      4.6043  2.1181E-11
    5.0258    7.0000   20.1396   20.1396    5.8510    0.1575    5.1472    0.0000  2.0140E+01      4.6026  2.1883E-11
    5.0258    7.0000   20.1390   20.1390    5.8510    0.1575    5.1472    0.0000  2.0139E+01      4.6026  2.1886E-11
    5.0258   14.0000   20.1390   19.6390  -10.0000   -4.0795    3.3030   19.6390  1.0000E-10      5.0258  2.0000E+08
    5.1258   14.0000   20.1390   19.6390  -10.0000   -4.0795    3.3030   19.6390  1.0000E-10      5.0258  2.0000E+08
    6.1258   14.0000   20.1390   19.6390  -10.0000   -4.0795    3.3030   19.6390  1.0000E-10      5.0258  2.0000E+08
   16.1258   14.0000   20.1390   19.6390  -10.0000   -4.0795    3.3030   19.6390  1.0000E-10      5.0258  2.0000E+08
  116.1258   14.0000   20.1390   19.6390  -10.0000   -4.0795    3.3030   19.6390  1.0000E-10      5.0258  2.0000E+08
  616.1258   14.0000   20.1390   19.6390  -10.0000   -4.0795    3.3030   19.6390  1.0000E-10      5.0258  2.0000E+08
 1116.1259   14.0000   20.1390   19.6390  -10.0000   -4.0795    3.3030   19.6390  1.0000E-10      5.0258  2.0000E+08
 1616.1259   14.0000   20.1390   19.6390  -10.0000   -4.0795    3.3030   19.6390  1.0000E-10      5.0258  2.0000E+08
 2116.1257   14.0000   20.1390   19.6390  -10.0000   -4.0795    3.3030   19.6390  1.0000E-10      5.0258  2.0000E+08
 2616.1257   14.0000   20.1390   19.6390  -10.0000   -4.0795    3.3030   19.6390  1.0000E-10      5.0258  2.0000E+08
 3116.1257   14.0000   20.1390   19.6390  -10.0000   -4.0795    3.3030   19.6390  1.0000E-10      5.0258  2.0000E+08
 3616.1257   14.0000   20.1390   19.6390  -10.0000   -4.0795    3.3030   19.6390  1.0000E-10      5.0258  2.0000E+08
 4116.1260   14.0000   20.1390   19.6390  -10.0000   -4.0795    3.3030   19.6390  1.0000E-10      5.0258  2.0000E+08
 4616.1260   14.0000   20.1390   19.6390  -10.0000   -4.0795    3.3030   19.6390  1.0000E-10      5.0258  2.0000E+08
 5116.1260   14.0000   20.1390   19.6390  -10.0000   -4.0795    3.3030   19.6390  1.0000E-10      5.0258  2.0000E+08
 5616.1260   14.0000   20.1390   19.6390  -10.0000   -4.0795    3.3030   19.6390  1.0000E-10      5.0258  2.0000E+08
 6116.1260   14.0000   20.1390   19.6390  -10.0000   -4.0795    3.3030   19.6390  1.0000E-10      5.0258  2.0000E+08
 6616.1260   14.0000   20.1390   19.6390  -10.0000   -4.0795    3.3030   19.6390  1.0000E-10      5.0258  2.0000E+08
 7116.1260   14.0000   20.1390   19.6390  -10.0000   -4.0795    3.3030   19.6390  1.0000E-10      5.0258  2.0000E+08
 7616.1260   14.0000   20.1390   19.6390  -10.0000   -4.0795    3.3030   19.6390  1.0000E-10      5.0258  2.0000E+08
 8116.1260   14.0000   20.1390   19.6390  -10.0000   -4.0795    3.3030   19.6390  1.0000E-10      5.0258  2.0000E+08
 8616.1260   14.0000   20.1390   19.6390  -10.0000   -4.0795    3.3030   19.6390  1.0000E-10      5.0258  2.0000E+08
 9116.1260   14.0000   20.1390   19.6390  -10.0000   -4.0795    3.3030   19.6390  1.0000E-10      5.0258  2.0000E+08
 9616.1260   14.0000   20.1390   19.6390  -10.0000   -4.0795    3.3030   19.6390  1.0000E-10      5.0258  2.0000E+08
10116.1260   14.0000   20.1390   19.6390  -10.0000   -4.0795    3.3030   19.6390  1.0000E-10      5.0258  2.0000E+08
10616.1260   14.0000   20.1390   19.6390  -10.0000   -4.0795    3.3030   19.6390  1.0000E-10      5.0258  2.0000E+08
11116.1260   14.0000   20.1390   19.6390  -10.0000   -4.0795    3.3030   19.6390  1.0000E-10      5.0258  2.0000E+08
11616.1260   14.0000   20.1390   19.6390  -10.0000   -4.0795    3.3030   19.6390  1.0000E-10      5.0258  2.0000E+08
12116.1260   14.0000   20.1390   19.6390  -10.0000   -4.0795    3.3030   19.6390  1.0000E-10      5.0258  2.0000E+08
12616.1260   14.0000   20.1390   19.6390  -10.0000   -4.0795    3.3030   19.6390  1.0000E-10      5.0258  2.0000E+08
13116.1260   14.0000   20.1390   19.6390  -10.0000   -4.0795    3.3030   19.6390  1.0000E-10      5.0258  2.0000E+08
13616.1260   14.0000   20.1390   19.6390  -10.0000   -4.0795    3.3030   19.6390  1.0000E-10      5.0258  2.0000E+08
14116.1260   14.0000   20.1390   19.6390  -10.0000   -4.0795    3.3030   19.6390  1.0000E-10      5.0258  2.0000E+08
14616.1260   14.0000   20.1390   19.6390  -10.0000   -4.0795    3.3030   19.6390  1.0000E-10      5.0258  2.0000E+08
15000.0000   14.0000   20.1390   19.6390  -10.0000   -4.0795    3.3030   19.6390  1.0000E-10      5.0258  2.0000E+08
   -1.0000   14.0000   20.1390   19.6390  -10.0000   -4.0795    3.3030   19.6390  1.0000E-10      5.0258  2.0000E+08
