 Tev(Myr)    type      Mo        Mt      log10(L)  log10(R) log10(Teff)  Mc        Menv              epoch      spin                                  
    0.0000    1.0000  600.0000  600.0000    7.3244    1.7464    4.7212    0.0000  1.0000E-10      0.0000  1.0280E+02
    0.0074    1.0000  594.0000  594.0000    7.3182    1.7462    4.7197    0.0000  1.0000E-10      0.0000  2.0790E+01
    0.0150    1.0000  588.0600  588.0600    7.3119    1.7461    4.7182    0.0000  1.0000E-10     -0.0000  5.3918E+00
    0.0226    1.0000  582.1794  582.1794    7.3056    1.7459    4.7167    0.0000  1.0000E-10     -0.0000  1.6616E+00
    0.0303    1.0000  576.3576  576.3576    7.2994    1.7457    4.7153    0.0000  1.0000E-10     -0.0000  5.8217E-01
    0.0381    1.0000  570.5941  570.5941    7.2931    1.7455    4.7138    0.0000  1.0000E-10     -0.0000  2.2542E-01
    0.0459    1.0000  564.8881  564.8881    7.2869    1.7453    4.7124    0.0000  1.0000E-10     -0.0000  9.4594E-02
    0.0539    1.0000  559.2392  559.2392    7.2806    1.7450    4.7109    0.0000  1.0000E-10     -0.0000  4.2416E-02
    0.0620    1.0000  553.6468  553.6468    7.2744    1.7447    4.7095    0.0000  1.0000E-10     -0.0000  2.0109E-02
    0.0701    1.0000  548.1104  548.1104    7.2682    1.7445    4.7081    0.0000  1.0000E-10     -0.0000  9.9972E-03
    0.0783    1.0000  542.6293  542.6293    7.2620    1.7442    4.7067    0.0000  1.0000E-10     -0.0001  5.1784E-03
    0.0867    1.0000  537.2029  537.2029    7.2559    1.7439    4.7053    0.0000  1.0000E-10     -0.0001  2.7802E-03
    0.0951    1.0000  531.8309  531.8309    7.2497    1.7435    4.7039    0.0000  1.0000E-10     -0.0001  1.5406E-03
    0.1036    1.0000  526.5126  526.5126    7.2436    1.7432    4.7026    0.0000  1.0000E-10     -0.0001  8.7794E-04
    0.1122    1.0000  521.2475  521.2475    7.2374    1.7428    4.7012    0.0000  1.0000E-10     -0.0001  5.1303E-04
    0.1209    1.0000  516.0350  516.0350    7.2313    1.7425    4.6999    0.0000  1.0000E-10     -0.0001  3.0663E-04
    0.1297    1.0000  510.8747  510.8747    7.2252    1.7421    4.6985    0.0000  1.0000E-10     -0.0002  1.8705E-04
    0.1387    1.0000  505.7659  505.7659    7.2191    1.7417    4.6972    0.0000  1.0000E-10     -0.0002  1.1624E-04
    0.1477    1.0000  500.7083  500.7083    7.2130    1.7413    4.6959    0.0000  1.0000E-10     -0.0002  7.3468E-05
    0.1568    1.0000  495.7012  495.7012    7.2069    1.7408    4.6946    0.0000  1.0000E-10     -0.0003  4.7162E-05
    0.1660    1.0000  490.7442  490.7442    7.2009    1.7404    4.6933    0.0000  1.0000E-10     -0.0003  3.0710E-05
    0.1753    1.0000  485.8367  485.8367    7.1948    1.7399    4.6920    0.0000  1.0000E-10     -0.0003  2.0263E-05
    0.1847    1.0000  480.9784  480.9784    7.1888    1.7394    4.6907    0.0000  1.0000E-10     -0.0004  1.3534E-05
    0.1942    1.0000  476.1686  476.1686    7.1828    1.7390    4.6895    0.0000  1.0000E-10     -0.0004  9.1420E-06
    0.2038    1.0000  471.4069  471.4069    7.1768    1.7384    4.6882    0.0000  1.0000E-10     -0.0004  6.2409E-06
    0.2135    1.0000  466.6928  466.6928    7.1708    1.7379    4.6870    0.0000  1.0000E-10     -0.0005  4.3025E-06
    0.2234    1.0000  462.0259  462.0259    7.1648    1.7374    4.6858    0.0000  1.0000E-10     -0.0005  2.9936E-06
    0.2333    1.0000  457.4056  457.4056    7.1589    1.7368    4.6846    0.0000  1.0000E-10     -0.0006  2.1008E-06
    0.2433    1.0000  452.8316  452.8316    7.1529    1.7363    4.6834    0.0000  1.0000E-10     -0.0006  1.4863E-06
    0.2535    1.0000  448.3033  448.3033    7.1470    1.7357    4.6822    0.0000  1.0000E-10     -0.0007  1.0596E-06
    0.2638    1.0000  443.8202  443.8202    7.1411    1.7351    4.6810    0.0000  1.0000E-10     -0.0008  7.6076E-07
    0.2741    1.0000  439.3820  439.3820    7.1352    1.7345    4.6798    0.0000  1.0000E-10     -0.0008  5.4992E-07
    0.2846    1.0000  434.9882  434.9882    7.1294    1.7339    4.6787    0.0000  1.0000E-10     -0.0009  4.0006E-07
    0.2952    1.0000  430.6383  430.6383    7.1235    1.7333    4.6775    0.0000  1.0000E-10     -0.0010  2.9281E-07
    0.3059    1.0000  426.3319  426.3319    7.1177    1.7326    4.6764    0.0000  1.0000E-10     -0.0010  2.1553E-07
    0.3167    1.0000  422.0686  422.0686    7.1118    1.7320    4.6752    0.0000  1.0000E-10     -0.0011  1.5951E-07
    0.3276    1.0000  417.8479  417.8479    7.1060    1.7313    4.6741    0.0000  1.0000E-10     -0.0012  1.1867E-07
    0.3387    1.0000  413.6695  413.6695    7.1002    1.7306    4.6730    0.0000  1.0000E-10     -0.0013  8.8711E-08
    0.3499    1.0000  409.5327  409.5327    7.0945    1.7299    4.6719    0.0000  1.0000E-10     -0.0014  6.6628E-08
    0.3611    1.0000  405.4374  405.4374    7.0887    1.7292    4.6708    0.0000  1.0000E-10     -0.0015  5.0265E-08
    0.3725    1.0000  401.3831  401.3831    7.0830    1.7285    4.6698    0.0000  1.0000E-10     -0.0016  3.8081E-08
    0.3840    1.0000  397.3692  397.3692    7.0773    1.7278    4.6687    0.0000  1.0000E-10     -0.0017  2.8967E-08
    0.3957    1.0000  393.3955  393.3955    7.0716    1.7271    4.6676    0.0000  1.0000E-10     -0.0018  2.2120E-08
    0.4074    1.0000  389.4616  389.4616    7.0659    1.7263    4.6666    0.0000  1.0000E-10     -0.0019  1.6954E-08
    0.4193    1.0000  385.5670  385.5670    7.0603    1.7256    4.6656    0.0000  1.0000E-10     -0.0021  1.3040E-08
    0.4312    1.0000  381.7113  381.7113    7.0546    1.7248    4.6645    0.0000  1.0000E-10     -0.0022  1.0064E-08
    0.4433    1.0000  377.8942  377.8942    7.0490    1.7240    4.6635    0.0000  1.0000E-10     -0.0023  7.7921E-09
    0.4556    1.0000  374.1152  374.1152    7.0434    1.7232    4.6625    0.0000  1.0000E-10     -0.0025  6.0519E-09
    0.4679    1.0000  370.3741  370.3741    7.0378    1.7224    4.6615    0.0000  1.0000E-10     -0.0026  4.7144E-09
    0.4804    1.0000  366.6703  366.6703    7.0323    1.7216    4.6605    0.0000  1.0000E-10     -0.0027  3.6829E-09
    0.4930    1.0000  363.0036  363.0036    7.0267    1.7208    4.6596    0.0000  1.0000E-10     -0.0029  2.8851E-09
    0.5057    1.0000  359.3736  359.3736    7.0212    1.7200    4.6586    0.0000  1.0000E-10     -0.0031  2.2660E-09
    0.5185    1.0000  355.7799  355.7799    7.0157    1.7191    4.6576    0.0000  1.0000E-10     -0.0032  1.7843E-09
    0.5315    1.0000  352.2221  352.2221    7.0103    1.7183    4.6567    0.0000  1.0000E-10     -0.0034  1.4085E-09
    0.5446    1.0000  348.6999  348.6999    7.0048    1.7175    4.6557    0.0000  1.0000E-10     -0.0036  1.1144E-09
    0.5578    1.0000  345.2129  345.2129    6.9994    1.7166    4.6548    0.0000  1.0000E-10     -0.0038  8.8367E-10
    0.5711    1.0000  341.7607  341.7607    6.9940    1.7157    4.6539    0.0000  1.0000E-10     -0.0040  7.0226E-10
    0.5846    1.0000  338.3431  338.3431    6.9886    1.7149    4.6530    0.0000  1.0000E-10     -0.0042  5.5926E-10
    0.5981    1.0000  334.9597  334.9597    6.9832    1.7140    4.6521    0.0000  1.0000E-10     -0.0044  4.4627E-10
    0.6118    1.0000  331.6101  331.6101    6.9779    1.7131    4.6512    0.0000  1.0000E-10     -0.0046  3.5681E-10
    0.6257    1.0000  328.2940  328.2940    6.9725    1.7122    4.6503    0.0000  1.0000E-10     -0.0049  2.8581E-10
    0.6396    1.0000  325.0110  325.0110    6.9672    1.7114    4.6494    0.0000  1.0000E-10     -0.0051  2.2935E-10
    0.6537    1.0000  321.7609  321.7609    6.9619    1.7105    4.6485    0.0000  1.0000E-10     -0.0054  1.8436E-10
    0.6679    1.0000  318.5433  318.5433    6.9567    1.7096    4.6477    0.0000  1.0000E-10     -0.0056  1.4845E-10
    0.6823    1.0000  315.3579  315.3579    6.9515    1.7087    4.6468    0.0000  1.0000E-10     -0.0059  1.1973E-10
    0.6967    1.0000  312.2043  312.2043    6.9462    1.7078    4.6459    0.0000  1.0000E-10     -0.0062  9.6709E-11
    0.7113    1.0000  309.0823  309.0823    6.9411    1.7069    4.6451    0.0000  1.0000E-10     -0.0065  7.8234E-11
    0.7260    1.0000  305.9915  305.9915    6.9359    1.7060    4.6443    0.0000  1.0000E-10     -0.0068  6.3380E-11
    0.7409    1.0000  302.9315  302.9315    6.9307    1.7051    4.6434    0.0000  1.0000E-10     -0.0071  5.1418E-11
    0.7558    1.0000  299.9022  299.9022    6.9256    1.7042    4.6426    0.0000  1.0000E-10     -0.0074  4.1770E-11
    0.7709    1.0000  296.9032  296.9032    6.9205    1.7033    4.6418    0.0000  1.0000E-10     -0.0077  3.3976E-11
    0.7861    1.0000  293.9342  293.9342    6.9154    1.7024    4.6409    0.0000  1.0000E-10     -0.0081  2.7670E-11
    0.8015    1.0000  290.9948  290.9948    6.9104    1.7015    4.6401    0.0000  1.0000E-10     -0.0084  2.2562E-11
    0.8169    1.0000  288.0849  288.0849    6.9053    1.7006    4.6393    0.0000  1.0000E-10     -0.0088  1.8418E-11
    0.8325    1.0000  285.2040  285.2040    6.9003    1.6997    4.6385    0.0000  1.0000E-10     -0.0092  1.5052E-11
    0.8483    1.0000  282.3520  282.3520    6.8953    1.6988    4.6377    0.0000  1.0000E-10     -0.0096  1.2314E-11
    0.8641    1.0000  279.5285  279.5285    6.8904    1.6979    4.6369    0.0000  1.0000E-10     -0.0100  1.0085E-11
    0.8801    1.0000  276.7332  276.7332    6.8854    1.6970    4.6361    0.0000  1.0000E-10     -0.0104  8.2673E-12
    0.8961    1.0000  273.9659  273.9659    6.8805    1.6961    4.6353    0.0000  1.0000E-10     -0.0109  6.7836E-12
    0.9124    1.0000  271.2262  271.2262    6.8756    1.6953    4.6345    0.0000  1.0000E-10     -0.0113  5.5713E-12
    0.9287    1.0000  268.5139  268.5139    6.8708    1.6944    4.6337    0.0000  1.0000E-10     -0.0118  4.5796E-12
    0.9451    1.0000  265.8288  265.8288    6.8659    1.6936    4.6330    0.0000  1.0000E-10     -0.0123  3.7676E-12
    0.9617    1.0000  263.1705  263.1705    6.8611    1.6927    4.6322    0.0000  1.0000E-10     -0.0128  3.1020E-12
    0.9784    1.0000  260.5388  260.5388    6.8563    1.6919    4.6314    0.0000  1.0000E-10     -0.0133  2.5559E-12
    0.9952    1.0000  257.9334  257.9334    6.8515    1.6911    4.6306    0.0000  1.0000E-10     -0.0138  2.1076E-12
    1.0122    1.0000  255.3541  255.3541    6.8467    1.6903    4.6298    0.0000  1.0000E-10     -0.0144  1.7390E-12
    1.0292    1.0000  252.8005  252.8005    6.8420    1.6895    4.6290    0.0000  1.0000E-10     -0.0150  1.4359E-12
    1.0464    1.0000  250.2725  250.2725    6.8372    1.6887    4.6282    0.0000  1.0000E-10     -0.0155  1.1863E-12
    1.0637    1.0000  247.7698  247.7698    6.8325    1.6879    4.6274    0.0000  1.0000E-10     -0.0161  9.8072E-13
    1.0811    1.0000  245.2921  245.2921    6.8279    1.6872    4.6266    0.0000  1.0000E-10     -0.0168  8.1120E-13
    1.0986    1.0000  242.8392  242.8392    6.8232    1.6864    4.6258    0.0000  1.0000E-10     -0.0174  6.7134E-13
    1.1162    1.0000  240.4108  240.4108    6.8186    1.6857    4.6250    0.0000  1.0000E-10     -0.0181  5.5586E-13
    1.1462    1.0000  238.0067  238.0067    6.8155    1.6873    4.6235    0.0000  1.0000E-10     -0.0188  4.5712E-13
    1.1759    1.0000  235.6266  235.6266    6.8124    1.6888    4.6220    0.0000  1.0000E-10     -0.0195  3.7594E-13
    1.2052    1.0000  233.2704  233.2704    6.8093    1.6902    4.6205    0.0000  1.0000E-10     -0.0202  3.0918E-13
    1.2341    1.0000  230.9377  230.9377    6.8062    1.6916    4.6190    0.0000  1.0000E-10     -0.0210  2.5427E-13
    1.2627    1.0000  228.6283  228.6283    6.8031    1.6929    4.6176    0.0000  1.0000E-10     -0.0218  2.0911E-13
    1.2910    1.0000  226.3420  226.3420    6.7999    1.6942    4.6162    0.0000  1.0000E-10     -0.0227  1.7196E-13
    1.3190    1.0000  224.0786  224.0786    6.7968    1.6954    4.6148    0.0000  1.0000E-10     -0.0235  1.4139E-13
    1.3466    1.0000  221.8378  221.8378    6.7936    1.6966    4.6134    0.0000  1.0000E-10     -0.0244  1.1625E-13
    1.3739    1.0000  219.6194  219.6194    6.7904    1.6978    4.6120    0.0000  1.0000E-10     -0.0254  9.5563E-14
    1.4010    1.0000  217.4232  217.4232    6.7872    1.6990    4.6106    0.0000  1.0000E-10     -0.0263  7.8543E-14
    1.4277    1.0000  215.2490  215.2490    6.7839    1.7001    4.6092    0.0000  1.0000E-10     -0.0273  6.4542E-14
    1.4542    1.0000  213.0965  213.0965    6.7807    1.7012    4.6078    0.0000  1.0000E-10     -0.0284  5.3024E-14
    1.4804    1.0000  210.9655  210.9655    6.7774    1.7024    4.6064    0.0000  1.0000E-10     -0.0294  4.3549E-14
    1.5064    1.0000  208.8559  208.8559    6.7741    1.7035    4.6050    0.0000  1.0000E-10     -0.0305  3.5757E-14
    1.5321    1.0000  206.7673  206.7673    6.7707    1.7046    4.6036    0.0000  1.0000E-10     -0.0317  2.9350E-14
    1.5576    1.0000  204.6996  204.6996    6.7674    1.7058    4.6022    0.0000  1.0000E-10     -0.0328  2.4081E-14
    1.5828    1.0000  202.6526  202.6526    6.7640    1.7069    4.6008    0.0000  1.0000E-10     -0.0341  1.9751E-14
    1.6079    1.0000  200.6261  200.6261    6.7606    1.7081    4.5994    0.0000  1.0000E-10     -0.0353  1.6192E-14
    1.6327    1.0000  198.6199  198.6199    6.7571    1.7093    4.5979    0.0000  1.0000E-10     -0.0366  1.3268E-14
    1.6572    1.0000  196.6337  196.6337    6.7537    1.7105    4.5964    0.0000  1.0000E-10     -0.0379  1.0866E-14
    1.6816    1.0000  194.6673  194.6673    6.7502    1.7118    4.5949    0.0000  1.0000E-10     -0.0393  8.8943E-15
    1.7058    1.0000  192.7206  192.7206    6.7467    1.7131    4.5934    0.0000  1.0000E-10     -0.0407  7.2759E-15
    1.7298    1.0000  190.7934  190.7934    6.7432    1.7144    4.5919    0.0000  1.0000E-10     -0.0422  5.9482E-15
    1.7536    1.0000  188.8855  188.8855    6.7396    1.7158    4.5903    0.0000  1.0000E-10     -0.0437  5.5463E-15
    1.7773    1.0000  186.9966  186.9966    6.7360    1.7172    4.5887    0.0000  1.0000E-10     -0.0452  5.5806E-15
    1.8007    1.0000  185.1267  185.1267    6.7324    1.7187    4.5870    0.0000  1.0000E-10     -0.0468  5.6142E-15
    1.8240    1.0000  183.2754  183.2754    6.7288    1.7203    4.5853    0.0000  1.0000E-10     -0.0484  5.6471E-15
    1.8472    1.0000  181.4427  181.4427    6.7251    1.7219    4.5836    0.0000  1.0000E-10     -0.0501  5.6792E-15
    1.8702    1.0000  179.6282  179.6282    6.7215    1.7236    4.5818    0.0000  1.0000E-10     -0.0519  5.7103E-15
    1.8931    1.0000  177.8320  177.8320    6.7178    1.7254    4.5800    0.0000  1.0000E-10     -0.0536  5.7402E-15
    1.9158    1.0000  176.0536  176.0536    6.7140    1.7272    4.5782    0.0000  1.0000E-10     -0.0554  5.7688E-15
    1.9384    1.0000  174.2931  174.2931    6.7103    1.7292    4.5762    0.0000  1.0000E-10     -0.0573  5.7960E-15
    1.9609    1.0000  172.5502  172.5502    6.7065    1.7312    4.5743    0.0000  1.0000E-10     -0.0592  5.8215E-15
    1.9832    1.0000  170.8247  170.8247    6.7027    1.7334    4.5722    0.0000  1.0000E-10     -0.0612  5.8453E-15
    2.0055    1.0000  169.1164  169.1164    6.6989    1.7357    4.5702    0.0000  1.0000E-10     -0.0632  5.8671E-15
    2.0277    1.0000  167.4252  167.4252    6.6951    1.7381    4.5680    0.0000  1.0000E-10     -0.0653  5.8867E-15
    2.0498    1.0000  165.7510  165.7510    6.6912    1.7406    4.5658    0.0000  1.0000E-10     -0.0675  5.9040E-15
    2.0718    1.0000  164.0935  164.0935    6.6873    1.7433    4.5635    0.0000  1.0000E-10     -0.0696  5.9187E-15
    2.0937    1.0000  162.4526  162.4526    6.6834    1.7461    4.5611    0.0000  1.0000E-10     -0.0719  5.9306E-15
    2.1155    1.0000  160.8280  160.8280    6.6795    1.7490    4.5586    0.0000  1.0000E-10     -0.0742  5.9394E-15
    2.1374    1.0000  159.2198  159.2198    6.6756    1.7521    4.5561    0.0000  1.0000E-10     -0.0766  5.9449E-15
    2.1591    1.0000  157.6275  157.6275    6.6716    1.7554    4.5535    0.0000  1.0000E-10     -0.0790  5.9469E-15
    2.1809    1.0000  156.0513  156.0513    6.6677    1.7589    4.5507    0.0000  1.0000E-10     -0.0815  5.9450E-15
    2.2026    1.0000  154.4908  154.4908    6.6637    1.7626    4.5479    0.0000  1.0000E-10     -0.0840  5.9390E-15
    2.2243    1.0000  152.9459  152.9459    6.6597    1.7665    4.5449    0.0000  1.0000E-10     -0.0866  5.9286E-15
    2.2460    1.0000  151.4164  151.4164    6.6557    1.7707    4.5419    0.0000  1.0000E-10     -0.0893  5.9133E-15
    2.2678    1.0000  149.9022  149.9022    6.6517    1.7751    4.5387    0.0000  1.0000E-10     -0.0921  5.8928E-15
    2.2896    1.0000  148.4032  148.4032    6.6477    1.7797    4.5353    0.0000  1.0000E-10     -0.0949  5.8669E-15
    2.3114    1.0000  146.9192  146.9192    6.6437    1.7847    4.5319    0.0000  1.0000E-10     -0.0978  5.8349E-15
    2.3333    1.0000  145.4500  145.4500    6.6397    1.7899    4.5282    0.0000  1.0000E-10     -0.1007  5.7966E-15
    2.3553    1.0000  143.9955  143.9955    6.6357    1.7955    4.5244    0.0000  1.0000E-10     -0.1037  5.7513E-15
    2.3774    1.0000  142.5555  142.5555    6.6317    1.8015    4.5204    0.0000  1.0000E-10     -0.1068  5.6987E-15
    2.3997    1.0000  141.1300  141.1300    6.6277    1.8079    4.5163    0.0000  1.0000E-10     -0.1100  5.6381E-15
    2.4221    1.0000  139.7187  139.7187    6.6237    1.8147    4.5119    0.0000  1.0000E-10     -0.1133  5.5690E-15
    2.4448    1.0000  138.3215  138.3215    6.6197    1.8220    4.5072    0.0000  1.0000E-10     -0.1166  5.4906E-15
    2.4677    1.0000  136.9383  136.9383    6.6158    1.8298    4.5023    0.0000  1.0000E-10     -0.1200  5.4022E-15
    2.4908    1.0000  135.5689  135.5689    6.6119    1.8382    4.4971    0.0000  1.0000E-10     -0.1235  5.3031E-15
    2.5144    1.0000  134.2132  134.2132    6.6080    1.8474    4.4916    0.0000  1.0000E-10     -0.1271  5.1923E-15
    2.5383    1.0000  132.8711  132.8711    6.6042    1.8572    4.4857    0.0000  1.0000E-10     -0.1308  5.0688E-15
    2.5627    1.0000  131.5424  131.5424    6.6005    1.8680    4.4794    0.0000  1.0000E-10     -0.1346  4.9315E-15
    2.5878    1.0000  130.2269  130.2269    6.5968    1.8797    4.4726    0.0000  1.0000E-10     -0.1385  4.7790E-15
    2.6135    1.0000  128.9247  128.9247    6.5932    1.8927    4.4652    0.0000  1.0000E-10     -0.1424  4.6098E-15
    2.6400    1.0000  127.6354  127.6354    6.5898    1.9070    4.4572    0.0000  1.0000E-10     -0.1465  4.4221E-15
    2.6675    1.0000  126.3591  126.3591    6.5865    1.9230    4.4484    0.0000  1.0000E-10     -0.1506  4.2138E-15
    2.6964    1.0000  125.0955  125.0955    6.5834    1.9411    4.4386    0.0000  1.0000E-10     -0.1549  3.9821E-15
    2.7268    1.0000  123.8445  123.8445    6.5805    1.9618    4.4275    0.0000  1.0000E-10     -0.1593  3.7238E-15
    2.7594    1.0000  122.6061  122.6061    6.5780    1.9859    4.4148    0.0000  1.0000E-10     -0.1638  3.4344E-15
    2.7948    1.0000  121.3800  121.3800    6.5759    2.0146    4.4000    0.0000  1.0000E-10     -0.1684  3.1080E-15
    2.8340    1.0000  120.1745  120.1745    6.5745    2.0498    4.3820    0.0000  1.0000E-10     -0.1731  2.7386E-15
    2.8703    1.0000  119.2184  119.2184    6.5742    2.0859    4.3639    0.0000  1.0000E-10     -0.1770  2.3945E-15
    2.9040    1.0000  118.4685  118.4685    6.5747    2.1229    4.3455    0.0000  1.0000E-10     -0.1801  2.0793E-15
    2.9355    1.0000  117.8874  117.8874    6.5760    2.1607    4.3269    0.0000  1.0000E-10     -0.1826  1.7944E-15
    2.9649    1.0000  117.4439  117.4439    6.5779    2.1991    4.3082    0.0000  1.0000E-10     -0.1845  1.5405E-15
    2.9700    1.0000  116.2695  116.2695    6.5708    2.1997    4.3061    0.0000  1.0000E-10     -0.1898  1.5542E-15
    2.9753    1.0000  115.1068  115.1068    6.5637    2.2004    4.3040    0.0000  1.0000E-10     -0.1952  1.5672E-15
    2.9806    1.0000  113.9557  113.9557    6.5566    2.2013    4.3018    0.0000  1.0000E-10     -0.2006  1.5793E-15
    2.9860    1.0000  112.8162  112.8162    6.5495    2.2022    4.2995    0.0000  1.0000E-10     -0.2062  1.5906E-15
    2.9915    1.0000  111.6880  111.6880    6.5424    2.2034    4.2972    0.0000  1.0000E-10     -0.2119  1.6009E-15
    2.9972    1.0000  110.5711  110.5711    6.5353    2.2047    4.2947    0.0000  1.0000E-10     -0.2176  1.6103E-15
    3.0030    1.0000  109.4654  109.4654    6.5282    2.2061    4.2922    0.0000  1.0000E-10     -0.2235  1.6186E-15
    3.0089    1.0000  108.3708  108.3708    6.5211    2.2078    4.2897    0.0000  1.0000E-10     -0.2294  1.6258E-15
    3.0149    1.0000  107.2870  107.2870    6.5140    2.2096    4.2870    0.0000  1.0000E-10     -0.2355  1.6318E-15
    3.0210    1.0000  106.2142  106.2142    6.5070    2.2116    4.2842    0.0000  1.0000E-10     -0.2416  1.6366E-15
    3.0273    1.0000  105.1520  105.1520    6.4999    2.2138    4.2813    0.0000  1.0000E-10     -0.2479  1.6400E-15
    3.0337    1.0000  104.1005  104.1005    6.4929    2.2162    4.2784    0.0000  1.0000E-10     -0.2543  1.6420E-15
    3.0403    1.0000  103.0595  103.0595    6.4858    2.2188    4.2753    0.0000  1.0000E-10     -0.2608  1.6426E-15
    3.0470    1.0000  102.0289  102.0289    6.4788    2.2217    4.2721    0.0000  1.0000E-10     -0.2674  1.6415E-15
    3.0538    1.0000  101.0086  101.0086    6.4718    2.2248    4.2688    0.0000  1.0000E-10     -0.2741  1.6389E-15
    3.0608    1.0000   99.9985   99.9985    6.4651    2.2279    4.2656    0.0000  1.0000E-10     -0.2810  1.6359E-15
    3.0679    1.0000   98.9986   98.9986    6.4599    2.2261    4.2652    0.0000  1.0000E-10     -0.2879  1.6669E-15
    3.0751    1.0000   98.0086   98.0086    6.4567    2.2092    4.2728    0.0000  1.0000E-10     -0.2950  1.8074E-15
    3.0808    1.0000   97.2062   97.2062    6.4552    2.1782    4.2880    0.0000  1.0000E-10     -0.3009  2.0723E-15
    3.0853    1.0000   96.5516   96.5516    6.4547    2.1395    4.3072    0.0000  1.0000E-10     -0.3058  2.4459E-15
    3.0889    1.0000   95.9835   95.9835    6.4546    2.0964    4.3287    0.0000  1.0000E-10     -0.3102  2.9323E-15
    3.0911    1.0000   95.9603   95.9603    6.4573    2.0679    4.3437    0.0000  1.0000E-10     -0.3103  3.2893E-15
    3.0911    2.0000   95.9603   95.9603    6.4573    2.0480    4.3536   45.6434  1.0000E-10     -0.3103  6.7670E-15
    3.0912    2.0000   95.9603   95.9498    6.4567    2.0890    4.3329   45.6684  1.0000E-10     -0.3103  5.7488E-15
    3.0913    2.0000   95.9603   95.9394    6.4562    2.1301    4.3123   45.6934  1.0000E-10     -0.3103  4.8752E-15
    3.0914    2.0000   95.9603   95.9290    6.4556    2.1711    4.2916   45.7183  1.0000E-10     -0.3103  4.1277E-15
    3.0914    2.0000   95.9603   95.9186    6.4550    2.2121    4.2710   45.7433  1.0000E-10     -0.3103  3.4899E-15
    3.0915    2.0000   95.9603   95.9082    6.4544    2.2531    4.2503   45.7683  1.0000E-10     -0.3103  2.9469E-15
    3.0916    2.0000   95.9603   95.8978    6.4538    2.2942    4.2296   45.7933  1.0000E-10     -0.3103  2.4856E-15
    3.0917    2.0000   95.9603   95.8874    6.4533    2.3352    4.2090   45.8182  1.0000E-10     -0.3103  2.0943E-15
    3.0917    2.0000   95.9603   95.8770    6.4527    2.3762    4.1883   45.8432  1.0000E-10     -0.3103  1.7631E-15
    3.0918    2.0000   95.9603   95.8666    6.4521    2.4173    4.1677   45.8682  1.0000E-10     -0.3103  1.4830E-15
    3.0919    2.0000   95.9603   95.8562    6.4515    2.4583    4.1470   45.8932  1.0000E-10     -0.3103  1.2466E-15
    3.0920    2.0000   95.9603   95.8458    6.4509    2.4993    4.1263   45.9181  1.0000E-10     -0.3103  1.0472E-15
    3.0921    2.0000   95.9603   95.8354    6.4504    2.5404    4.1057   45.9431  1.0000E-10     -0.3103  8.7923E-16
    3.0921    2.0000   95.9603   95.8251    6.4498    2.5814    4.0850   45.9681  1.0000E-10     -0.3103  7.3783E-16
    3.0922    2.0000   95.9603   95.8147    6.4492    2.6225    4.0643   45.9930  1.0000E-10     -0.3103  6.1891E-16
    3.0923    2.0000   95.9603   95.8043    6.4486    2.6635    4.0437   46.0180  1.0000E-10     -0.3103  5.1896E-16
    3.0924    2.0000   95.9603   95.7939    6.4480    2.7045    4.0230   46.0430  1.0000E-10     -0.3103  4.3501E-16
    3.0924    2.0000   95.9603   95.7836    6.4475    2.7456    4.0023   46.0679  1.0000E-10     -0.3103  3.6453E-16
    3.0925    2.0000   95.9603   95.7732    6.4469    2.7866    3.9817   46.0929  1.0000E-10     -0.3103  3.0539E-16
    3.0926    2.0000   95.9603   95.7629    6.4463    2.8277    3.9610   46.1179  1.0000E-10     -0.3103  2.5579E-16
    3.0927    2.0000   95.9603   95.7525    6.4457    2.8687    3.9404   46.1429  1.0000E-10     -0.3103  2.1420E-16
    3.0928    2.0000   95.9603   95.7422    6.4451    2.9097    3.9197   46.1678  1.0000E-10     -0.3103  1.7935E-16
    3.0928    2.0000   95.9603   95.7318    6.4445    2.9508    3.8990   46.1928  1.0000E-10     -0.3103  1.5014E-16
    3.0929    2.0000   95.9603   95.7215    6.4440    2.9918    3.8784   46.2178  1.0000E-10     -0.3103  1.2567E-16
    3.0930    2.0000   95.9603   95.7111    6.4434    3.0329    3.8577   46.2427  1.0000E-10     -0.3103  1.0518E-16
    3.0931    2.0000   95.9603   95.7008    6.4428    3.0739    3.8370   46.2677  1.0000E-10     -0.3103  8.8015E-17
    3.0931    2.0000   95.9603   95.6905    6.4422    3.1149    3.8164   46.2927  1.0000E-10     -0.3103  7.3647E-17
    3.0932    2.0000   95.9603   95.6801    6.4416    3.1560    3.7957   46.3176  1.0000E-10     -0.3103  6.1620E-17
    3.0933    2.0000   95.9603   95.6698    6.4411    3.1970    3.7750   46.3426  1.0000E-10     -0.3103  5.1554E-17
    3.0934    2.0000   95.9603   95.6595    6.4405    3.2381    3.7544   46.3676  1.0000E-10     -0.3103  4.3129E-17
    3.0935    2.0000   95.9603   95.6492    6.4399    3.2791    3.7337   46.3925  1.0000E-10     -0.3103  3.6079E-17
    3.0935    2.0000   95.9603   95.6389    6.4393    3.3202    3.7130   46.4175  1.0000E-10     -0.3103  3.0180E-17
    3.0936    2.0000   95.9603   95.6286    6.4387    3.3612    3.6923   46.4425  1.0000E-10     -0.3103  2.5245E-17
    3.0937    2.0000   95.9603   95.6183    6.4382    3.4023    3.6717   46.4674  1.0000E-10     -0.3103  2.1115E-17
    3.0938    2.0000   95.9603   95.6080    6.4376    3.4433    3.6510   46.4924  1.0000E-10     -0.3103  1.7661E-17
    3.0938    2.0000   95.9603   95.5977    6.4370    3.4844    3.6303   46.5173  1.0000E-10     -0.3103  1.4771E-17
    3.0939    2.0000   95.9603   95.5874    6.4364    3.5254    3.6097   46.5423  3.1114E-04     -0.3103  1.2290E-17
    3.0940    4.0000   95.9603   95.5816    6.4361    3.5483    3.5982   46.5562  2.5034E+01     -0.3103  2.7170E-18
    3.0976    4.0000   95.9603   95.1070    6.4371    3.5497    3.5977   46.6385  2.4517E+01     -0.3103  2.7118E-18
    3.1012    4.0000   95.9603   94.6323    6.4381    3.5511    3.5972   46.7209  2.4004E+01     -0.3103  2.6515E-18
    3.1049    4.0000   95.9603   94.1576    6.4391    3.5525    3.5968   46.8032  2.3494E+01     -0.3103  2.5471E-18
    3.1085    4.0000   95.9603   93.6829    6.4401    3.5540    3.5963   46.8856  2.2988E+01     -0.3103  2.4140E-18
    3.1121    4.0000   95.9603   93.2082    6.4411    3.5554    3.5958   46.9679  2.2485E+01     -0.3103  2.2673E-18
    3.1158    4.0000   95.9603   92.7335    6.4421    3.5568    3.5954   47.0502  2.1986E+01     -0.3103  2.1191E-18
    3.1194    4.0000   95.9603   92.2589    6.4431    3.5582    3.5949   47.1326  2.1491E+01     -0.3103  1.9778E-18
    3.1230    4.0000   95.9603   91.7842    6.4441    3.5597    3.5945   47.2149  2.0999E+01     -0.3103  1.8482E-18
    3.1267    4.0000   95.9603   91.3095    6.4451    3.5611    3.5940   47.2973  2.0511E+01     -0.3103  1.7324E-18
    3.1303    4.0000   95.9603   90.8348    6.4460    3.5625    3.5935   47.3796  2.0027E+01     -0.3103  1.6307E-18
    3.1339    4.0000   95.9603   90.3601    6.4470    3.5639    3.5931   47.4619  1.9546E+01     -0.3103  1.5426E-18
    3.1376    4.0000   95.9603   89.8854    6.4480    3.5653    3.5926   47.5443  1.9070E+01     -0.3103  1.4668E-18
    3.1412    4.0000   95.9603   89.4097    6.4490    3.5668    3.5921   47.6266  1.8597E+01     -0.3103  1.4022E-18
    3.1448    4.0000   95.9603   88.9330    6.4500    3.5682    3.5917   47.7090  1.8127E+01     -0.3103  1.3473E-18
    3.1485    4.0000   95.9603   88.4554    6.4510    3.5696    3.5912   47.7913  1.7660E+01     -0.3103  1.3010E-18
    3.1521    4.0000   95.9603   87.9768    6.4520    3.5710    3.5908   47.8736  1.7197E+01     -0.3103  1.2622E-18
    3.1557    4.0000   95.9603   87.4972    6.4530    3.5725    3.5903   47.9560  1.6737E+01     -0.3103  1.2298E-18
    3.1594    4.0000   95.9603   87.0166    6.4540    3.5739    3.5898   48.0383  1.6281E+01     -0.3103  1.2032E-18
    3.1630    4.0000   95.9603   86.5349    6.4550    3.5753    3.5894   48.1206  1.5828E+01     -0.3103  1.1814E-18
    3.1666    4.0000   95.9603   86.0523    6.4560    3.5767    3.5889   48.2030  1.5379E+01     -0.3103  1.1641E-18
    3.1703    4.0000   95.9603   85.5685    6.4570    3.5782    3.5884   48.2853  1.4934E+01     -0.3103  1.1507E-18
    3.1739    4.0000   95.9603   85.0837    6.4580    3.5796    3.5880   48.3677  1.4493E+01     -0.3103  1.1408E-18
    3.1775    4.0000   95.9603   84.5978    6.4590    3.5810    3.5875   48.4500  1.4056E+01     -0.3103  1.1340E-18
    3.1812    4.0000   95.9603   84.1108    6.4600    3.5824    3.5870   48.5323  1.3623E+01     -0.3103  1.1301E-18
    3.1848    4.0000   95.9603   83.6227    6.4610    3.5839    3.5866   48.6147  1.3194E+01     -0.3103  1.1288E-18
    3.1884    4.0000   95.9603   83.1334    6.4620    3.5853    3.5861   48.6970  1.2769E+01     -0.3103  1.1299E-18
    3.1921    4.0000   95.9603   82.6429    6.4630    3.5867    3.5857   48.7794  1.2349E+01     -0.3103  1.1334E-18
    3.1957    4.0000   95.9603   82.1513    6.4640    3.5881    3.5852   48.8617  1.1933E+01     -0.3103  1.1391E-18
    3.1993    4.0000   95.9603   81.6585    6.4649    3.5895    3.5847   48.9440  1.1522E+01     -0.3103  1.1468E-18
    3.2030    4.0000   95.9603   81.1644    6.4659    3.5909    3.5843   49.0264  1.1115E+01     -0.3103  1.1567E-18
    3.2066    4.0000   95.9603   80.6691    6.4669    3.5923    3.5838   49.1087  1.0713E+01     -0.3103  1.1685E-18
    3.2102    4.0000   95.9603   80.1725    6.4679    3.5938    3.5834   49.1911  1.0316E+01     -0.3103  1.1824E-18
    3.2139    4.0000   95.9603   79.6747    6.4689    3.5952    3.5829   49.2734  9.9242E+00     -0.3103  1.1982E-18
    3.2175    4.0000   95.9603   79.1755    6.4699    3.5965    3.5825   49.3557  9.5372E+00     -0.3103  1.2161E-18
    3.2211    4.0000   95.9603   78.6750    6.4709    3.5979    3.5820   49.4381  9.1555E+00     -0.3103  1.2361E-18
    3.2248    4.0000   95.9603   78.1731    6.4719    3.5993    3.5816   49.5204  8.7791E+00     -0.3103  1.2583E-18
    3.2284    4.0000   95.9603   77.6698    6.4729    3.6007    3.5811   49.6028  8.4082E+00     -0.3103  1.2827E-18
    3.2320    4.0000   95.9603   77.1651    6.4739    3.6021    3.5807   49.6851  8.0429E+00     -0.3103  1.3094E-18
    3.2357    4.0000   95.9603   76.6590    6.4749    3.6035    3.5803   49.7674  7.6834E+00     -0.3103  1.3387E-18
    3.2393    4.0000   95.9603   76.1515    6.4759    3.6048    3.5798   49.8498  7.3297E+00     -0.3103  1.3706E-18
    3.2429    4.0000   95.9603   75.6424    6.4769    3.6062    3.5794   49.9321  6.9821E+00     -0.3103  1.4054E-18
    3.2466    4.0000   95.9603   75.1318    6.4779    3.6075    3.5790   50.0145  6.6407E+00     -0.3103  1.4432E-18
    3.2502    4.0000   95.9603   74.6197    6.4789    3.6088    3.5786   50.0968  6.3056E+00     -0.3103  1.4843E-18
    3.2538    4.0000   95.9603   74.1060    6.4799    3.6102    3.5782   50.1791  5.9770E+00     -0.3103  1.5291E-18
    3.2575    4.0000   95.9603   73.5906    6.4809    3.6115    3.5777   50.2615  5.6551E+00     -0.3103  1.5778E-18
    3.2611    4.0000   95.9603   73.0737    6.4819    3.6128    3.5773   50.3438  5.3401E+00     -0.3103  1.6309E-18
    3.2647    4.0000   95.9603   72.5550    6.4828    3.6140    3.5770   50.4261  5.0320E+00     -0.3103  1.6887E-18
    3.2684    4.0000   95.9603   72.0347    6.4838    3.6153    3.5766   50.5085  4.7311E+00     -0.3103  1.7519E-18
    3.2720    4.0000   95.9603   71.5126    6.4848    3.6165    3.5762   50.5908  4.4376E+00     -0.3103  1.8210E-18
    3.2756    4.0000   95.9603   70.9887    6.4858    3.6178    3.5758   50.6732  4.1517E+00     -0.3103  1.8968E-18
    3.2793    4.0000   95.9603   70.4629    6.4868    3.6190    3.5755   50.7555  3.8735E+00     -0.3103  1.9801E-18
    3.2829    4.0000   95.9603   69.9354    6.4878    3.6201    3.5752   50.8378  3.6032E+00     -0.3103  2.0718E-18
    3.2865    4.0000   95.9603   69.4059    6.4888    3.6213    3.5748   50.9202  3.3411E+00     -0.3103  2.1732E-18
    3.2902    4.0000   95.9603   68.8744    6.4898    3.6224    3.5745   51.0025  3.0874E+00     -0.3103  2.2856E-18
    3.2938    4.0000   95.9603   68.3410    6.4908    3.6235    3.5742   51.0849  2.8423E+00     -0.3103  2.4107E-18
    3.2974    4.0000   95.9603   67.8055    6.4918    3.6245    3.5740   51.1672  2.6059E+00     -0.3103  2.5504E-18
    3.3011    4.0000   95.9603   67.2680    6.4928    3.6255    3.5737   51.2495  2.3785E+00     -0.3103  2.7073E-18
    3.3047    4.0000   95.9603   66.7283    6.4938    3.6265    3.5735   51.3319  2.1604E+00     -0.3103  2.8841E-18
    3.3083    4.0000   95.9603   66.1877    6.4948    3.6274    3.5733   51.4142  1.9521E+00     -0.3103  3.0842E-18
    3.3120    4.0000   95.9603   65.6471    6.4958    3.6282    3.5731   51.4966  1.7542E+00     -0.3103  3.3115E-18
    3.3156    4.0000   95.9603   65.1065    6.4968    3.6290    3.5730   51.5789  1.5666E+00     -0.3103  3.5711E-18
    3.3192    4.0000   95.9603   64.5660    6.4978    3.6297    3.5729   51.6612  1.3897E+00     -0.3103  3.8698E-18
    3.3229    4.0000   95.9603   64.0254    6.4988    3.6303    3.5728   51.7436  1.2234E+00     -0.3103  4.2157E-18
    3.3265    4.0000   95.9603   63.4848    6.4998    3.6309    3.5728   51.8259  1.0679E+00     -0.3103  4.6197E-18
    3.3301    4.0000   95.9603   62.9442    6.5008    3.6313    3.5728   51.9083  9.2329E-01     -0.3103  5.0959E-18
    3.3338    4.0000   95.9603   62.4036    6.5017    3.6316    3.5729   51.9906  7.8958E-01     -0.3103  5.6626E-18
    3.3374    4.0000   95.9603   61.8630    6.5027    3.6317    3.5731   52.0729  6.6684E-01     -0.3103  6.3450E-18
    3.3410    4.0000   95.9603   61.3224    6.5037    3.6317    3.5733   52.1553  5.5509E-01     -0.3103  7.1771E-18
    3.3447    4.0000   95.9603   60.7818    6.5047    3.6316    3.5737   52.2376  4.5430E-01     -0.3103  8.2070E-18
    3.3483    4.0000   95.9603   60.2412    6.5057    3.6312    3.5741   52.3200  3.6444E-01     -0.3103  9.5033E-18
    3.3519    4.0000   95.9603   59.7006    6.5067    3.6305    3.5747   52.4023  2.8538E-01     -0.3103  1.1167E-17
    3.3556    4.0000   95.9603   59.1600    6.5077    3.6296    3.5754   52.4846  2.1697E-01     -0.3103  1.3354E-17
    3.3592    4.0000   95.9603   58.6194    6.5087    3.6283    3.5763   52.5670  1.5897E-01     -0.3103  1.6306E-17
    3.3628    4.0000   95.9603   58.0789    6.5097    3.6265    3.5774   52.6493  1.1105E-01     -0.3103  2.0429E-17
    3.3665    4.0000   95.9603   57.5383    6.5107    3.6241    3.5789   52.7316  7.2796E-02     -0.3103  2.6428E-17
    3.3701    4.0000   95.9603   56.9977    6.5117    3.6209    3.5807   52.8140  4.3631E-02     -0.3103  3.5624E-17
    3.3737    4.0000   95.9603   56.4571    6.5127    3.6166    3.5832   52.8963  2.2831E-02     -0.3103  5.0703E-17
    3.3774    4.0000   95.9603   55.9165    6.5137    3.6104    3.5865   52.9787  9.4782E-03     -0.3103  7.7765E-17
    3.3810    4.0000   95.9603   55.3759    6.5147    3.6007    3.5916   53.0610  2.4144E-03     -0.3103  1.3254E-16
    3.3846    4.0000   95.9603   54.8353    6.5157    3.5827    3.6008   53.1433  1.1634E-04     -0.3103  2.5759E-16
    3.3883    4.0000   95.9603   54.2947    6.5166    3.5293    3.6278   53.2257  1.0000E-10     -0.3103  5.5710E-16
    3.3919    4.0000   95.9603   53.7541    6.5171    2.9858    3.8997   53.3080  1.0000E-10     -0.3103  1.4164E-14
    3.3925    4.0000   95.9603   53.6651    6.5166    2.5302    4.1273   53.3216  1.0000E-10     -0.3103  1.2109E-13
    3.3928    4.0000   95.9603   53.6208    6.5159    2.1760    4.3043   53.3283  1.0000E-10     -0.3103  4.5377E-13
    3.3930    4.0000   95.9603   53.5863    6.5150    1.8355    4.4742   53.3336  1.0000E-10     -0.3103  9.1386E-13
    3.3932    4.0000   95.9603   53.5561    6.5135    1.5038    4.6397   53.3382  1.0000E-10     -0.3103  1.1618E-12
    3.3934    4.0000   95.9603   53.5492    6.5128    1.3931    4.6949   53.3426  1.0000E-10     -0.3103  1.2012E-12
    3.3936    4.0000   95.9603   53.5435    6.5121    1.2950    4.7438   53.3471  1.0000E-10     -0.3103  1.2257E-12
    3.3938    4.0000   95.9603   53.5387    6.5113    1.2060    4.7881   53.3516  1.0000E-10     -0.3103  1.2419E-12
    3.3940    4.0000   95.9603   53.5346    6.5104    1.1239    4.8289   53.3562  1.0000E-10     -0.3103  1.2532E-12
    3.3942    4.0000   95.9603   53.5309    6.5094    1.0473    4.8670   53.3610  1.0000E-10     -0.3103  1.2615E-12
    3.3945    4.0000   95.9603   53.5276    6.5083    0.9749    4.9029   53.3660  1.0000E-10     -0.3103  1.2678E-12
    3.3947    4.0000   95.9603   53.5245    6.5069    0.9061    4.9370   53.3713  1.0000E-10     -0.3103  1.2728E-12
    3.3949    4.0000   95.9603   53.5217    6.5053    0.8401    4.9695   53.3769  1.0000E-10     -0.3103  1.2768E-12
    3.3952    4.0000   95.9603   53.5190    6.5032    0.7765    5.0008   53.3829  1.0000E-10     -0.3103  1.2801E-12
    3.3955    4.0000   95.9603   53.5164    6.5007    0.7148    5.0311   53.3896  1.0000E-10     -0.3103  1.2828E-12
    3.3958    4.0000   95.9603   53.5139    6.4973    0.6545    5.0604   53.3970  1.0000E-10     -0.3103  1.2853E-12
    3.3962    4.0000   95.9603   53.5115    6.4932    0.6012    5.0860   53.4048  1.0000E-10     -0.3103  1.2872E-12
    3.3966    4.0000   95.9603   53.5089    6.4875    0.5491    5.1106   53.4141  1.0000E-10     -0.3103  1.2890E-12
    3.3971    4.0000   95.9603   53.5060    6.4789    0.4978    5.1341   53.4260  1.0000E-10     -0.3103  1.2907E-12
    3.3980    4.0000   95.9603   53.5017    6.4643    0.4461    5.1563   53.4456  1.0000E-10     -0.3103  1.2928E-12
    3.4004    7.0000   53.4911   53.4911    6.4520    0.4184    5.1671    0.0000  5.3491E+01      3.1860  2.9317E-12
    3.4017    7.0000   52.9562   52.9562    6.4468    0.4159    5.1670    0.0000  5.2956E+01      3.1849  2.9900E-12
    3.4029    7.0000   52.4267   52.4267    6.4415    0.4134    5.1670    0.0000  5.2427E+01      3.1838  3.0496E-12
    3.4041    7.0000   51.9024   51.9024    6.4363    0.4108    5.1669    0.0000  5.1902E+01      3.1827  3.1105E-12
    3.4054    7.0000   51.3834   51.3834    6.4310    0.4083    5.1669    0.0000  5.1383E+01      3.1815  3.1728E-12
    3.4066    7.0000   50.8695   50.8695    6.4257    0.4058    5.1668    0.0000  5.0870E+01      3.1804  3.2366E-12
    3.4079    7.0000   50.3608   50.3608    6.4205    0.4032    5.1668    0.0000  5.0361E+01      3.1792  3.3019E-12
    3.4092    7.0000   49.8572   49.8572    6.4152    0.4006    5.1667    0.0000  4.9857E+01      3.1780  3.3687E-12
    3.4105    7.0000   49.3587   49.3587    6.4099    0.3980    5.1667    0.0000  4.9359E+01      3.1769  3.4371E-12
    3.4118    7.0000   48.8651   48.8651    6.4046    0.3954    5.1667    0.0000  4.8865E+01      3.1757  3.5071E-12
    3.4131    7.0000   48.3764   48.3764    6.3993    0.3928    5.1667    0.0000  4.8376E+01      3.1745  3.5788E-12
    3.4144    7.0000   47.8927   47.8927    6.3940    0.3902    5.1667    0.0000  4.7893E+01      3.1732  3.6522E-12
    3.4158    7.0000   47.4137   47.4137    6.3887    0.3876    5.1667    0.0000  4.7414E+01      3.1720  3.7275E-12
    3.4171    7.0000   46.9396   46.9396    6.3834    0.3849    5.1667    0.0000  4.6940E+01      3.1707  3.8047E-12
    3.4185    7.0000   46.4702   46.4702    6.3781    0.3822    5.1667    0.0000  4.6470E+01      3.1695  3.8838E-12
    3.4199    7.0000   46.0055   46.0055    6.3727    0.3795    5.1667    0.0000  4.6005E+01      3.1682  3.9649E-12
    3.4213    7.0000   45.5454   45.5454    6.3674    0.3768    5.1667    0.0000  4.5545E+01      3.1669  4.0481E-12
    3.4227    7.0000   45.0900   45.0900    6.3621    0.3740    5.1668    0.0000  4.5090E+01      3.1656  4.1335E-12
    3.4241    7.0000   44.6391   44.6391    6.3567    0.3713    5.1668    0.0000  4.4639E+01      3.1643  4.2212E-12
    3.4255    7.0000   44.1927   44.1927    6.3514    0.3685    5.1669    0.0000  4.4193E+01      3.1629  4.3112E-12
    3.4270    7.0000   43.7508   43.7508    6.3460    0.3657    5.1669    0.0000  4.3751E+01      3.1616  4.4036E-12
    3.4284    7.0000   43.3133   43.3133    6.3406    0.3628    5.1670    0.0000  4.3313E+01      3.1602  4.4986E-12
    3.4299    7.0000   42.8801   42.8801    6.3353    0.3599    5.1671    0.0000  4.2880E+01      3.1588  4.5963E-12
    3.4314    7.0000   42.4513   42.4513    6.3299    0.3570    5.1672    0.0000  4.2451E+01      3.1575  4.6967E-12
    3.4329    7.0000   42.0268   42.0268    6.3245    0.3541    5.1673    0.0000  4.2027E+01      3.1560  4.8000E-12
    3.4344    7.0000   41.6065   41.6065    6.3191    0.3511    5.1675    0.0000  4.1607E+01      3.1546  4.9064E-12
    3.4359    7.0000   41.1905   41.1905    6.3137    0.3481    5.1676    0.0000  4.1190E+01      3.1532  5.0158E-12
    3.4374    7.0000   40.7786   40.7786    6.3083    0.3451    5.1678    0.0000  4.0779E+01      3.1517  5.1286E-12
    3.4390    7.0000   40.3708   40.3708    6.3029    0.3420    5.1680    0.0000  4.0371E+01      3.1502  5.2448E-12
    3.4405    7.0000   39.9671   39.9671    6.2974    0.3389    5.1682    0.0000  3.9967E+01      3.1487  5.3646E-12
    3.4421    7.0000   39.5674   39.5674    6.2920    0.3358    5.1684    0.0000  3.9567E+01      3.1472  5.4882E-12
    3.4437    7.0000   39.1717   39.1717    6.2866    0.3326    5.1686    0.0000  3.9172E+01      3.1457  5.6157E-12
    3.4437    7.0000   39.1679   39.1679    6.2865    0.3325    5.1686    0.0000  3.9168E+01      3.1457  5.6170E-12
    3.4437   14.0000   39.1679   36.7232  -10.0000   -3.8077    3.1671   36.7232  1.0000E-10      3.4437  2.0000E+08
    3.5437   14.0000   39.1679   36.7232  -10.0000   -3.8077    3.1671   36.7232  1.0000E-10      3.4437  2.0000E+08
    4.5437   14.0000   39.1679   36.7232  -10.0000   -3.8077    3.1671   36.7232  1.0000E-10      3.4437  2.0000E+08
   14.5437   14.0000   39.1679   36.7232  -10.0000   -3.8077    3.1671   36.7232  1.0000E-10      3.4437  2.0000E+08
  114.5437   14.0000   39.1679   36.7232  -10.0000   -3.8077    3.1671   36.7232  1.0000E-10      3.4437  2.0000E+08
  614.5438   14.0000   39.1679   36.7232  -10.0000   -3.8077    3.1671   36.7232  1.0000E-10      3.4437  2.0000E+08
 1114.5437   14.0000   39.1679   36.7232  -10.0000   -3.8077    3.1671   36.7232  1.0000E-10      3.4437  2.0000E+08
 1614.5437   14.0000   39.1679   36.7232  -10.0000   -3.8077    3.1671   36.7232  1.0000E-10      3.4437  2.0000E+08
 2114.5437   14.0000   39.1679   36.7232  -10.0000   -3.8077    3.1671   36.7232  1.0000E-10      3.4437  2.0000E+08
 2614.5437   14.0000   39.1679   36.7232  -10.0000   -3.8077    3.1671   36.7232  1.0000E-10      3.4437  2.0000E+08
 3114.5437   14.0000   39.1679   36.7232  -10.0000   -3.8077    3.1671   36.7232  1.0000E-10      3.4437  2.0000E+08
 3614.5437   14.0000   39.1679   36.7232  -10.0000   -3.8077    3.1671   36.7232  1.0000E-10      3.4437  2.0000E+08
 4114.5439   14.0000   39.1679   36.7232  -10.0000   -3.8077    3.1671   36.7232  1.0000E-10      3.4437  2.0000E+08
 4614.5439   14.0000   39.1679   36.7232  -10.0000   -3.8077    3.1671   36.7232  1.0000E-10      3.4437  2.0000E+08
 5114.5439   14.0000   39.1679   36.7232  -10.0000   -3.8077    3.1671   36.7232  1.0000E-10      3.4437  2.0000E+08
 5614.5439   14.0000   39.1679   36.7232  -10.0000   -3.8077    3.1671   36.7232  1.0000E-10      3.4437  2.0000E+08
 6114.5439   14.0000   39.1679   36.7232  -10.0000   -3.8077    3.1671   36.7232  1.0000E-10      3.4437  2.0000E+08
 6614.5439   14.0000   39.1679   36.7232  -10.0000   -3.8077    3.1671   36.7232  1.0000E-10      3.4437  2.0000E+08
 7114.5439   14.0000   39.1679   36.7232  -10.0000   -3.8077    3.1671   36.7232  1.0000E-10      3.4437  2.0000E+08
 7614.5439   14.0000   39.1679   36.7232  -10.0000   -3.8077    3.1671   36.7232  1.0000E-10      3.4437  2.0000E+08
 8114.5439   14.0000   39.1679   36.7232  -10.0000   -3.8077    3.1671   36.7232  1.0000E-10      3.4437  2.0000E+08
 8614.5439   14.0000   39.1679   36.7232  -10.0000   -3.8077    3.1671   36.7232  1.0000E-10      3.4437  2.0000E+08
 9114.5439   14.0000   39.1679   36.7232  -10.0000   -3.8077    3.1671   36.7232  1.0000E-10      3.4437  2.0000E+08
 9614.5439   14.0000   39.1679   36.7232  -10.0000   -3.8077    3.1671   36.7232  1.0000E-10      3.4437  2.0000E+08
10114.5439   14.0000   39.1679   36.7232  -10.0000   -3.8077    3.1671   36.7232  1.0000E-10      3.4437  2.0000E+08
10614.5439   14.0000   39.1679   36.7232  -10.0000   -3.8077    3.1671   36.7232  1.0000E-10      3.4437  2.0000E+08
11114.5439   14.0000   39.1679   36.7232  -10.0000   -3.8077    3.1671   36.7232  1.0000E-10      3.4437  2.0000E+08
11614.5439   14.0000   39.1679   36.7232  -10.0000   -3.8077    3.1671   36.7232  1.0000E-10      3.4437  2.0000E+08
12114.5439   14.0000   39.1679   36.7232  -10.0000   -3.8077    3.1671   36.7232  1.0000E-10      3.4437  2.0000E+08
12614.5439   14.0000   39.1679   36.7232  -10.0000   -3.8077    3.1671   36.7232  1.0000E-10      3.4437  2.0000E+08
13114.5439   14.0000   39.1679   36.7232  -10.0000   -3.8077    3.1671   36.7232  1.0000E-10      3.4437  2.0000E+08
13614.5439   14.0000   39.1679   36.7232  -10.0000   -3.8077    3.1671   36.7232  1.0000E-10      3.4437  2.0000E+08
14114.5439   14.0000   39.1679   36.7232  -10.0000   -3.8077    3.1671   36.7232  1.0000E-10      3.4437  2.0000E+08
14614.5439   14.0000   39.1679   36.7232  -10.0000   -3.8077    3.1671   36.7232  1.0000E-10      3.4437  2.0000E+08
15000.0000   14.0000   39.1679   36.7232  -10.0000   -3.8077    3.1671   36.7232  1.0000E-10      3.4437  2.0000E+08
   -1.0000   14.0000   39.1679   36.7232  -10.0000   -3.8077    3.1671   36.7232  1.0000E-10      3.4437  2.0000E+08
