 Tev(Myr)    type      Mo        Mt      log10(L)  log10(R) log10(Teff)  Mc        Menv              epoch      spin                                  
    0.0000    1.0000   10.0000   10.0000    3.7706    0.4466    4.4826    0.0000  1.0000E-10      0.0000  3.7684E+03
    1.2728    1.0000    9.9999    9.9999    3.7810    0.4555    4.4808    0.0000  1.0000E-10      0.0000  3.6921E+03
    2.5455    1.0000    9.9999    9.9999    3.7927    0.4644    4.4793    0.0000  1.0000E-10     -0.0000  3.6158E+03
    3.8183    1.0000    9.9998    9.9998    3.8056    0.4735    4.4779    0.0000  1.0000E-10     -0.0000  3.5386E+03
    5.0911    1.0000    9.9997    9.9997    3.8197    0.4830    4.4767    0.0000  1.0000E-10     -0.0001  3.4597E+03
    6.3639    1.0000    9.9997    9.9997    3.8351    0.4928    4.4756    0.0000  1.0000E-10     -0.0001  3.3784E+03
    7.6368    1.0000    9.9996    9.9996    3.8516    0.5032    4.4746    0.0000  1.0000E-10     -0.0002  3.2939E+03
    8.9096    1.0000    9.9995    9.9995    3.8694    0.5143    4.4735    0.0000  1.0000E-10     -0.0003  3.2057E+03
   10.1825    1.0000    9.9994    9.9994    3.8884    0.5260    4.4723    0.0000  1.0000E-10     -0.0005  3.1131E+03
   11.4554    1.0000    9.9993    9.9993    3.9086    0.5387    4.4711    0.0000  1.0000E-10     -0.0006  3.0154E+03
   12.7283    1.0000    9.9992    9.9992    3.9301    0.5523    4.4696    0.0000  1.0000E-10     -0.0008  2.9122E+03
   14.0012    1.0000    9.9991    9.9991    3.9528    0.5671    4.4679    0.0000  1.0000E-10     -0.0011  2.8026E+03
   15.2741    1.0000    9.9989    9.9989    3.9767    0.5833    4.4658    0.0000  1.0000E-10     -0.0014  2.6857E+03
   16.5471    1.0000    9.9988    9.9988    4.0018    0.6012    4.4631    0.0000  1.0000E-10     -0.0017  2.5599E+03
   17.8201    1.0000    9.9986    9.9986    4.0281    0.6214    4.4596    0.0000  1.0000E-10     -0.0022  2.4229E+03
   19.0932    1.0000    9.9984    9.9984    4.0557    0.6446    4.4549    0.0000  1.0000E-10     -0.0027  2.2712E+03
   20.3662    1.0000    9.9982    9.9982    4.0845    0.6722    4.4483    0.0000  1.0000E-10     -0.0034  2.0995E+03
   21.6394    1.0000    9.9980    9.9980    4.1145    0.7061    4.4389    0.0000  1.0000E-10     -0.0042  1.9012E+03
   22.8503    1.0000    9.9977    9.9977    4.1441    0.7468    4.4259    0.0000  1.0000E-10     -0.0050  1.6807E+03
   23.7963    1.0000    9.9975    9.9975    4.1681    0.7869    4.4118    0.0000  1.0000E-10     -0.0058  1.4830E+03
   24.5656    1.0000    9.9973    9.9973    4.1880    0.8266    4.3970    0.0000  1.0000E-10     -0.0064  1.3050E+03
   25.4596    1.0000    9.9971    9.9971    4.2743    0.7964    4.4336    0.0000  1.0000E-10     -0.0072  1.4381E+03
   25.4596    1.0000    9.9971    9.9971    4.2743    0.7964    4.4337    0.0000  1.0000E-10     -0.0072  1.4382E+03
   25.4596    2.0000    9.9971    9.9971    4.2743    0.7964    4.4336    2.1523  1.0000E-10     -0.0072  1.8234E+03
   25.4619    2.0000    9.9971    9.9971    4.2781    0.8374    4.4141    2.1535  1.0000E-10     -0.0072  1.5979E+03
   25.4643    2.0000    9.9971    9.9971    4.2818    0.8784    4.3945    2.1548  1.0000E-10     -0.0072  1.3947E+03
   25.4666    2.0000    9.9971    9.9971    4.2856    0.9195    4.3749    2.1561  1.0000E-10     -0.0072  1.2128E+03
   25.4690    2.0000    9.9971    9.9971    4.2894    0.9605    4.3554    2.1574  1.0000E-10     -0.0072  1.0508E+03
   25.4713    2.0000    9.9971    9.9971    4.2932    1.0015    4.3358    2.1586  1.0000E-10     -0.0072  9.0735E+02
   25.4736    2.0000    9.9971    9.9971    4.2970    1.0425    4.3163    2.1599  1.0000E-10     -0.0072  7.8102E+02
   25.4760    2.0000    9.9971    9.9971    4.3008    1.0835    4.2967    2.1612  1.0000E-10     -0.0072  6.7032E+02
   25.4783    2.0000    9.9971    9.9971    4.3046    1.1246    4.2771    2.1624  1.0000E-10     -0.0072  5.7375E+02
   25.4807    2.0000    9.9971    9.9971    4.3083    1.1656    4.2576    2.1637  1.0000E-10     -0.0072  4.8987E+02
   25.4830    2.0000    9.9971    9.9971    4.3121    1.2066    4.2380    2.1650  1.0000E-10     -0.0072  4.1731E+02
   25.4853    2.0000    9.9971    9.9970    4.3159    1.2476    4.2184    2.1662  1.0000E-10     -0.0072  3.5476E+02
   25.4877    2.0000    9.9971    9.9970    4.3197    1.2887    4.1989    2.1675  1.0000E-10     -0.0072  3.0102E+02
   25.4900    2.0000    9.9971    9.9970    4.3235    1.3297    4.1793    2.1688  1.0000E-10     -0.0072  2.5498E+02
   25.4924    2.0000    9.9971    9.9970    4.3273    1.3707    4.1597    2.1701  1.0000E-10     -0.0072  2.1566E+02
   25.4947    2.0000    9.9971    9.9970    4.3310    1.4117    4.1402    2.1713  1.0000E-10     -0.0072  1.8216E+02
   25.4970    2.0000    9.9971    9.9969    4.3348    1.4527    4.1206    2.1726  1.0000E-10     -0.0072  1.5366E+02
   25.4994    2.0000    9.9971    9.9969    4.3386    1.4938    4.1010    2.1739  1.0000E-10     -0.0072  1.2949E+02
   25.5017    2.0000    9.9971    9.9969    4.3424    1.5348    4.0815    2.1751  1.0000E-10     -0.0072  1.0901E+02
   25.5041    2.0000    9.9971    9.9968    4.3462    1.5758    4.0619    2.1764  1.0000E-10     -0.0072  9.1688E+01
   25.5064    2.0000    9.9971    9.9968    4.3500    1.6168    4.0424    2.1777  1.0000E-10     -0.0072  7.7059E+01
   25.5087    2.0000    9.9971    9.9968    4.3538    1.6578    4.0228    2.1789  1.0000E-10     -0.0072  6.4719E+01
   25.5111    2.0000    9.9971    9.9967    4.3575    1.6989    4.0032    2.1802  1.0000E-10     -0.0072  5.4322E+01
   25.5134    2.0000    9.9971    9.9967    4.3613    1.7399    3.9837    2.1815  1.0000E-10     -0.0072  4.5570E+01
   25.5158    2.0000    9.9971    9.9966    4.3651    1.7809    3.9641    2.1827  1.0000E-10     -0.0072  3.8209E+01
   25.5181    2.0000    9.9971    9.9965    4.3689    1.8219    3.9445    2.1840  1.0000E-10     -0.0072  3.2023E+01
   25.5204    2.0000    9.9971    9.9965    4.3727    1.8629    3.9250    2.1853  1.0000E-10     -0.0072  2.6827E+01
   25.5228    2.0000    9.9971    9.9964    4.3765    1.9040    3.9054    2.1866  1.0000E-10     -0.0072  2.2467E+01
   25.5251    2.0000    9.9971    9.9963    4.3803    1.9450    3.8858    2.1878  1.0000E-10     -0.0072  1.8809E+01
   25.5275    2.0000    9.9971    9.9962    4.3840    1.9860    3.8663    2.1891  1.0000E-10     -0.0072  1.5742E+01
   25.5298    2.0000    9.9971    9.9961    4.3878    2.0270    3.8467    2.1904  1.0000E-10     -0.0072  1.3172E+01
   25.5321    2.0000    9.9971    9.9960    4.3916    2.0681    3.8271    2.1916  1.0000E-10     -0.0072  1.1018E+01
   25.5345    2.0000    9.9971    9.9958    4.3954    2.1091    3.8076    2.1929  1.0000E-10     -0.0072  9.2147E+00
   25.5368    2.0000    9.9971    9.9957    4.3992    2.1501    3.7880    2.1942  1.0000E-10     -0.0072  7.7045E+00
   25.5389    4.0000    9.9971    9.9955    4.4026    2.1873    3.7703    2.1953  1.0000E-10     -0.0072  6.5483E+00
   25.5609    4.0000    9.9971    9.9938    4.4246    2.1459    3.7965    2.2063  1.0000E-10     -0.0072  7.7875E+00
   25.5837    4.0000    9.9971    9.9921    4.4319    2.1045    3.8190    2.2177  1.0000E-10     -0.0072  9.2577E+00
   25.6098    4.0000    9.9971    9.9903    4.4378    2.0592    3.8431    2.2307  1.0000E-10     -0.0072  1.1196E+01
   25.6358    4.0000    9.9971    9.9887    4.4425    2.0158    3.8660    2.2437  1.0000E-10     -0.0072  1.3430E+01
   25.6619    4.0000    9.9971    9.9872    4.4464    1.9744    3.8877    2.2567  1.0000E-10     -0.0072  1.5983E+01
   25.6879    4.0000    9.9971    9.9858    4.4500    1.9349    3.9083    2.2697  1.0000E-10     -0.0072  1.8870E+01
   25.7140    4.0000    9.9971    9.9845    4.4531    1.8974    3.9279    2.2827  1.0000E-10     -0.0072  2.2107E+01
   25.7400    4.0000    9.9971    9.9834    4.4560    1.8616    3.9465    2.2957  1.0000E-10     -0.0072  2.5702E+01
   25.7661    4.0000    9.9971    9.9823    4.4586    1.8276    3.9641    2.3087  1.0000E-10     -0.0072  2.9659E+01
   25.7921    4.0000    9.9971    9.9813    4.4611    1.7954    3.9809    2.3217  1.0000E-10     -0.0072  3.3974E+01
   25.8182    4.0000    9.9971    9.9803    4.4635    1.7649    3.9967    2.3347  1.0000E-10     -0.0072  3.8638E+01
   25.8442    4.0000    9.9971    9.9795    4.4657    1.7360    4.0117    2.3477  1.0000E-10     -0.0072  4.3636E+01
   25.8703    4.0000    9.9971    9.9786    4.4678    1.7087    4.0259    2.3607  1.0000E-10     -0.0072  4.8946E+01
   25.8963    4.0000    9.9971    9.9778    4.4698    1.6830    4.0392    2.3737  1.0000E-10     -0.0072  5.4537E+01
   25.9224    4.0000    9.9971    9.9771    4.4717    1.6588    4.0518    2.3867  1.0000E-10     -0.0072  6.0377E+01
   25.9484    4.0000    9.9971    9.9764    4.4735    1.6360    4.0636    2.3997  1.0000E-10     -0.0072  6.6425E+01
   25.9745    4.0000    9.9971    9.9757    4.4753    1.6147    4.0748    2.4127  1.0000E-10     -0.0072  7.2638E+01
   26.0005    4.0000    9.9971    9.9751    4.4770    1.5947    4.0852    2.4257  1.0000E-10     -0.0072  7.8967E+01
   26.0266    4.0000    9.9971    9.9745    4.4787    1.5761    4.0949    2.4387  1.0000E-10     -0.0072  8.5363E+01
   26.0526    4.0000    9.9971    9.9739    4.4803    1.5588    4.1039    2.4517  1.0000E-10     -0.0072  9.1774E+01
   26.0787    4.0000    9.9971    9.9733    4.4818    1.5427    4.1124    2.4647  1.0000E-10     -0.0072  9.8151E+01
   26.1047    4.0000    9.9971    9.9727    4.4833    1.5278    4.1202    2.4777  1.0000E-10     -0.0072  1.0444E+02
   26.1308    4.0000    9.9971    9.9722    4.4848    1.5140    4.1275    2.4907  1.0000E-10     -0.0072  1.1060E+02
   26.1569    4.0000    9.9971    9.9717    4.4862    1.5014    4.1341    2.5037  1.0000E-10     -0.0072  1.1658E+02
   26.1829    4.0000    9.9971    9.9712    4.4876    1.4898    4.1403    2.5167  1.0000E-10     -0.0072  1.2234E+02
   26.2090    4.0000    9.9971    9.9707    4.4890    1.4792    4.1459    2.5298  1.0000E-10     -0.0072  1.2783E+02
   26.2350    4.0000    9.9971    9.9702    4.4903    1.4695    4.1511    2.5428  1.0000E-10     -0.0072  1.3304E+02
   26.2611    4.0000    9.9971    9.9697    4.4916    1.4608    4.1558    2.5558  1.0000E-10     -0.0072  1.3794E+02
   26.2871    4.0000    9.9971    9.9693    4.4929    1.4530    4.1600    2.5688  1.0000E-10     -0.0072  1.4249E+02
   26.3132    4.0000    9.9971    9.9688    4.4941    1.4459    4.1638    2.5818  1.0000E-10     -0.0072  1.4669E+02
   26.3392    4.0000    9.9971    9.9683    4.4954    1.4397    4.1673    2.5948  1.0000E-10     -0.0072  1.5052E+02
   26.3653    4.0000    9.9971    9.9679    4.4965    1.4342    4.1703    2.6078  1.0000E-10     -0.0072  1.5399E+02
   26.3913    4.0000    9.9971    9.9674    4.4977    1.4294    4.1730    2.6208  1.0000E-10     -0.0072  1.5709E+02
   26.4174    4.0000    9.9971    9.9670    4.4989    1.4252    4.1754    2.6338  1.0000E-10     -0.0072  1.5982E+02
   26.4434    4.0000    9.9971    9.9666    4.5000    1.4216    4.1775    2.6468  1.0000E-10     -0.0072  1.6220E+02
   26.4695    4.0000    9.9971    9.9661    4.5011    1.4186    4.1793    2.6598  1.0000E-10     -0.0072  1.6425E+02
   26.4955    4.0000    9.9971    9.9657    4.5022    1.4160    4.1808    2.6728  1.0000E-10     -0.0072  1.6597E+02
   26.5216    4.0000    9.9971    9.9653    4.5033    1.4140    4.1821    2.6858  1.0000E-10     -0.0072  1.6740E+02
   26.5476    4.0000    9.9971    9.9648    4.5043    1.4123    4.1832    2.6988  1.0000E-10     -0.0072  1.6855E+02
   26.5737    4.0000    9.9971    9.9644    4.5054    1.4110    4.1841    2.7118  1.0000E-10     -0.0072  1.6945E+02
   26.5997    4.0000    9.9971    9.9640    4.5064    1.4100    4.1849    2.7248  1.0000E-10     -0.0072  1.7013E+02
   26.6258    4.0000    9.9971    9.9635    4.5074    1.4094    4.1855    2.7378  1.0000E-10     -0.0072  1.7062E+02
   26.6518    4.0000    9.9971    9.9631    4.5084    1.4089    4.1859    2.7508  1.0000E-10     -0.0072  1.7095E+02
   26.6779    4.0000    9.9971    9.9627    4.5094    1.4086    4.1863    2.7638  1.0000E-10     -0.0072  1.7115E+02
   26.7039    4.0000    9.9971    9.9622    4.5104    1.4085    4.1866    2.7768  1.0000E-10     -0.0072  1.7125E+02
   26.7300    4.0000    9.9971    9.9618    4.5113    1.4084    4.1869    2.7898  1.0000E-10     -0.0072  1.7128E+02
   26.7560    4.0000    9.9971    9.9614    4.5123    1.4084    4.1871    2.8028  1.0000E-10     -0.0072  1.7129E+02
   26.7821    4.0000    9.9971    9.9609    4.5132    1.4084    4.1874    2.8158  1.0000E-10     -0.0072  1.7128E+02
   26.8081    4.0000    9.9971    9.9605    4.5141    1.4085    4.1876    2.8288  1.0000E-10     -0.0072  1.7124E+02
   26.8342    4.0000    9.9971    9.9601    4.5150    1.4086    4.1877    2.8418  1.0000E-10     -0.0072  1.7113E+02
   26.8602    4.0000    9.9971    9.9596    4.5159    1.4089    4.1878    2.8548  1.0000E-10     -0.0072  1.7093E+02
   26.8863    4.0000    9.9971    9.9592    4.5168    1.4094    4.1878    2.8678  1.0000E-10     -0.0072  1.7059E+02
   26.9123    4.0000    9.9971    9.9587    4.5177    1.4100    4.1877    2.8808  1.0000E-10     -0.0072  1.7009E+02
   26.9384    4.0000    9.9971    9.9583    4.5186    1.4110    4.1874    2.8938  1.0000E-10     -0.0072  1.6941E+02
   26.9644    4.0000    9.9971    9.9578    4.5194    1.4123    4.1870    2.9068  1.0000E-10     -0.0072  1.6849E+02
   26.9905    4.0000    9.9971    9.9574    4.5203    1.4140    4.1864    2.9198  1.0000E-10     -0.0072  1.6733E+02
   27.0166    4.0000    9.9971    9.9570    4.5211    1.4160    4.1855    2.9329  1.0000E-10     -0.0072  1.6589E+02
   27.0426    4.0000    9.9971    9.9565    4.5220    1.4186    4.1845    2.9459  1.0000E-10     -0.0072  1.6415E+02
   27.0687    4.0000    9.9971    9.9560    4.5228    1.4216    4.1832    2.9589  1.0000E-10     -0.0072  1.6209E+02
   27.0947    4.0000    9.9971    9.9556    4.5236    1.4252    4.1816    2.9719  1.0000E-10     -0.0072  1.5968E+02
   27.1208    4.0000    9.9971    9.9551    4.5244    1.4294    4.1797    2.9849  1.0000E-10     -0.0072  1.5691E+02
   27.1468    4.0000    9.9971    9.9546    4.5252    1.4342    4.1775    2.9979  1.0000E-10     -0.0072  1.5378E+02
   27.1729    4.0000    9.9971    9.9542    4.5260    1.4397    4.1749    3.0109  1.0000E-10     -0.0072  1.5027E+02
   27.1989    4.0000    9.9971    9.9537    4.5268    1.4460    4.1720    3.0239  1.0000E-10     -0.0072  1.4639E+02
   27.2250    4.0000    9.9971    9.9532    4.5276    1.4530    4.1687    3.0369  1.0000E-10     -0.0072  1.4214E+02
   27.2510    4.0000    9.9971    9.9527    4.5283    1.4608    4.1650    3.0499  1.0000E-10     -0.0072  1.3756E+02
   27.2771    4.0000    9.9971    9.9522    4.5291    1.4694    4.1609    3.0629  1.0000E-10     -0.0072  1.3266E+02
   27.3031    4.0000    9.9971    9.9517    4.5298    1.4789    4.1563    3.0759  1.0000E-10     -0.0072  1.2744E+02
   27.3292    4.0000    9.9971    9.9511    4.5306    1.4894    4.1512    3.0889  1.0000E-10     -0.0072  1.2192E+02
   27.3552    4.0000    9.9971    9.9506    4.5313    1.5009    4.1457    3.1019  1.0000E-10     -0.0072  1.1613E+02
   27.3813    4.0000    9.9971    9.9500    4.5321    1.5134    4.1396    3.1149  1.0000E-10     -0.0072  1.1011E+02
   27.4073    4.0000    9.9971    9.9494    4.5328    1.5271    4.1329    3.1279  1.0000E-10     -0.0072  1.0390E+02
   27.4334    4.0000    9.9971    9.9488    4.5335    1.5419    4.1257    3.1409  1.0000E-10     -0.0072  9.7548E+01
   27.4594    4.0000    9.9971    9.9482    4.5342    1.5578    4.1179    3.1539  1.0000E-10     -0.0072  9.1104E+01
   27.4855    4.0000    9.9971    9.9476    4.5349    1.5751    4.1095    3.1669  1.0000E-10     -0.0072  8.4620E+01
   27.5115    4.0000    9.9971    9.9469    4.5357    1.5936    4.1004    3.1799  1.0000E-10     -0.0072  7.8149E+01
   27.5376    4.0000    9.9971    9.9462    4.5364    1.6134    4.0907    3.1929  1.0000E-10     -0.0072  7.1743E+01
   27.5636    4.0000    9.9971    9.9454    4.5370    1.6346    4.0802    3.2059  1.0000E-10     -0.0072  6.5455E+01
   27.5897    4.0000    9.9971    9.9447    4.5377    1.6573    4.0691    3.2189  1.0000E-10     -0.0072  5.9335E+01
   27.6157    4.0000    9.9971    9.9438    4.5384    1.6814    4.0572    3.2319  1.0000E-10     -0.0072  5.3428E+01
   27.6418    4.0000    9.9971    9.9430    4.5391    1.7070    4.0446    3.2449  1.0000E-10     -0.0072  4.7775E+01
   27.6678    4.0000    9.9971    9.9420    4.5398    1.7342    4.0311    3.2579  1.0000E-10     -0.0072  4.2414E+01
   27.6939    4.0000    9.9971    9.9411    4.5404    1.7630    4.0169    3.2709  1.0000E-10     -0.0072  3.7375E+01
   27.7199    4.0000    9.9971    9.9400    4.5411    1.7934    4.0019    3.2839  1.0000E-10     -0.0072  3.2681E+01
   27.7460    4.0000    9.9971    9.9389    4.5418    1.8255    3.9859    3.2969  1.0000E-10     -0.0072  2.8349E+01
   27.7720    4.0000    9.9971    9.9377    4.5424    1.8594    3.9692    3.3099  1.0000E-10     -0.0072  2.4388E+01
   27.7981    4.0000    9.9971    9.9363    4.5431    1.8951    3.9515    3.3230  1.0000E-10     -0.0072  2.0801E+01
   27.8242    4.0000    9.9971    9.9349    4.5437    1.9326    3.9329    3.3360  1.0000E-10     -0.0072  1.7585E+01
   27.8502    4.0000    9.9971    9.9333    4.5444    1.9720    3.9134    3.3490  1.0000E-10     -0.0072  1.4731E+01
   27.8763    4.0000    9.9971    9.9316    4.5450    2.0133    3.8929    3.3620  1.0000E-10     -0.0072  1.2222E+01
   27.9010    4.0000    9.9971    9.9298    4.5456    2.0543    3.8725    3.3743  1.0000E-10     -0.0072  1.0145E+01
   27.9247    4.0000    9.9971    9.9279    4.5462    2.0954    3.8521    3.3861  1.0000E-10     -0.0072  8.4105E+00
   27.9475    4.0000    9.9971    9.9259    4.5467    2.1365    3.8317    3.3975  1.0000E-10     -0.0072  6.9637E+00
   27.9695    4.0000    9.9971    9.9237    4.5472    2.1777    3.8112    3.4085  1.0000E-10     -0.0072  5.7581E+00
   27.9908    4.0000    9.9971    9.9215    4.5477    2.2190    3.7907    3.4191  1.0000E-10     -0.0072  4.7544E+00
   28.0114    4.0000    9.9971    9.9190    4.5482    2.2603    3.7702    3.4294  1.0000E-10     -0.0072  3.9197E+00
   28.0314    4.0000    9.9971    9.9165    4.5487    2.3017    3.7496    3.4394  1.0000E-10     -0.0072  3.2263E+00
   28.0505    4.0000    9.9971    9.9137    4.5491    2.3426    3.7292    3.4489  1.0000E-10     -0.0072  2.6568E+00
   28.0691    4.0000    9.9971    9.9108    4.5496    2.3836    3.7088    3.4582  4.8680E-09     -0.0072  2.1845E+00
   28.0872    4.0000    9.9971    9.9077    4.5500    2.4246    3.6885    3.4673  3.3144E-03     -0.0072  1.6666E+00
   28.1049    4.0000    9.9971    9.9043    4.5504    2.4656    3.6681    3.4761  9.9868E-02     -0.0072  9.2338E-01
   28.1220    4.0000    9.9971    9.9007    4.5508    2.5066    3.6477    3.4846  8.0337E-01     -0.0072  3.9164E-01
   28.1388    4.0000    9.9971    9.8968    4.5512    2.5476    3.6273    3.4930  3.6974E+00     -0.0072  1.5972E-01
   28.1441    5.0000    9.9971    9.8955    4.5513    2.5608    3.6207    3.4957  5.6216E+00     -0.0072  1.2100E-01
   28.1473    5.0000    9.9971    9.8946    4.5623    2.5678    3.6199    3.4957  5.5260E+00     -0.0072  1.1729E-01
   28.1505    5.0000    9.9971    9.8938    4.5732    2.5749    3.6191    3.4957  5.4317E+00     -0.0072  1.1362E-01
   28.1536    5.0000    9.9971    9.8929    4.5842    2.5819    3.6184    3.4957  5.3388E+00     -0.0072  1.1001E-01
   28.1567    5.0000    9.9971    9.8920    4.5952    2.5889    3.6176    3.4957  5.2472E+00     -0.0072  1.0645E-01
   28.1596    5.0000    9.9971    9.8911    4.6061    2.5960    3.6168    3.4957  5.1569E+00     -0.0072  1.0295E-01
   28.1626    5.0000    9.9971    9.8901    4.6171    2.6030    3.6160    3.4957  5.0679E+00     -0.0072  9.9498E-02
   28.1654    5.0000    9.9971    9.8892    4.6281    2.6101    3.6152    3.4957  4.9802E+00     -0.0072  9.6104E-02
   28.1682    5.0000    9.9971    9.8882    4.6390    2.6172    3.6145    3.4957  4.8937E+00     -0.0072  9.2766E-02
   28.1710    5.0000    9.9971    9.8872    4.6500    2.6242    3.6137    3.4957  4.8086E+00     -0.0072  8.9486E-02
   28.1737    5.0000    9.9971    9.8862    4.6610    2.6313    3.6129    3.4957  4.7246E+00     -0.0072  8.6267E-02
   28.1763    5.0000    9.9971    9.8851    4.6720    2.6384    3.6121    3.4957  4.6419E+00     -0.0072  8.3110E-02
   28.1789    5.0000    9.9971    9.8840    4.6829    2.6455    3.6112    3.4957  4.5604E+00     -0.0072  8.0018E-02
   28.1815    5.0000    9.9971    9.8830    4.6939    2.6530    3.6103    3.4957  4.5316E+00     -0.0072  7.6404E-02
   28.1839    5.0000    9.9971    9.8818    4.7049    2.6606    3.6092    3.4957  4.5304E+00     -0.0072  7.2608E-02
   28.1864    5.0000    9.9971    9.8807    4.7158    2.6683    3.6081    3.4957  4.5292E+00     -0.0072  6.8956E-02
   28.1888    5.0000    9.9971    9.8795    4.7268    2.6760    3.6070    3.4957  4.5279E+00     -0.0072  6.5445E-02
   28.1911    5.0000    9.9971    9.8783    4.7378    2.6836    3.6059    3.4957  4.5267E+00     -0.0072  6.2076E-02
   28.1934    5.0000    9.9971    9.8771    4.7487    2.6913    3.6048    3.4957  4.5254E+00     -0.0072  5.8846E-02
   28.1957    5.0000    9.9971    9.8758    4.7597    2.6990    3.6037    3.4957  4.5241E+00     -0.0072  5.5753E-02
   28.1979    5.0000    9.9971    9.8746    4.7707    2.7067    3.6026    3.4957  4.5227E+00     -0.0072  5.2795E-02
   28.2000    5.0000    9.9971    9.8732    4.7816    2.7145    3.6014    3.4957  4.5213E+00     -0.0072  4.9971E-02
   28.2021    5.0000    9.9971    9.8719    4.7926    2.7222    3.6003    3.4957  4.5199E+00     -0.0072  4.7276E-02
   28.2042    5.0000    9.9971    9.8705    4.8036    2.7299    3.5992    3.4957  4.5185E+00     -0.0072  4.4709E-02
   28.2062    5.0000    9.9971    9.8691    4.8145    2.7376    3.5981    3.4957  4.5170E+00     -0.0072  4.2267E-02
   28.2082    5.0000    9.9971    9.8677    4.8255    2.7454    3.5970    3.4957  4.5155E+00     -0.0072  3.9947E-02
   28.2102    5.0000    9.9971    9.8662    4.8365    2.7531    3.5958    3.4957  4.5140E+00     -0.0072  3.7744E-02
   28.2121    5.0000    9.9971    9.8647    4.8474    2.7609    3.5947    3.4957  4.5124E+00     -0.0072  3.5655E-02
   28.2140    5.0000    9.9971    9.8632    4.8584    2.7687    3.5935    3.4957  4.5108E+00     -0.0072  3.3677E-02
   28.2158    5.0000    9.9971    9.8616    4.8694    2.7764    3.5924    3.4957  4.5091E+00     -0.0072  3.1806E-02
   28.2176    5.0000    9.9971    9.8600    4.8803    2.7842    3.5912    3.4957  4.5075E+00     -0.0072  3.0037E-02
   28.2194    5.0000    9.9971    9.8583    4.8913    2.7920    3.5901    3.4957  4.5057E+00     -0.0072  2.8366E-02
   28.2211    5.0000    9.9971    9.8566    4.9023    2.7998    3.5889    3.4957  4.5040E+00     -0.0072  2.6790E-02
   28.2228    5.0000    9.9971    9.8549    4.9132    2.8076    3.5878    3.4957  4.5022E+00     -0.0072  2.5303E-02
   28.2245    5.0000    9.9971    9.8531    4.9242    2.8154    3.5866    3.4957  4.5003E+00     -0.0072  2.3902E-02
   28.2261    5.0000    9.9971    9.8513    4.9352    2.8232    3.5854    3.4957  4.4984E+00     -0.0072  2.2583E-02
   28.2277    5.0000    9.9971    9.8494    4.9461    2.8311    3.5843    3.4957  4.4965E+00     -0.0072  2.1341E-02
   28.2292    5.0000    9.9971    9.8475    4.9571    2.8389    3.5831    3.4957  4.4946E+00     -0.0072  2.0173E-02
   28.2308    5.0000    9.9971    9.8456    4.9681    2.8467    3.5819    3.4957  4.4925E+00     -0.0072  1.9074E-02
   28.2323    5.0000    9.9971    9.8436    4.9790    2.8546    3.5807    3.4957  4.4905E+00     -0.0072  1.8040E-02
   28.2337    5.0000    9.9971    9.8416    4.9900    2.8624    3.5795    3.4957  4.4884E+00     -0.0072  1.7069E-02
   28.2352    5.0000    9.9971    9.8395    5.0010    2.8703    3.5784    3.4957  4.4862E+00     -0.0072  1.6155E-02
   28.2366    5.0000    9.9971    9.8374    5.0119    2.8782    3.5772    3.4957  4.4840E+00     -0.0072  1.5297E-02
   28.2380    5.0000    9.9971    9.8352    5.0229    2.8861    3.5760    3.4957  4.4818E+00     -0.0072  1.4490E-02
   28.2393    5.0000    9.9971    9.8329    5.0339    2.8940    3.5748    3.4957  4.4795E+00     -0.0072  1.3732E-02
   28.2407    5.0000    9.9971    9.8306    5.0448    2.9018    3.5736    3.4957  4.4772E+00     -0.0072  1.3019E-02
   28.2420    5.0000    9.9971    9.8283    5.0558    2.9098    3.5723    3.4957  4.4748E+00     -0.0072  1.2348E-02
   28.2432    5.0000    9.9971    9.8259    5.0668    2.9177    3.5711    3.4957  4.4723E+00     -0.0072  1.1717E-02
   28.2445    5.0000    9.9971    9.8234    5.0777    2.9256    3.5699    3.4957  4.4698E+00     -0.0072  1.1124E-02
   28.2451   13.0000    9.9971    1.1932    0.3524   -4.8539    6.2783    1.1932  1.0000E-10     28.2451  2.0000E+08
   28.3451   13.0000    9.9971    1.1932    0.3524   -4.8539    6.2783    1.1932  1.0000E-10     28.2451  2.0000E+08
   29.3451   13.0000    9.9971    1.1932   -1.7304   -4.8539    5.7576    1.1932  1.0000E-10     28.2451  2.0000E+08
   39.3451   13.0000    9.9971    1.1932   -3.7382   -4.8539    5.2557    1.1932  1.0000E-10     28.2451  2.0000E+08
  139.3450   13.0000    9.9971    1.1932   -5.7390   -4.8539    4.7555    1.1932  1.0000E-10     28.2451  2.0000E+08
  639.3450   13.0000    9.9971    1.1932   -7.2198   -4.8539    4.3853    1.1932  1.0000E-10     28.2451  2.0000E+08
 1139.3451   13.0000    9.9971    1.1932   -7.7391   -4.8539    4.2554    1.1932  1.0000E-10     28.2451  2.0000E+08
 1639.3451   13.0000    9.9971    1.1932   -8.0618   -4.8539    4.1748    1.1932  1.0000E-10     28.2451  2.0000E+08
 2139.3450   13.0000    9.9971    1.1932   -8.2966   -4.8539    4.1161    1.1932  1.0000E-10     28.2451  2.0000E+08
 2639.3450   13.0000    9.9971    1.1932   -8.4812   -4.8539    4.0699    1.1932  1.0000E-10     28.2451  2.0000E+08
 3139.3450   13.0000    9.9971    1.1932   -8.6334   -4.8539    4.0319    1.1932  1.0000E-10     28.2451  2.0000E+08
 3639.3450   13.0000    9.9971    1.1932   -8.7628   -4.8539    3.9995    1.1932  1.0000E-10     28.2451  2.0000E+08
 4139.3452   13.0000    9.9971    1.1932   -8.8755   -4.8539    3.9713    1.1932  1.0000E-10     28.2451  2.0000E+08
 4639.3452   13.0000    9.9971    1.1932   -8.9752   -4.8539    3.9464    1.1932  1.0000E-10     28.2451  2.0000E+08
 5139.3452   13.0000    9.9971    1.1932   -9.0646   -4.8539    3.9241    1.1932  1.0000E-10     28.2451  2.0000E+08
 5639.3452   13.0000    9.9971    1.1932   -9.1457   -4.8539    3.9038    1.1932  1.0000E-10     28.2451  2.0000E+08
 6139.3452   13.0000    9.9971    1.1932   -9.2198   -4.8539    3.8853    1.1932  1.0000E-10     28.2451  2.0000E+08
 6639.3452   13.0000    9.9971    1.1932   -9.2881   -4.8539    3.8682    1.1932  1.0000E-10     28.2451  2.0000E+08
 7139.3452   13.0000    9.9971    1.1932   -9.3514   -4.8539    3.8523    1.1932  1.0000E-10     28.2451  2.0000E+08
 7639.3452   13.0000    9.9971    1.1932   -9.4105   -4.8539    3.8376    1.1932  1.0000E-10     28.2451  2.0000E+08
 8139.3452   13.0000    9.9971    1.1932   -9.4657   -4.8539    3.8238    1.1932  1.0000E-10     28.2451  2.0000E+08
 8639.3447   13.0000    9.9971    1.1932   -9.5177   -4.8539    3.8108    1.1932  1.0000E-10     28.2451  2.0000E+08
 9139.3447   13.0000    9.9971    1.1932   -9.5667   -4.8539    3.7985    1.1932  1.0000E-10     28.2451  2.0000E+08
 9639.3447   13.0000    9.9971    1.1932   -9.6131   -4.8539    3.7869    1.1932  1.0000E-10     28.2451  2.0000E+08
10139.3447   13.0000    9.9971    1.1932   -9.6572   -4.8539    3.7759    1.1932  1.0000E-10     28.2451  2.0000E+08
10639.3447   13.0000    9.9971    1.1932   -9.6991   -4.8539    3.7654    1.1932  1.0000E-10     28.2451  2.0000E+08
11139.3447   13.0000    9.9971    1.1932   -9.7391   -4.8539    3.7554    1.1932  1.0000E-10     28.2451  2.0000E+08
11639.3447   13.0000    9.9971    1.1932   -9.7773   -4.8539    3.7459    1.1932  1.0000E-10     28.2451  2.0000E+08
12139.3447   13.0000    9.9971    1.1932   -9.8139   -4.8539    3.7367    1.1932  1.0000E-10     28.2451  2.0000E+08
12639.3447   13.0000    9.9971    1.1932   -9.8491   -4.8539    3.7279    1.1932  1.0000E-10     28.2451  2.0000E+08
13139.3447   13.0000    9.9971    1.1932   -9.8828   -4.8539    3.7195    1.1932  1.0000E-10     28.2451  2.0000E+08
13639.3447   13.0000    9.9971    1.1932   -9.9154   -4.8539    3.7114    1.1932  1.0000E-10     28.2451  2.0000E+08
14139.3447   13.0000    9.9971    1.1932   -9.9467   -4.8539    3.7035    1.1932  1.0000E-10     28.2451  2.0000E+08
14639.3447   13.0000    9.9971    1.1932   -9.9769   -4.8539    3.6960    1.1932  1.0000E-10     28.2451  2.0000E+08
15000.0000   13.0000    9.9971    1.1932   -9.9981   -4.8539    3.6907    1.1932  1.0000E-10     28.2451  2.0000E+08
   -1.0000   13.0000    9.9971    1.1932   -9.9981   -4.8539    3.6907    1.1932  1.0000E-10     28.2451  2.0000E+08
