Zs,eta
0.010269769440034784, 0.00000865903824387109
0.012048274551067191, 0.00000865903824387109
0.017029969604826688, 0.000008170139420154303
0.026072637776835977, 0.000008170139420154303
0.03784728077592633, 0.000007273594529813465
0.05349629430400687, 0.000007273594529813465
0.05794364085237474, 0.000007273594529813465
0.07169540617288514, 0.000006109821425211823
0.10133987092963354, 0.000005132251694120064
0.20246892709953318, 0.0000017011567572400536
0.3018344357372261, 2.9753539094275176e-7
0.39389069598316107, 1.7635059128044113e-7
0.6030409729635742, 1.0452380453438186e-7
0.7869619911552368, 3.464588001009715e-8
0.973731694600355, 2.444614910100874e-8
